Lab3-SC CPU (Complete Ed.)/test/gtkWave1.vcd
$date
	Wed May 19 20:56:21 2021
$end
$version
	Icarus Verilog
$end
$timescale
	1ps
$end
$scope module testbench $end
$var reg 1 ! Clk $end
$var reg 1 " Start $end
$scope module CPU $end
$var wire 1 ! clk_i $end
$var wire 1 # nxt_slc $end
$var wire 1 " rst_i $end
$var wire 1 $ zeo $end
$var wire 5 % wrt_reg [4:0] $end
$var wire 32 & wrt_dat [31:0] $end
$var wire 32 ' read_data [31:0] $end
$var wire 32 ( rd2 [31:0] $end
$var wire 32 ) rd1 [31:0] $end
$var wire 32 * pc_ch0 [31:0] $end
$var wire 32 + pc [31:0] $end
$var wire 32 , nxt_pc1 [31:0] $end
$var wire 32 - nxt_pc0 [31:0] $end
$var wire 32 . jup_ads [31:0] $end
$var wire 32 / instr [31:0] $end
$var wire 32 0 fin_pc [31:0] $end
$var wire 32 1 alu_src [31:0] $end
$var wire 32 2 alu_out [31:0] $end
$var wire 1 3 aluSrc $end
$var wire 3 4 aluOp [2:0] $end
$var wire 4 5 aluCTtoalu [3:0] $end
$var wire 32 6 aft_sgn [31:0] $end
$var wire 32 7 aft_sft [31:0] $end
$var wire 1 8 RegWrite $end
$var wire 2 9 RegDst [1:0] $end
$var wire 1 : MemWrite $end
$var wire 2 ; MemToReg [1:0] $end
$var wire 1 < MemRead $end
$var wire 2 = Jump [1:0] $end
$var wire 1 > Branch $end
$scope module AC $end
$var wire 6 ? funct_i [5:0] $end
$var wire 1 @ op0 $end
$var wire 1 A op1 $end
$var wire 1 B op2 $end
$var wire 1 C op3 $end
$var wire 3 D ALUOp_i [2:0] $end
$var reg 4 E ALUCtrl_o [3:0] $end
$upscope $end
$scope module ALU $end
$var wire 4 F ctrl_i [3:0] $end
$var wire 1 $ zero_o $end
$var wire 32 G src2_i [31:0] $end
$var wire 32 H src1_i [31:0] $end
$var reg 32 I result_o [31:0] $end
$upscope $end
$scope module Adder1 $end
$var wire 32 J src1_i [31:0] $end
$var wire 32 K src2_i [31:0] $end
$var reg 32 L sum_o [31:0] $end
$upscope $end
$scope module Adder2 $end
$var wire 32 M src1_i [31:0] $end
$var wire 32 N src2_i [31:0] $end
$var reg 32 O sum_o [31:0] $end
$upscope $end
$scope module Data_Memory $end
$var wire 32 P addr_i [31:0] $end
$var wire 1 ! clk_i $end
$var wire 32 Q data_i [31:0] $end
$var wire 1 : MemWrite_i $end
$var wire 1 < MemRead_i $end
$var reg 32 R data_o [31:0] $end
$var integer 32 S i [31:0] $end
$upscope $end
$scope module Decoder $end
$var wire 1 T addi $end
$var wire 1 U bieq $end
$var wire 6 V extra_op_i [5:0] $end
$var wire 6 W instr_op_i [5:0] $end
$var wire 1 X jpal $end
$var wire 1 Y jprt $end
$var wire 1 Z jump $end
$var wire 1 [ lowd $end
$var wire 1 \ rfmt $end
$var wire 1 ] slti $end
$var wire 1 ^ stwd $end
$var reg 1 3 ALUSrc_o $end
$var reg 3 _ ALU_op_o [2:0] $end
$var reg 1 > Branch_o $end
$var reg 2 ` Jump_o [1:0] $end
$var reg 1 < MemRead_o $end
$var reg 2 a MemToReg_o [1:0] $end
$var reg 1 : MemWrite_o $end
$var reg 2 b RegDst_o [1:0] $end
$var reg 1 8 RegWrite_o $end
$upscope $end
$scope module IM $end
$var wire 32 c pc_addr_i [31:0] $end
$var reg 32 d instr_o [31:0] $end
$var integer 32 e i [31:0] $end
$upscope $end
$scope module JumpAdd $end
$var wire 26 f data_i [25:0] $end
$var wire 4 g prv_i [3:0] $end
$var wire 32 h data_o [31:0] $end
$upscope $end
$scope module Mux_ALUSrc $end
$var wire 1 3 select_i $end
$var wire 32 i data1_i [31:0] $end
$var wire 32 j data0_i [31:0] $end
$var reg 32 k data_o [31:0] $end
$upscope $end
$scope module Mux_PC_Source_1 $end
$var wire 32 l data0_i [31:0] $end
$var wire 32 m data1_i [31:0] $end
$var wire 1 # select_i $end
$var reg 32 n data_o [31:0] $end
$upscope $end
$scope module Mux_PC_Source_2 $end
$var wire 32 o data0_i [31:0] $end
$var wire 32 p data1_i [31:0] $end
$var wire 32 q data3_i [31:0] $end
$var wire 2 r select_i [1:0] $end
$var wire 32 s data2_i [31:0] $end
$var reg 32 t data_o [31:0] $end
$upscope $end
$scope module Mux_Write_Dat $end
$var wire 32 u data0_i [31:0] $end
$var wire 32 v data1_i [31:0] $end
$var wire 32 w data2_i [31:0] $end
$var wire 32 x data3_i [31:0] $end
$var wire 2 y select_i [1:0] $end
$var reg 32 z data_o [31:0] $end
$upscope $end
$scope module Mux_Write_Reg $end
$var wire 5 { data0_i [4:0] $end
$var wire 5 | data1_i [4:0] $end
$var wire 5 } data2_i [4:0] $end
$var wire 5 ~ data3_i [4:0] $end
$var wire 2 !" select_i [1:0] $end
$var reg 5 "" data_o [4:0] $end
$upscope $end
$scope module PC $end
$var wire 1 ! clk_i $end
$var wire 32 #" pc_in_i [31:0] $end
$var wire 1 " rst_i $end
$var reg 32 $" pc_out_o [31:0] $end
$upscope $end
$scope module Registers $end
$var wire 5 %" RDaddr_i [4:0] $end
$var wire 32 &" RDdata_i [31:0] $end
$var wire 5 '" RSaddr_i [4:0] $end
$var wire 32 (" RSdata_o [31:0] $end
$var wire 5 )" RTaddr_i [4:0] $end
$var wire 32 *" RTdata_o [31:0] $end
$var wire 1 8 RegWrite_i $end
$var wire 1 ! clk_i $end
$var wire 1 " rst_i $end
$upscope $end
$scope module SE $end
$var wire 16 +" data_i [15:0] $end
$var reg 32 ," data_o [31:0] $end
$upscope $end
$scope module Shifter $end
$var wire 32 -" data_i [31:0] $end
$var wire 32 ." data_o [31:0] $end
$upscope $end
$upscope $end
$upscope $end
$enddefinitions $end
#0
$dumpvars
bx00 ."
bx -"
bx ,"
bx +"
bx *"
bx )"
bx ("
bx '"
bx &"
bx %"
bx $"
bx #"
bx ""
bx !"
b0 ~
b11111 }
bx |
bx {
bx z
bx y
b0 x
bx w
bx v
bx u
bx t
bx s
bx r
b0 q
bx00 p
bx o
bx n
bx m
bx l
bx k
bx j
bx i
bx00 h
bx g
bx f
b100000 e
bx d
bx c
bx b
bx a
bx `
bx _
x^
x]
x\
x[
xZ
xY
xX
bx W
bx V
xU
xT
b10000000 S
bx R
bx Q
bx P
bx O
bx00 N
bx M
bx L
bx K
b100 J
bx I
bx H
bx G
b10 F
b10 E
bx D
0C
xB
xA
x@
bx ?
x>
bx =
x<
bx ;
x:
bx 9
x8
bx00 7
bx 6
b10 5
bx 4
x3
bx 2
bx 1
bx 0
bx /
bx00 .
bx -
bx ,
bx +
bx *
bx )
bx (
bx '
bx &
bx %
x$
x#
0"
0!
$end
#2000
b1 &
b1 z
b1 &"
0$
b1 2
b1 I
b1 P
b1 u
b100 0
b100 t
b100 #"
b1 %
b1 ""
b1 %"
0B
1@
0#
13
18
0>
b100 *
b100 n
b100 o
b0 =
b0 `
b0 r
0:
0<
b0 ;
b0 a
b0 y
b0 9
b0 b
b0 !"
b1 1
b1 G
b1 k
b110 4
b110 D
b110 _
1T
0\
0U
b1000 ,
b1000 O
b1000 m
1A
0Y
0]
0Z
b100 7
b100 N
b100 ."
0[
0^
0X
b1 6
b1 i
b1 ,"
b1 -"
b0 g
b1 +"
b1 ?
b1 V
b1000 W
b0 (
b0 Q
b0 j
b0 *"
b1 )"
b0 )
b0 H
b0 s
b0 ("
b0 '"
b0 |
b1 {
b1000000000000000100 .
b1000000000000000100 h
b1000000000000000100 p
b10000000000000001 f
b100 -
b100 L
b100 M
b100 l
b100 w
b100000000000010000000000000001 /
b100000000000010000000000000001 d
b0 +
b0 K
b0 c
b0 $"
1!
#4000
0!
#5000
b1 (
b1 Q
b1 j
b1 *"
1"
#6000
b10 &
b10 z
b10 &"
b10 2
b10 I
b10 P
b10 u
b1000 0
b1000 t
b1000 #"
b10 1
b10 G
b10 k
b10 %
b10 ""
b10 %"
b1000 *
b1000 n
b1000 o
0@
1B
b1000 7
b1000 N
b1000 ."
b10 6
b10 i
b10 ,"
b10 -"
b10000 ,
b10000 O
b10000 m
b10 +"
b10 ?
b10 V
b0 (
b0 Q
b0 j
b0 *"
b10 )"
b10 {
b10000000000000001000 .
b10000000000000001000 h
b10000000000000001000 p
b100000000000000010 f
b1000 -
b1000 L
b1000 M
b1000 l
b1000 w
b100000000000100000000000000010 /
b100000000000100000000000000010 d
b100 +
b100 K
b100 c
b100 $"
1!
#8000
0!
#10000
b11 &
b11 z
b11 &"
b11 2
b11 I
b11 P
b11 u
b1100 0
b1100 t
b1100 #"
b11 1
b11 G
b11 k
b11 %
b11 ""
b11 %"
b1100 *
b1100 n
b1100 o
1@
b1100 7
b1100 N
b1100 ."
b11 6
b11 i
b11 ,"
b11 -"
b11000 ,
b11000 O
b11000 m
b11 +"
b11 ?
b11 V
b11 )"
b11 {
b11000000000000001100 .
b11000000000000001100 h
b11000000000000001100 p
b110000000000000011 f
b1100 -
b1100 L
b1100 M
b1100 l
b1100 w
b100000000000110000000000000011 /
b100000000000110000000000000011 d
b1000 +
b1000 K
b1000 c
b1000 $"
b0 (
b0 Q
b0 j
b0 *"
1!
#12000
0!
#14000
b100 &
b100 z
b100 &"
b100 2
b100 I
b100 P
b100 u
b10000 0
b10000 t
b10000 #"
b100 1
b100 G
b100 k
b100 %
b100 ""
b100 %"
b10000 *
b10000 n
b10000 o
0@
0A
0B
b10000 7
b10000 N
b10000 ."
b100 6
b100 i
b100 ,"
b100 -"
b100000 ,
b100000 O
b100000 m
b100 +"
b100 ?
b100 V
b100 )"
b100 {
b100000000000000010000 .
b100000000000000010000 h
b100000000000000010000 p
b1000000000000000100 f
b10000 -
b10000 L
b10000 M
b10000 l
b10000 w
b100000000001000000000000000100 /
b100000000001000000000000000100 d
b1100 +
b1100 K
b1100 c
b1100 $"
b0 (
b0 Q
b0 j
b0 *"
1!
#16000
0!
#18000
b101 &
b101 z
b101 &"
b101 2
b101 I
b101 P
b101 u
b10100 0
b10100 t
b10100 #"
b101 1
b101 G
b101 k
b101 %
b101 ""
b101 %"
b10100 *
b10100 n
b10100 o
1@
b10100 7
b10100 N
b10100 ."
b101 6
b101 i
b101 ,"
b101 -"
b101000 ,
b101000 O
b101000 m
b101 +"
b101 ?
b101 V
b101 )"
b101 {
b101000000000000010100 .
b101000000000000010100 h
b101000000000000010100 p
b1010000000000000101 f
b10100 -
b10100 L
b10100 M
b10100 l
b10100 w
b100000000001010000000000000101 /
b100000000001010000000000000101 d
b10000 +
b10000 K
b10000 c
b10000 $"
b0 (
b0 Q
b0 j
b0 *"
1!
#20000
0!
#22000
b0 &
b0 z
b0 &"
1$
b0 2
b0 I
b0 P
b0 u
b10 5
b10 E
b10 F
b100000 0
b100000 t
b100000 #"
0@
b1 =
b1 `
b1 r
03
08
b0 1
b0 G
b0 k
b0 4
b0 D
b0 _
b0 %
b0 ""
b0 %"
b11000 *
b11000 n
b11000 o
1Z
1Y
0T
1A
0]
b100000 7
b100000 N
b100000 ."
b1000 6
b1000 i
b1000 ,"
b1000 -"
b111000 ,
b111000 O
b111000 m
b1000 +"
b1000 ?
b1000 V
b10 W
b0 )"
b0 {
b100000 .
b100000 h
b100000 p
b1000 f
b11000 -
b11000 L
b11000 M
b11000 l
b11000 w
b1000000000000000000000001000 /
b1000000000000000000000001000 d
b10100 +
b10100 K
b10100 c
b10100 $"
b0 (
b0 Q
b0 j
b0 *"
1!
#24000
0!
#26000
b0 &
b0 z
b0 &"
1$
b0 2
b0 I
b0 P
b0 u
b0 =
b0 `
b0 r
1:
13
b0 ;
b0 a
b0 y
08
b0 9
b0 b
b0 !"
b0 1
b0 G
b0 k
b1 %
b1 ""
b1 %"
b100100 0
b100100 t
b100100 #"
b100100 *
b100100 n
b100100 o
1^
0Y
0Z
b0 7
b0 N
b0 ."
0X
b0 6
b0 i
b0 ,"
b0 -"
b100100 ,
b100100 O
b100100 m
b0 +"
b0 ?
b0 V
b101011 W
b1 (
b1 Q
b1 j
b1 *"
b1 )"
b1 {
b1000000000000000000 .
b1000000000000000000 h
b1000000000000000000 p
b10000000000000000 f
b100100 -
b100100 L
b100100 M
b100100 l
b100100 w
b10101100000000010000000000000000 /
b10101100000000010000000000000000 d
b100000 +
b100000 K
b100000 c
b100000 $"
1!
#28000
0!
#30000
b100 &
b100 z
b100 &"
0$
b100 2
b100 I
b100 P
b100 u
b101000 0
b101000 t
b101000 #"
b100 1
b100 G
b100 k
b10 %
b10 ""
b10 %"
b101000 *
b101000 n
b101000 o
b10000 7
b10000 N
b10000 ."
b100 6
b100 i
b100 ,"
b100 -"
b111000 ,
b111000 O
b111000 m
b100 +"
b100 ?
b100 V
b10 (
b10 Q
b10 j
b10 *"
b10 )"
b10 {
b10000000000000010000 .
b10000000000000010000 h
b10000000000000010000 p
b100000000000000100 f
b101000 -
b101000 L
b101000 M
b101000 l
b101000 w
b10101100000000100000000000000100 /
b10101100000000100000000000000100 d
b100100 +
b100100 K
b100100 c
b100100 $"
1!
#32000
0!
#34000
b1 &
b1 z
b1 &"
1$
b0 2
b0 I
b0 P
b0 u
b101100 0
b101100 t
b101100 #"
b1 '
b1 R
b1 v
1<
b1 ;
b1 a
b1 y
18
0:
13
b0 1
b0 G
b0 k
b110 %
b110 ""
b110 %"
b101100 *
b101100 n
b101100 o
1[
0^
b0 7
b0 N
b0 ."
b0 6
b0 i
b0 ,"
b0 -"
b101100 ,
b101100 O
b101100 m
b0 +"
b0 ?
b0 V
b100011 W
b0 (
b0 Q
b0 j
b0 *"
b110 )"
b110 {
b110000000000000000000 .
b110000000000000000000 h
b110000000000000000000 p
b1100000000000000000 f
b101100 -
b101100 L
b101100 M
b101100 l
b101100 w
b10001100000001100000000000000000 /
b10001100000001100000000000000000 d
b101000 +
b101000 K
b101000 c
b101000 $"
1!
#36000
0!
#38000
b10 &
b10 z
b10 &"
b110000 0
b110000 t
b110000 #"
b10 '
b10 R
b10 v
0$
b100 2
b100 I
b100 P
b100 u
b111 %
b111 ""
b111 %"
b110000 *
b110000 n
b110000 o
b110000 ,
b110000 O
b110000 m
b111 )"
b100 )
b100 H
b100 s
b100 ("
b100 '"
b111 {
b10000111000000000000000000 .
b10000111000000000000000000 h
b10000111000000000000000000 p
b100001110000000000000000 f
b110000 -
b110000 L
b110000 M
b110000 l
b110000 w
b10001100100001110000000000000000 /
b10001100100001110000000000000000 d
b101100 +
b101100 K
b101100 c
b101100 $"
b0 (
b0 Q
b0 j
b0 *"
1!
#40000
0!
#42000
b100 &
b100 z
b100 &"
b110100 0
b110100 t
b110100 #"
b1 9
b1 b
b1 !"
0<
b0 ;
b0 a
b0 y
03
18
b11 1
b11 G
b11 k
b10 4
b10 D
b10 _
b100 2
b100 I
b100 P
b100 u
b1000 %
b1000 ""
b1000 %"
b110100 *
b110100 n
b110100 o
1\
b10000000010000000 7
b10000000010000000 N
b10000000010000000 ."
0[
b100000000100000 6
b100000000100000 i
b100000000100000 ,"
b100000000100000 -"
b10000000010110100 ,
b10000000010110100 O
b10000000010110100 m
b100000000100000 +"
b100000 ?
b100000 V
b0 W
b11 )"
b1 )
b1 H
b1 s
b1 ("
b1 '"
b1000 |
b11 {
b100011010000000010000000 .
b100011010000000010000000 h
b100011010000000010000000 p
b1000110100000000100000 f
b110100 -
b110100 L
b110100 M
b110100 l
b110100 w
b1000110100000000100000 /
b1000110100000000100000 d
b110000 +
b110000 K
b110000 c
b110000 $"
b11 (
b11 Q
b11 j
b11 *"
1!
#44000
0!
#46000
0$
b10 &
b10 z
b10 &"
b111000 0
b111000 t
b111000 #"
b10 '
b10 R
b10 v
1<
13
b10 5
b10 E
b10 F
b0 =
b0 `
b0 r
b1 ;
b1 a
b1 y
b0 9
b0 b
b0 !"
b0 4
b0 D
b0 _
b100 1
b100 G
b100 k
b100 2
b100 I
b100 P
b100 u
b1001 %
b1001 ""
b1001 %"
b111000 *
b111000 n
b111000 o
1[
1A
0\
0X
b10000 7
b10000 N
b10000 ."
b100 6
b100 i
b100 ,"
b100 -"
b1001000 ,
b1001000 O
b1001000 m
b100 +"
b100 ?
b100 V
b100011 W
b0 (
b0 Q
b0 j
b0 *"
b1001 )"
b0 )
b0 H
b0 s
b0 ("
b0 '"
b0 |
b1001 {
b1001000000000000010000 .
b1001000000000000010000 h
b1001000000000000010000 p
b10010000000000000100 f
b111000 -
b111000 L
b111000 M
b111000 l
b111000 w
b10001100000010010000000000000100 /
b10001100000010010000000000000100 d
b110100 +
b110100 K
b110100 c
b110100 $"
1!
#48000
0!
#50000
b0 &
b0 z
b0 &"
1$
b0 2
b0 I
b0 P
b0 u
b111100 0
b111100 t
b111100 #"
b1 9
b1 b
b1 !"
0<
b0 ;
b0 a
b0 y
03
18
b0 1
b0 G
b0 k
b10 4
b10 D
b10 _
b0 %
b0 ""
b0 %"
b111100 *
b111100 n
b111100 o
1\
b0 7
b0 N
b0 ."
0[
b0 6
b0 i
b0 ,"
b0 -"
b111100 ,
b111100 O
b111100 m
b0 +"
b0 ?
b0 V
b0 W
b0 )"
b0 {
b0 .
b0 h
b0 p
b0 f
b111100 -
b111100 L
b111100 M
b111100 l
b111100 w
b0 /
b0 d
b111000 +
b111000 K
b111000 c
b111000 $"
b0 (
b0 Q
b0 j
b0 *"
1!
#52000
0!
#54000
b1000000 0
b1000000 t
b1000000 #"
b1000000 *
b1000000 n
b1000000 o
b1000000 ,
b1000000 O
b1000000 m
b1000000 -
b1000000 L
b1000000 M
b1000000 l
b1000000 w
b111100 +
b111100 K
b111100 c
b111100 $"
1!
#56000
0!
#58000
b1000100 0
b1000100 t
b1000100 #"
b1000100 *
b1000100 n
b1000100 o
b1000100 ,
b1000100 O
b1000100 m
b1000100 -
b1000100 L
b1000100 M
b1000100 l
b1000100 w
b1000000 +
b1000000 K
b1000000 c
b1000000 $"
1!
#60000
0!
#62000
b1001000 0
b1001000 t
b1001000 #"
b1001000 *
b1001000 n
b1001000 o
b1001000 ,
b1001000 O
b1001000 m
b1001000 -
b1001000 L
b1001000 M
b1001000 l
b1001000 w
b1000100 +
b1000100 K
b1000100 c
b1000100 $"
1!
#64000
0!
#66000
b1001100 0
b1001100 t
b1001100 #"
b1001100 *
b1001100 n
b1001100 o
b1001100 ,
b1001100 O
b1001100 m
b1001100 -
b1001100 L
b1001100 M
b1001100 l
b1001100 w
b1001000 +
b1001000 K
b1001000 c
b1001000 $"
1!
#68000
0!
#70000
b1010000 0
b1010000 t
b1010000 #"
b1010000 *
b1010000 n
b1010000 o
b1010000 ,
b1010000 O
b1010000 m
b1010000 -
b1010000 L
b1010000 M
b1010000 l
b1010000 w
b1001100 +
b1001100 K
b1001100 c
b1001100 $"
1!
#72000
0!
#74000
b1010100 0
b1010100 t
b1010100 #"
b1010100 *
b1010100 n
b1010100 o
b1010100 ,
b1010100 O
b1010100 m
b1010100 -
b1010100 L
b1010100 M
b1010100 l
b1010100 w
b1010000 +
b1010000 K
b1010000 c
b1010000 $"
1!
#76000
0!
#78000
b1011000 0
b1011000 t
b1011000 #"
b1011000 *
b1011000 n
b1011000 o
b1011000 ,
b1011000 O
b1011000 m
b1011000 -
b1011000 L
b1011000 M
b1011000 l
b1011000 w
b1010100 +
b1010100 K
b1010100 c
b1010100 $"
1!
#80000
0!
#82000
b1011100 0
b1011100 t
b1011100 #"
b1011100 *
b1011100 n
b1011100 o
b1011100 ,
b1011100 O
b1011100 m
b1011100 -
b1011100 L
b1011100 M
b1011100 l
b1011100 w
b1011000 +
b1011000 K
b1011000 c
b1011000 $"
1!
#84000
0!
#86000
b1100000 0
b1100000 t
b1100000 #"
b1100000 *
b1100000 n
b1100000 o
b1100000 ,
b1100000 O
b1100000 m
b1100000 -
b1100000 L
b1100000 M
b1100000 l
b1100000 w
b1011100 +
b1011100 K
b1011100 c
b1011100 $"
1!
#88000
0!
#90000
b1100100 0
b1100100 t
b1100100 #"
b1100100 *
b1100100 n
b1100100 o
b1100100 ,
b1100100 O
b1100100 m
b1100100 -
b1100100 L
b1100100 M
b1100100 l
b1100100 w
b1100000 +
b1100000 K
b1100000 c
b1100000 $"
1!
#92000
0!
#94000
b1101000 0
b1101000 t
b1101000 #"
b1101000 *
b1101000 n
b1101000 o
b1101000 ,
b1101000 O
b1101000 m
b1101000 -
b1101000 L
b1101000 M
b1101000 l
b1101000 w
b1100100 +
b1100100 K
b1100100 c
b1100100 $"
1!
#96000
0!
#98000
b1101100 0
b1101100 t
b1101100 #"
b1101100 *
b1101100 n
b1101100 o
b1101100 ,
b1101100 O
b1101100 m
b1101100 -
b1101100 L
b1101100 M
b1101100 l
b1101100 w
b1101000 +
b1101000 K
b1101000 c
b1101000 $"
1!
#100000
0!
#102000
b1110000 0
b1110000 t
b1110000 #"
b1110000 *
b1110000 n
b1110000 o
b1110000 ,
b1110000 O
b1110000 m
b1110000 -
b1110000 L
b1110000 M
b1110000 l
b1110000 w
b1101100 +
b1101100 K
b1101100 c
b1101100 $"
1!
#104000
0!
#106000
b1110100 0
b1110100 t
b1110100 #"
b1110100 *
b1110100 n
b1110100 o
b1110100 ,
b1110100 O
b1110100 m
b1110100 -
b1110100 L
b1110100 M
b1110100 l
b1110100 w
b1110000 +
b1110000 K
b1110000 c
b1110000 $"
1!
#108000
0!
#110000
b1111000 0
b1111000 t
b1111000 #"
b1111000 *
b1111000 n
b1111000 o
b1111000 ,
b1111000 O
b1111000 m
b1111000 -
b1111000 L
b1111000 M
b1111000 l
b1111000 w
b1110100 +
b1110100 K
b1110100 c
b1110100 $"
1!
#112000
0!
#114000
b1111100 0
b1111100 t
b1111100 #"
b1111100 *
b1111100 n
b1111100 o
b1111100 ,
b1111100 O
b1111100 m
b1111100 -
b1111100 L
b1111100 M
b1111100 l
b1111100 w
b1111000 +
b1111000 K
b1111000 c
b1111000 $"
1!
#116000
0!
#118000
b10000000 0
b10000000 t
b10000000 #"
b10000000 *
b10000000 n
b10000000 o
b10000000 ,
b10000000 O
b10000000 m
b10000000 -
b10000000 L
b10000000 M
b10000000 l
b10000000 w
b1111100 +
b1111100 K
b1111100 c
b1111100 $"
1!
#120000
0!
#122000
bx &
bx z
bx &"
bx 0
bx t
bx #"
x#
x:
x<
x3
x>
b10 5
b10 E
b10 F
bx =
bx `
bx r
bx ;
bx a
bx y
x8
bx 9
bx b
bx !"
b0 4
b0 D
b0 _
bx 1
bx G
bx k
x$
bx 2
bx I
bx P
bx u
bx %
bx ""
bx %"
bx *
bx n
bx o
x[
x^
xY
xT
x]
xU
0@
1A
0B
x\
xZ
xX
b11111111111111xxxxxxxxxxxxxxxx00 7
b11111111111111xxxxxxxxxxxxxxxx00 N
b11111111111111xxxxxxxxxxxxxxxx00 ."
b1111111111111111xxxxxxxxxxxxxxxx 6
b1111111111111111xxxxxxxxxxxxxxxx i
b1111111111111111xxxxxxxxxxxxxxxx ,"
b1111111111111111xxxxxxxxxxxxxxxx -"
bx ,
bx O
bx m
bx +"
bx ?
bx V
bx W
bx (
bx Q
bx j
bx *"
bx )"
bx )
bx H
bx s
bx ("
bx '"
bx |
bx {
b0xxxxxxxxxxxxxxxxxxxxxxxxxx00 .
b0xxxxxxxxxxxxxxxxxxxxxxxxxx00 h
b0xxxxxxxxxxxxxxxxxxxxxxxxxx00 p
bx f
b10000100 -
b10000100 L
b10000100 M
b10000100 l
b10000100 w
bx /
bx d
b10000000 +
b10000000 K
b10000000 c
b10000000 $"
1!
#124000
0!
#126000
bx00 .
bx00 h
bx00 p
bx g
bx -
bx L
bx M
bx l
bx w
bx +
bx K
bx c
bx $"
1!
