Lab3-SC CPU (Complete Ed.)/test/gtkWave2.vcd
$date
	Wed May 19 20:54:01 2021
$end
$version
	Icarus Verilog
$end
$timescale
	1ps
$end
$scope module testbench $end
$var reg 1 ! Clk $end
$var reg 1 " Start $end
$scope module CPU $end
$var wire 1 ! clk_i $end
$var wire 1 # nxt_slc $end
$var wire 1 " rst_i $end
$var wire 1 $ zeo $end
$var wire 5 % wrt_reg [4:0] $end
$var wire 32 & wrt_dat [31:0] $end
$var wire 32 ' read_data [31:0] $end
$var wire 32 ( rd2 [31:0] $end
$var wire 32 ) rd1 [31:0] $end
$var wire 32 * pc_ch0 [31:0] $end
$var wire 32 + pc [31:0] $end
$var wire 32 , nxt_pc1 [31:0] $end
$var wire 32 - nxt_pc0 [31:0] $end
$var wire 32 . jup_ads [31:0] $end
$var wire 32 / instr [31:0] $end
$var wire 32 0 fin_pc [31:0] $end
$var wire 32 1 alu_src [31:0] $end
$var wire 32 2 alu_out [31:0] $end
$var wire 1 3 aluSrc $end
$var wire 3 4 aluOp [2:0] $end
$var wire 4 5 aluCTtoalu [3:0] $end
$var wire 32 6 aft_sgn [31:0] $end
$var wire 32 7 aft_sft [31:0] $end
$var wire 1 8 RegWrite $end
$var wire 2 9 RegDst [1:0] $end
$var wire 1 : MemWrite $end
$var wire 2 ; MemToReg [1:0] $end
$var wire 1 < MemRead $end
$var wire 2 = Jump [1:0] $end
$var wire 1 > Branch $end
$scope module AC $end
$var wire 6 ? funct_i [5:0] $end
$var wire 1 @ op0 $end
$var wire 1 A op1 $end
$var wire 1 B op2 $end
$var wire 1 C op3 $end
$var wire 3 D ALUOp_i [2:0] $end
$var reg 4 E ALUCtrl_o [3:0] $end
$upscope $end
$scope module ALU $end
$var wire 4 F ctrl_i [3:0] $end
$var wire 1 $ zero_o $end
$var wire 32 G src2_i [31:0] $end
$var wire 32 H src1_i [31:0] $end
$var reg 32 I result_o [31:0] $end
$upscope $end
$scope module Adder1 $end
$var wire 32 J src1_i [31:0] $end
$var wire 32 K src2_i [31:0] $end
$var reg 32 L sum_o [31:0] $end
$upscope $end
$scope module Adder2 $end
$var wire 32 M src1_i [31:0] $end
$var wire 32 N src2_i [31:0] $end
$var reg 32 O sum_o [31:0] $end
$upscope $end
$scope module Data_Memory $end
$var wire 32 P addr_i [31:0] $end
$var wire 1 ! clk_i $end
$var wire 32 Q data_i [31:0] $end
$var wire 1 : MemWrite_i $end
$var wire 1 < MemRead_i $end
$var reg 32 R data_o [31:0] $end
$var integer 32 S i [31:0] $end
$upscope $end
$scope module Decoder $end
$var wire 1 T addi $end
$var wire 1 U bieq $end
$var wire 6 V extra_op_i [5:0] $end
$var wire 6 W instr_op_i [5:0] $end
$var wire 1 X jpal $end
$var wire 1 Y jprt $end
$var wire 1 Z jump $end
$var wire 1 [ lowd $end
$var wire 1 \ rfmt $end
$var wire 1 ] slti $end
$var wire 1 ^ stwd $end
$var reg 1 3 ALUSrc_o $end
$var reg 3 _ ALU_op_o [2:0] $end
$var reg 1 > Branch_o $end
$var reg 2 ` Jump_o [1:0] $end
$var reg 1 < MemRead_o $end
$var reg 2 a MemToReg_o [1:0] $end
$var reg 1 : MemWrite_o $end
$var reg 2 b RegDst_o [1:0] $end
$var reg 1 8 RegWrite_o $end
$upscope $end
$scope module IM $end
$var wire 32 c pc_addr_i [31:0] $end
$var reg 32 d instr_o [31:0] $end
$var integer 32 e i [31:0] $end
$upscope $end
$scope module JumpAdd $end
$var wire 26 f data_i [25:0] $end
$var wire 4 g prv_i [3:0] $end
$var wire 32 h data_o [31:0] $end
$upscope $end
$scope module Mux_ALUSrc $end
$var wire 1 3 select_i $end
$var wire 32 i data1_i [31:0] $end
$var wire 32 j data0_i [31:0] $end
$var reg 32 k data_o [31:0] $end
$upscope $end
$scope module Mux_PC_Source_1 $end
$var wire 32 l data0_i [31:0] $end
$var wire 32 m data1_i [31:0] $end
$var wire 1 # select_i $end
$var reg 32 n data_o [31:0] $end
$upscope $end
$scope module Mux_PC_Source_2 $end
$var wire 32 o data0_i [31:0] $end
$var wire 32 p data1_i [31:0] $end
$var wire 32 q data3_i [31:0] $end
$var wire 2 r select_i [1:0] $end
$var wire 32 s data2_i [31:0] $end
$var reg 32 t data_o [31:0] $end
$upscope $end
$scope module Mux_Write_Dat $end
$var wire 32 u data0_i [31:0] $end
$var wire 32 v data1_i [31:0] $end
$var wire 32 w data2_i [31:0] $end
$var wire 32 x data3_i [31:0] $end
$var wire 2 y select_i [1:0] $end
$var reg 32 z data_o [31:0] $end
$upscope $end
$scope module Mux_Write_Reg $end
$var wire 5 { data0_i [4:0] $end
$var wire 5 | data1_i [4:0] $end
$var wire 5 } data2_i [4:0] $end
$var wire 5 ~ data3_i [4:0] $end
$var wire 2 !" select_i [1:0] $end
$var reg 5 "" data_o [4:0] $end
$upscope $end
$scope module PC $end
$var wire 1 ! clk_i $end
$var wire 32 #" pc_in_i [31:0] $end
$var wire 1 " rst_i $end
$var reg 32 $" pc_out_o [31:0] $end
$upscope $end
$scope module Registers $end
$var wire 5 %" RDaddr_i [4:0] $end
$var wire 32 &" RDdata_i [31:0] $end
$var wire 5 '" RSaddr_i [4:0] $end
$var wire 32 (" RSdata_o [31:0] $end
$var wire 5 )" RTaddr_i [4:0] $end
$var wire 32 *" RTdata_o [31:0] $end
$var wire 1 8 RegWrite_i $end
$var wire 1 ! clk_i $end
$var wire 1 " rst_i $end
$upscope $end
$scope module SE $end
$var wire 16 +" data_i [15:0] $end
$var reg 32 ," data_o [31:0] $end
$upscope $end
$scope module Shifter $end
$var wire 32 -" data_i [31:0] $end
$var wire 32 ." data_o [31:0] $end
$upscope $end
$upscope $end
$upscope $end
$enddefinitions $end
#0
$dumpvars
bx00 ."
bx -"
bx ,"
bx +"
bx *"
bx )"
bx ("
bx '"
bx &"
bx %"
bx $"
bx #"
bx ""
bx !"
b0 ~
b11111 }
bx |
bx {
bx z
bx y
b0 x
bx w
bx v
bx u
bx t
bx s
bx r
b0 q
bx00 p
bx o
bx n
bx m
bx l
bx k
bx j
bx i
bx00 h
bx g
bx f
b100000 e
bx d
bx c
bx b
bx a
bx `
bx _
x^
x]
x\
x[
xZ
xY
xX
bx W
bx V
xU
xT
b10000000 S
bx R
bx Q
bx P
bx O
bx00 N
bx M
bx L
bx K
b100 J
bx I
bx H
bx G
b10 F
b10 E
bx D
0C
xB
xA
x@
bx ?
x>
bx =
x<
bx ;
x:
bx 9
x8
bx00 7
bx 6
b10 5
bx 4
x3
bx 2
bx 1
bx 0
bx /
bx00 .
bx -
bx ,
bx +
bx *
bx )
bx (
bx '
bx &
bx %
x$
x#
0"
0!
$end
#2000
b0 &
b0 z
b0 &"
b100 0
b100 t
b100 #"
b0 %
b0 ""
b0 %"
1$
b0 2
b0 I
b0 P
b0 u
b10 5
b10 E
b10 F
0B
0#
18
03
0>
b100 *
b100 n
b100 o
b0 =
b0 `
b0 r
0:
0<
b0 ;
b0 a
b0 y
b1 9
b1 b
b1 !"
b0 1
b0 G
b0 k
b10 4
b10 D
b10 _
1\
0Y
0T
0U
b100 ,
b100 O
b100 m
0@
1A
0]
0Z
b0 7
b0 N
b0 ."
0[
0^
0X
b0 6
b0 i
b0 ,"
b0 -"
b0 g
b0 +"
b0 ?
b0 V
b0 W
b0 (
b0 Q
b0 j
b0 *"
b0 )"
b0 )
b0 H
b0 s
b0 ("
b0 '"
b0 |
b0 {
b0 .
b0 h
b0 p
b0 f
b100 -
b100 L
b100 M
b100 l
b100 w
b0 /
b0 d
b0 +
b0 K
b0 c
b0 $"
1!
#4000
0!
#5000
1"
#6000
b100 &
b100 z
b100 &"
0$
b100 2
b100 I
b100 P
b100 u
b100 %
b100 ""
b100 %"
b100 1
b100 G
b100 k
b1000 0
b1000 t
b1000 #"
b0 9
b0 b
b0 !"
13
b10 5
b10 E
b10 F
b110 4
b110 D
b110 _
b1000 *
b1000 n
b1000 o
0\
1T
0A
b10000 7
b10000 N
b10000 ."
b100 6
b100 i
b100 ,"
b100 -"
b11000 ,
b11000 O
b11000 m
b100 +"
b100 ?
b100 V
b1000 W
b100 )"
b100 {
b100000000000000010000 .
b100000000000000010000 h
b100000000000000010000 p
b1000000000000000100 f
b1000 -
b1000 L
b1000 M
b1000 l
b1000 w
b100000000001000000000000000100 /
b100000000001000000000000000100 d
b100 +
b100 K
b100 c
b100 $"
1!
#8000
0!
#10000
b1 &
b1 z
b1 &"
b1 2
b1 I
b1 P
b1 u
b1100 0
b1100 t
b1100 #"
b1 1
b1 G
b1 k
b1001 %
b1001 ""
b1001 %"
b1100 *
b1100 n
b1100 o
1@
1A
b100 7
b100 N
b100 ."
b1 6
b1 i
b1 ,"
b1 -"
b10000 ,
b10000 O
b10000 m
b1 +"
b1 ?
b1 V
b1001 )"
b1001 {
b1001000000000000000100 .
b1001000000000000000100 h
b1001000000000000000100 p
b10010000000000000001 f
b1100 -
b1100 L
b1100 M
b1100 l
b1100 w
b100000000010010000000000000001 /
b100000000010010000000000000001 d
b1000 +
b1000 K
b1000 c
b1000 $"
b0 (
b0 Q
b0 j
b0 *"
1!
#12000
0!
#14000
1$
b10000 &
b10000 z
b10000 &"
b0 2
b0 I
b0 P
b0 u
b10 5
b10 E
b10 F
b10100 0
b10100 t
b10100 #"
0@
b1 =
b1 `
b1 r
b10 ;
b10 a
b10 y
b10 9
b10 b
b10 !"
03
18
b0 1
b0 G
b0 k
b0 4
b0 D
b0 _
b11111 %
b11111 ""
b11111 %"
b10000 *
b10000 n
b10000 o
1X
1A
0T
b10100 7
b10100 N
b10100 ."
b101 6
b101 i
b101 ,"
b101 -"
b100100 ,
b100100 O
b100100 m
b101 +"
b101 ?
b101 V
b11 W
b0 )"
b0 {
b10100 .
b10100 h
b10100 p
b101 f
b10000 -
b10000 L
b10000 M
b10000 l
b10000 w
b1100000000000000000000000101 /
b1100000000000000000000000101 d
b1100 +
b1100 K
b1100 c
b1100 $"
b0 (
b0 Q
b0 j
b0 *"
1!
#16000
0!
#18000
b11101 %
b11101 ""
b11101 %"
0A
13
b0 =
b0 `
b0 r
b0 ;
b0 a
b0 y
18
b0 9
b0 b
b0 !"
b110 4
b110 D
b110 _
b11111111111111111111111111110100 1
b11111111111111111111111111110100 G
b11111111111111111111111111110100 k
0$
b1110100 2
b1110100 I
b1110100 P
b1110100 u
b11000 0
b11000 t
b11000 #"
b11000 *
b11000 n
b11000 o
b1110100 &
b1110100 z
b1110100 &"
1T
0\
b11111111111111111111111111010000 7
b11111111111111111111111111010000 N
b11111111111111111111111111010000 ."
0X
b11111111111111111111111111110100 6
b11111111111111111111111111110100 i
b11111111111111111111111111110100 ,"
b11111111111111111111111111110100 -"
b11111111111111111111111111101000 ,
b11111111111111111111111111101000 O
b11111111111111111111111111101000 m
b1111111111110100 +"
b110100 ?
b110100 V
b1000 W
b10000000 (
b10000000 Q
b10000000 j
b10000000 *"
b11101 )"
b10000000 )
b10000000 H
b10000000 s
b10000000 ("
b11101 '"
b11111 |
b11101 {
b1110111101111111111111010000 .
b1110111101111111111111010000 h
b1110111101111111111111010000 p
b11101111011111111111110100 f
b11000 -
b11000 L
b11000 M
b11000 l
b11000 w
b100011101111011111111111110100 /
b100011101111011111111111110100 d
b10100 +
b10100 K
b10100 c
b10100 $"
1!
#20000
0!
#22000
b11100 0
b11100 t
b11100 #"
b1110100 &
b1110100 z
b1110100 &"
1:
13
08
b0 1
b0 G
b0 k
b0 4
b0 D
b0 _
b11111 %
b11111 ""
b11111 %"
b11100 *
b11100 n
b11100 o
b1110100 2
b1110100 I
b1110100 P
b1110100 u
1^
1A
0T
b0 7
b0 N
b0 ."
b0 6
b0 i
b0 ,"
b0 -"
b11100 ,
b11100 O
b11100 m
b0 +"
b0 ?
b0 V
b101011 W
b11111 )"
b0 |
b11111 {
b1110111111000000000000000000 .
b1110111111000000000000000000 h
b1110111111000000000000000000 p
b11101111110000000000000000 f
b11100 -
b11100 L
b11100 M
b11100 l
b11100 w
b10101111101111110000000000000000 /
b10101111101111110000000000000000 d
b11000 +
b11000 K
b11000 c
b11000 $"
b1110100 )
b1110100 H
b1110100 s
b1110100 ("
b10000 (
b10000 Q
b10000 j
b10000 *"
1!
#24000
0!
#26000
b1111000 &
b1111000 z
b1111000 &"
b1111000 2
b1111000 I
b1111000 P
b1111000 u
b100000 0
b100000 t
b100000 #"
b100 1
b100 G
b100 k
b10000 %
b10000 ""
b10000 %"
b100000 *
b100000 n
b100000 o
b10000 7
b10000 N
b10000 ."
b100 6
b100 i
b100 ,"
b100 -"
b110000 ,
b110000 O
b110000 m
b100 +"
b100 ?
b100 V
b0 (
b0 Q
b0 j
b0 *"
b10000 )"
b10000 {
b1110110000000000000000010000 .
b1110110000000000000000010000 h
b1110110000000000000000010000 p
b11101100000000000000000100 f
b100000 -
b100000 L
b100000 M
b100000 l
b100000 w
b10101111101100000000000000000100 /
b10101111101100000000000000000100 d
b11100 +
b11100 K
b11100 c
b11100 $"
1!
#28000
0!
#30000
b1111100 &
b1111100 z
b1111100 &"
b1111100 2
b1111100 I
b1111100 P
b1111100 u
b100100 0
b100100 t
b100100 #"
b1000 1
b1000 G
b1000 k
b10001 %
b10001 ""
b10001 %"
b100100 *
b100100 n
b100100 o
1Y
b100000 7
b100000 N
b100000 ."
b1000 6
b1000 i
b1000 ,"
b1000 -"
b1000100 ,
b1000100 O
b1000100 m
b1000 +"
b1000 ?
b1000 V
b10001 )"
b10001 {
b1110110001000000000000100000 .
b1110110001000000000000100000 h
b1110110001000000000000100000 p
b11101100010000000000001000 f
b100100 -
b100100 L
b100100 M
b100100 l
b100100 w
b10101111101100010000000000001000 /
b10101111101100010000000000001000 d
b100000 +
b100000 K
b100000 c
b100000 $"
1!
#32000
0!
#34000
b100 &
b100 z
b100 &"
b101000 0
b101000 t
b101000 #"
18
b1 9
b1 b
b1 !"
0:
03
b0 1
b0 G
b0 k
b10 4
b10 D
b10 _
b100 2
b100 I
b100 P
b100 u
b10000 %
b10000 ""
b10000 %"
b101000 *
b101000 n
b101000 o
1\
0Y
b11111111111111100000000010000000 7
b11111111111111100000000010000000 N
b11111111111111100000000010000000 ."
0^
b11111111111111111000000000100000 6
b11111111111111111000000000100000 i
b11111111111111111000000000100000 ,"
b11111111111111111000000000100000 -"
b11111111111111100000000010101000 ,
b11111111111111100000000010101000 O
b11111111111111100000000010101000 m
b1000000000100000 +"
b100000 ?
b100000 V
b0 W
b0 )"
b100 )
b100 H
b100 s
b100 ("
b100 '"
b10000 |
b0 {
b10000000100000000010000000 .
b10000000100000000010000000 h
b10000000100000000010000000 p
b100000001000000000100000 f
b101000 -
b101000 L
b101000 M
b101000 l
b101000 w
b100000001000000000100000 /
b100000001000000000100000 d
b100100 +
b100100 K
b100100 c
b100100 $"
1!
#36000
0!
#38000
b101100 0
b101100 t
b101100 #"
1B
08
b0 9
b0 b
b0 !"
1>
b110 5
b110 E
b110 F
b1 4
b1 D
b1 _
b0 %
b0 ""
b0 %"
b101100 *
b101100 n
b101100 o
0\
1U
0@
1A
b110000 7
b110000 N
b110000 ."
b1100 6
b1100 i
b1100 ,"
b1100 -"
b1011100 ,
b1011100 O
b1011100 m
b1100 +"
b1100 ?
b1100 V
b100 W
b10000 '"
b0 |
b1000000000000000000000110000 .
b1000000000000000000000110000 h
b1000000000000000000000110000 p
b10000000000000000000001100 f
b101100 -
b101100 L
b101100 M
b101100 l
b101100 w
b10010000000000000000000001100 /
b10010000000000000000000001100 d
b101000 +
b101000 K
b101000 c
b101000 $"
1!
#40000
0!
#42000
b11 &
b11 z
b11 &"
b11 2
b11 I
b11 P
b11 u
b110000 0
b110000 t
b110000 #"
b1 1
b1 G
b1 k
b1001 %
b1001 ""
b1001 %"
b110000 *
b110000 n
b110000 o
b101100 7
b101100 N
b101100 ."
b1011 6
b1011 i
b1011 ,"
b1011 -"
b1011100 ,
b1011100 O
b1011100 m
b1011 +"
b1011 ?
b1011 V
b1 (
b1 Q
b1 j
b1 *"
b1001 )"
b1001 {
b1000001001000000000000101100 .
b1000001001000000000000101100 h
b1000001001000000000000101100 p
b10000010010000000000001011 f
b110000 -
b110000 L
b110000 M
b110000 l
b110000 w
b10010000010010000000000001011 /
b10010000010010000000000001011 d
b101100 +
b101100 K
b101100 c
b101100 $"
1!
#44000
0!
#46000
b11 &
b11 z
b11 &"
b10 5
b10 E
b10 F
0$
b11 2
b11 I
b11 P
b11 u
b110100 0
b110100 t
b110100 #"
0A
1@
13
18
b0 9
b0 b
b0 !"
0>
b110 4
b110 D
b110 _
b11111111111111111111111111111111 1
b11111111111111111111111111111111 G
b11111111111111111111111111111111 k
b100 %
b100 ""
b100 %"
b110100 *
b110100 n
b110100 o
0\
1T
0U
b11111111111111111111111111111100 7
b11111111111111111111111111111100 N
b11111111111111111111111111111100 ."
b11111111111111111111111111111111 6
b11111111111111111111111111111111 i
b11111111111111111111111111111111 ,"
b11111111111111111111111111111111 -"
b110000 ,
b110000 O
b110000 m
b1111111111111111 +"
b111111 ?
b111111 V
b1000 W
b100 (
b100 Q
b100 j
b100 *"
b100 )"
b11111 |
b100 {
b1000000100111111111111111100 .
b1000000100111111111111111100 h
b1000000100111111111111111100 p
b10000001001111111111111111 f
b110100 -
b110100 L
b110100 M
b110100 l
b110100 w
b100010000001001111111111111111 /
b100010000001001111111111111111 d
b110000 +
b110000 K
b110000 c
b110000 $"
1!
#48000
0!
#50000
1$
b10 5
b10 E
b10 F
b111000 &
b111000 z
b111000 &"
b10100 0
b10100 t
b10100 #"
1A
0@
b1 =
b1 `
b1 r
b10 ;
b10 a
b10 y
b10 9
b10 b
b10 !"
03
18
b0 1
b0 G
b0 k
b0 4
b0 D
b0 _
b0 2
b0 I
b0 P
b0 u
b11111 %
b11111 ""
b11111 %"
b111000 *
b111000 n
b111000 o
1X
0B
0T
b10100 7
b10100 N
b10100 ."
b101 6
b101 i
b101 ,"
b101 -"
b1001100 ,
b1001100 O
b1001100 m
b101 +"
b101 ?
b101 V
b11 W
b0 )"
b0 )
b0 H
b0 s
b0 ("
b0 '"
b0 |
b0 {
b10100 .
b10100 h
b10100 p
b101 f
b111000 -
b111000 L
b111000 M
b111000 l
b111000 w
b1100000000000000000000000101 /
b1100000000000000000000000101 d
b110100 +
b110100 K
b110100 c
b110100 $"
b0 (
b0 Q
b0 j
b0 *"
1!
#52000
0!
#54000
b11101 %
b11101 ""
b11101 %"
0A
13
b0 =
b0 `
b0 r
b0 ;
b0 a
b0 y
18
b0 9
b0 b
b0 !"
b110 4
b110 D
b110 _
b11111111111111111111111111110100 1
b11111111111111111111111111110100 G
b11111111111111111111111111110100 k
0$
b1101000 2
b1101000 I
b1101000 P
b1101000 u
b11000 0
b11000 t
b11000 #"
b11000 *
b11000 n
b11000 o
b1101000 &
b1101000 z
b1101000 &"
1T
0\
b11111111111111111111111111010000 7
b11111111111111111111111111010000 N
b11111111111111111111111111010000 ."
0X
b11111111111111111111111111110100 6
b11111111111111111111111111110100 i
b11111111111111111111111111110100 ,"
b11111111111111111111111111110100 -"
b11111111111111111111111111101000 ,
b11111111111111111111111111101000 O
b11111111111111111111111111101000 m
b1111111111110100 +"
b110100 ?
b110100 V
b1000 W
b1110100 (
b1110100 Q
b1110100 j
b1110100 *"
b11101 )"
b1110100 )
b1110100 H
b1110100 s
b1110100 ("
b11101 '"
b11111 |
b11101 {
b1110111101111111111111010000 .
b1110111101111111111111010000 h
b1110111101111111111111010000 p
b11101111011111111111110100 f
b11000 -
b11000 L
b11000 M
b11000 l
b11000 w
b100011101111011111111111110100 /
b100011101111011111111111110100 d
b10100 +
b10100 K
b10100 c
b10100 $"
1!
#56000
0!
#58000
b11100 0
b11100 t
b11100 #"
b1101000 &
b1101000 z
b1101000 &"
1:
13
08
b0 1
b0 G
b0 k
b0 4
b0 D
b0 _
b11111 %
b11111 ""
b11111 %"
b11100 *
b11100 n
b11100 o
b1101000 2
b1101000 I
b1101000 P
b1101000 u
1^
1A
0T
b0 7
b0 N
b0 ."
b0 6
b0 i
b0 ,"
b0 -"
b11100 ,
b11100 O
b11100 m
b0 +"
b0 ?
b0 V
b101011 W
b11111 )"
b0 |
b11111 {
b1110111111000000000000000000 .
b1110111111000000000000000000 h
b1110111111000000000000000000 p
b11101111110000000000000000 f
b11100 -
b11100 L
b11100 M
b11100 l
b11100 w
b10101111101111110000000000000000 /
b10101111101111110000000000000000 d
b11000 +
b11000 K
b11000 c
b11000 $"
b1101000 )
b1101000 H
b1101000 s
b1101000 ("
b111000 (
b111000 Q
b111000 j
b111000 *"
1!
#60000
0!
#62000
b1101100 &
b1101100 z
b1101100 &"
b1101100 2
b1101100 I
b1101100 P
b1101100 u
b100000 0
b100000 t
b100000 #"
b100 1
b100 G
b100 k
b10000 %
b10000 ""
b10000 %"
b100000 *
b100000 n
b100000 o
b10000 7
b10000 N
b10000 ."
b100 6
b100 i
b100 ,"
b100 -"
b110000 ,
b110000 O
b110000 m
b100 +"
b100 ?
b100 V
b100 (
b100 Q
b100 j
b100 *"
b10000 )"
b10000 {
b1110110000000000000000010000 .
b1110110000000000000000010000 h
b1110110000000000000000010000 p
b11101100000000000000000100 f
b100000 -
b100000 L
b100000 M
b100000 l
b100000 w
b10101111101100000000000000000100 /
b10101111101100000000000000000100 d
b11100 +
b11100 K
b11100 c
b11100 $"
1!
#64000
0!
#66000
b1110000 &
b1110000 z
b1110000 &"
b1110000 2
b1110000 I
b1110000 P
b1110000 u
b100100 0
b100100 t
b100100 #"
b1000 1
b1000 G
b1000 k
b10001 %
b10001 ""
b10001 %"
b100100 *
b100100 n
b100100 o
1Y
b100000 7
b100000 N
b100000 ."
b1000 6
b1000 i
b1000 ,"
b1000 -"
b1000100 ,
b1000100 O
b1000100 m
b1000 +"
b1000 ?
b1000 V
b0 (
b0 Q
b0 j
b0 *"
b10001 )"
b10001 {
b1110110001000000000000100000 .
b1110110001000000000000100000 h
b1110110001000000000000100000 p
b11101100010000000000001000 f
b100100 -
b100100 L
b100100 M
b100100 l
b100100 w
b10101111101100010000000000001000 /
b10101111101100010000000000001000 d
b100000 +
b100000 K
b100000 c
b100000 $"
1!
#68000
0!
#70000
b11 &
b11 z
b11 &"
b101000 0
b101000 t
b101000 #"
18
b1 9
b1 b
b1 !"
0:
03
b0 1
b0 G
b0 k
b10 4
b10 D
b10 _
b11 2
b11 I
b11 P
b11 u
b10000 %
b10000 ""
b10000 %"
b101000 *
b101000 n
b101000 o
1\
0Y
b11111111111111100000000010000000 7
b11111111111111100000000010000000 N
b11111111111111100000000010000000 ."
0^
b11111111111111111000000000100000 6
b11111111111111111000000000100000 i
b11111111111111111000000000100000 ,"
b11111111111111111000000000100000 -"
b11111111111111100000000010101000 ,
b11111111111111100000000010101000 O
b11111111111111100000000010101000 m
b1000000000100000 +"
b100000 ?
b100000 V
b0 W
b0 )"
b11 )
b11 H
b11 s
b11 ("
b100 '"
b10000 |
b0 {
b10000000100000000010000000 .
b10000000100000000010000000 h
b10000000100000000010000000 p
b100000001000000000100000 f
b101000 -
b101000 L
b101000 M
b101000 l
b101000 w
b100000001000000000100000 /
b100000001000000000100000 d
b100100 +
b100100 K
b100100 c
b100100 $"
1!
#72000
0!
#74000
b101100 0
b101100 t
b101100 #"
1B
08
b0 9
b0 b
b0 !"
1>
b110 5
b110 E
b110 F
b1 4
b1 D
b1 _
b0 %
b0 ""
b0 %"
b101100 *
b101100 n
b101100 o
0\
1U
0@
1A
b110000 7
b110000 N
b110000 ."
b1100 6
b1100 i
b1100 ,"
b1100 -"
b1011100 ,
b1011100 O
b1011100 m
b1100 +"
b1100 ?
b1100 V
b100 W
b10000 '"
b0 |
b1000000000000000000000110000 .
b1000000000000000000000110000 h
b1000000000000000000000110000 p
b10000000000000000000001100 f
b101100 -
b101100 L
b101100 M
b101100 l
b101100 w
b10010000000000000000000001100 /
b10010000000000000000000001100 d
b101000 +
b101000 K
b101000 c
b101000 $"
1!
#76000
0!
#78000
b10 &
b10 z
b10 &"
b10 2
b10 I
b10 P
b10 u
b110000 0
b110000 t
b110000 #"
b1 1
b1 G
b1 k
b1001 %
b1001 ""
b1001 %"
b110000 *
b110000 n
b110000 o
b101100 7
b101100 N
b101100 ."
b1011 6
b1011 i
b1011 ,"
b1011 -"
b1011100 ,
b1011100 O
b1011100 m
b1011 +"
b1011 ?
b1011 V
b1 (
b1 Q
b1 j
b1 *"
b1001 )"
b1001 {
b1000001001000000000000101100 .
b1000001001000000000000101100 h
b1000001001000000000000101100 p
b10000010010000000000001011 f
b110000 -
b110000 L
b110000 M
b110000 l
b110000 w
b10010000010010000000000001011 /
b10010000010010000000000001011 d
b101100 +
b101100 K
b101100 c
b101100 $"
1!
#80000
0!
#82000
b10 &
b10 z
b10 &"
b10 5
b10 E
b10 F
0$
b10 2
b10 I
b10 P
b10 u
b110100 0
b110100 t
b110100 #"
0A
1@
13
18
b0 9
b0 b
b0 !"
0>
b110 4
b110 D
b110 _
b11111111111111111111111111111111 1
b11111111111111111111111111111111 G
b11111111111111111111111111111111 k
b100 %
b100 ""
b100 %"
b110100 *
b110100 n
b110100 o
0\
1T
0U
b11111111111111111111111111111100 7
b11111111111111111111111111111100 N
b11111111111111111111111111111100 ."
b11111111111111111111111111111111 6
b11111111111111111111111111111111 i
b11111111111111111111111111111111 ,"
b11111111111111111111111111111111 -"
b110000 ,
b110000 O
b110000 m
b1111111111111111 +"
b111111 ?
b111111 V
b1000 W
b11 (
b11 Q
b11 j
b11 *"
b100 )"
b11111 |
b100 {
b1000000100111111111111111100 .
b1000000100111111111111111100 h
b1000000100111111111111111100 p
b10000001001111111111111111 f
b110100 -
b110100 L
b110100 M
b110100 l
b110100 w
b100010000001001111111111111111 /
b100010000001001111111111111111 d
b110000 +
b110000 K
b110000 c
b110000 $"
1!
#84000
0!
#86000
1$
b10 5
b10 E
b10 F
b111000 &
b111000 z
b111000 &"
b10100 0
b10100 t
b10100 #"
1A
0@
b1 =
b1 `
b1 r
b10 ;
b10 a
b10 y
b10 9
b10 b
b10 !"
03
18
b0 1
b0 G
b0 k
b0 4
b0 D
b0 _
b0 2
b0 I
b0 P
b0 u
b11111 %
b11111 ""
b11111 %"
b111000 *
b111000 n
b111000 o
1X
0B
0T
b10100 7
b10100 N
b10100 ."
b101 6
b101 i
b101 ,"
b101 -"
b1001100 ,
b1001100 O
b1001100 m
b101 +"
b101 ?
b101 V
b11 W
b0 )"
b0 )
b0 H
b0 s
b0 ("
b0 '"
b0 |
b0 {
b10100 .
b10100 h
b10100 p
b101 f
b111000 -
b111000 L
b111000 M
b111000 l
b111000 w
b1100000000000000000000000101 /
b1100000000000000000000000101 d
b110100 +
b110100 K
b110100 c
b110100 $"
b0 (
b0 Q
b0 j
b0 *"
1!
#88000
0!
#90000
b11101 %
b11101 ""
b11101 %"
0A
13
b0 =
b0 `
b0 r
b0 ;
b0 a
b0 y
18
b0 9
b0 b
b0 !"
b110 4
b110 D
b110 _
b11111111111111111111111111110100 1
b11111111111111111111111111110100 G
b11111111111111111111111111110100 k
0$
b1011100 2
b1011100 I
b1011100 P
b1011100 u
b11000 0
b11000 t
b11000 #"
b11000 *
b11000 n
b11000 o
b1011100 &
b1011100 z
b1011100 &"
1T
0\
b11111111111111111111111111010000 7
b11111111111111111111111111010000 N
b11111111111111111111111111010000 ."
0X
b11111111111111111111111111110100 6
b11111111111111111111111111110100 i
b11111111111111111111111111110100 ,"
b11111111111111111111111111110100 -"
b11111111111111111111111111101000 ,
b11111111111111111111111111101000 O
b11111111111111111111111111101000 m
b1111111111110100 +"
b110100 ?
b110100 V
b1000 W
b1101000 (
b1101000 Q
b1101000 j
b1101000 *"
b11101 )"
b1101000 )
b1101000 H
b1101000 s
b1101000 ("
b11101 '"
b11111 |
b11101 {
b1110111101111111111111010000 .
b1110111101111111111111010000 h
b1110111101111111111111010000 p
b11101111011111111111110100 f
b11000 -
b11000 L
b11000 M
b11000 l
b11000 w
b100011101111011111111111110100 /
b100011101111011111111111110100 d
b10100 +
b10100 K
b10100 c
b10100 $"
1!
#92000
0!
#94000
b11100 0
b11100 t
b11100 #"
b1011100 &
b1011100 z
b1011100 &"
1:
13
08
b0 1
b0 G
b0 k
b0 4
b0 D
b0 _
b11111 %
b11111 ""
b11111 %"
b11100 *
b11100 n
b11100 o
b1011100 2
b1011100 I
b1011100 P
b1011100 u
1^
1A
0T
b0 7
b0 N
b0 ."
b0 6
b0 i
b0 ,"
b0 -"
b11100 ,
b11100 O
b11100 m
b0 +"
b0 ?
b0 V
b101011 W
b11111 )"
b0 |
b11111 {
b1110111111000000000000000000 .
b1110111111000000000000000000 h
b1110111111000000000000000000 p
b11101111110000000000000000 f
b11100 -
b11100 L
b11100 M
b11100 l
b11100 w
b10101111101111110000000000000000 /
b10101111101111110000000000000000 d
b11000 +
b11000 K
b11000 c
b11000 $"
b1011100 )
b1011100 H
b1011100 s
b1011100 ("
b111000 (
b111000 Q
b111000 j
b111000 *"
1!
#96000
0!
#98000
b1100000 &
b1100000 z
b1100000 &"
b1100000 2
b1100000 I
b1100000 P
b1100000 u
b100000 0
b100000 t
b100000 #"
b100 1
b100 G
b100 k
b10000 %
b10000 ""
b10000 %"
b100000 *
b100000 n
b100000 o
b10000 7
b10000 N
b10000 ."
b100 6
b100 i
b100 ,"
b100 -"
b110000 ,
b110000 O
b110000 m
b100 +"
b100 ?
b100 V
b11 (
b11 Q
b11 j
b11 *"
b10000 )"
b10000 {
b1110110000000000000000010000 .
b1110110000000000000000010000 h
b1110110000000000000000010000 p
b11101100000000000000000100 f
b100000 -
b100000 L
b100000 M
b100000 l
b100000 w
b10101111101100000000000000000100 /
b10101111101100000000000000000100 d
b11100 +
b11100 K
b11100 c
b11100 $"
1!
#100000
0!
