Lab4-Pipelined CPU/gtkWave.vcd
$date
	Mon May 31 16:56:33 2021
$end
$version
	Icarus Verilog
$end
$timescale
	1ps
$end
$scope module TestBench $end
$var reg 1 ! CLK $end
$var reg 1 " RST $end
$var integer 32 # count [31:0] $end
$var integer 32 $ i [31:0] $end
$scope module cpu $end
$var wire 1 % PCSrc $end
$var wire 1 ! clk_i $end
$var wire 1 & invMemToReg $end
$var wire 32 ' nxt_pc1 [31:0] $end
$var wire 1 " rst_i $end
$var wire 32 ( wrt_dat [31:0] $end
$var wire 71 ) toMEMWB [70:0] $end
$var wire 64 * toIFID [63:0] $end
$var wire 148 + toIDEX [147:0] $end
$var wire 107 , toEXMEM [106:0] $end
$var wire 32 - rd2 [31:0] $end
$var wire 32 . rd1 [31:0] $end
$var wire 32 / pc [31:0] $end
$var wire 71 0 otMEMWB [70:0] $end
$var wire 64 1 otIFID [63:0] $end
$var wire 148 2 otIDEX [147:0] $end
$var wire 107 3 otEXMEM [106:0] $end
$var wire 32 4 nxt_pcf [31:0] $end
$var wire 32 5 nxt_pc0 [31:0] $end
$var wire 32 6 ins [31:0] $end
$var wire 32 7 ase [31:0] $end
$var wire 4 8 alu_ctr [3:0] $end
$var wire 32 9 al2 [31:0] $end
$var wire 32 : afs [31:0] $end
$var wire 1 ; ID_RegWrite $end
$var wire 1 < ID_RegDst $end
$var wire 1 = ID_MemWrite $end
$var wire 1 > ID_MemToReg $end
$var wire 1 ? ID_MemRead $end
$var wire 1 @ ID_Branch $end
$var wire 3 A ID_ALU_op [2:0] $end
$var wire 1 B ID_ALUSrc $end
$scope module ALU $end
$var wire 32 C src1_i [31:0] $end
$var wire 1 D zero_o $end
$var wire 32 E src2_i [31:0] $end
$var wire 4 F ctrl_i [3:0] $end
$var reg 32 G result_o [31:0] $end
$upscope $end
$scope module ALU_Control $end
$var wire 3 H ALUOp_i [2:0] $end
$var wire 6 I funct_i [5:0] $end
$var wire 1 J op0 $end
$var wire 1 K op1 $end
$var wire 1 L op2 $end
$var wire 1 M op3 $end
$var reg 4 N ALUCtrl_o [3:0] $end
$upscope $end
$scope module Add_pc $end
$var wire 32 O src1_i [31:0] $end
$var wire 32 P src2_i [31:0] $end
$var reg 32 Q sum_o [31:0] $end
$upscope $end
$scope module Add_pc_branch $end
$var wire 32 R src2_i [31:0] $end
$var wire 32 S src1_i [31:0] $end
$var reg 32 T sum_o [31:0] $end
$upscope $end
$scope module Control $end
$var wire 1 U addi $end
$var wire 1 V bieq $end
$var wire 6 W instr_op_i [5:0] $end
$var wire 1 X lowd $end
$var wire 1 Y rfmt $end
$var wire 1 Z slti $end
$var wire 1 [ stwd $end
$var reg 1 B ALUSrc_o $end
$var reg 3 \ ALU_op_o [2:0] $end
$var reg 1 @ Branch_o $end
$var reg 1 ? MemRead_o $end
$var reg 1 > MemToReg_o $end
$var reg 1 = MemWrite_o $end
$var reg 1 < RegDst_o $end
$var reg 1 ; RegWrite_o $end
$upscope $end
$scope module DM $end
$var wire 1 ] MemRead_i $end
$var wire 1 ^ MemWrite_i $end
$var wire 32 _ addr_i [31:0] $end
$var wire 1 ! clk_i $end
$var wire 32 ` data_i [31:0] $end
$var reg 32 a data_o [31:0] $end
$upscope $end
$scope module EX_MEM $end
$var wire 1 ! clk_i $end
$var wire 107 b data_i [106:0] $end
$var wire 1 " rst_i $end
$var reg 107 c data_o [106:0] $end
$upscope $end
$scope module ID_EX $end
$var wire 1 ! clk_i $end
$var wire 148 d data_i [147:0] $end
$var wire 1 " rst_i $end
$var reg 148 e data_o [147:0] $end
$upscope $end
$scope module IF_ID $end
$var wire 1 ! clk_i $end
$var wire 64 f data_i [63:0] $end
$var wire 1 " rst_i $end
$var reg 64 g data_o [63:0] $end
$upscope $end
$scope module IM $end
$var wire 32 h instr_o [31:0] $end
$var wire 32 i addr_i [31:0] $end
$upscope $end
$scope module MEM_WB $end
$var wire 1 ! clk_i $end
$var wire 71 j data_i [70:0] $end
$var wire 1 " rst_i $end
$var reg 71 k data_o [70:0] $end
$upscope $end
$scope module Mux0 $end
$var wire 32 l data0_i [31:0] $end
$var wire 32 m data1_i [31:0] $end
$var wire 1 % select_i $end
$var reg 32 n data_o [31:0] $end
$upscope $end
$scope module Mux1 $end
$var wire 32 o data0_i [31:0] $end
$var wire 32 p data1_i [31:0] $end
$var wire 1 q select_i $end
$var reg 32 r data_o [31:0] $end
$upscope $end
$scope module Mux2 $end
$var wire 5 s data0_i [4:0] $end
$var wire 5 t data1_i [4:0] $end
$var wire 1 u select_i $end
$var reg 5 v data_o [4:0] $end
$upscope $end
$scope module Mux3 $end
$var wire 32 w data0_i [31:0] $end
$var wire 32 x data1_i [31:0] $end
$var wire 1 & select_i $end
$var reg 32 y data_o [31:0] $end
$upscope $end
$scope module PC $end
$var wire 1 ! clk_i $end
$var wire 32 z pc_in_i [31:0] $end
$var wire 1 " rst_i $end
$var reg 32 { pc_out_o [31:0] $end
$upscope $end
$scope module RF $end
$var wire 5 | RDaddr_i [4:0] $end
$var wire 32 } RDdata_i [31:0] $end
$var wire 5 ~ RSaddr_i [4:0] $end
$var wire 32 !" RSdata_o [31:0] $end
$var wire 5 "" RTaddr_i [4:0] $end
$var wire 32 #" RTdata_o [31:0] $end
$var wire 1 $" RegWrite_i $end
$var wire 1 ! clk_i $end
$var wire 1 " rst_i $end
$upscope $end
$scope module Shifter $end
$var wire 32 %" data_i [31:0] $end
$var wire 32 &" data_o [31:0] $end
$upscope $end
$scope module Sign_Extend $end
$var wire 16 '" data_i [15:0] $end
$var reg 32 (" data_o [31:0] $end
$upscope $end
$upscope $end
$upscope $end
$enddefinitions $end
#0
$dumpvars
bx ("
bx '"
bx00 &"
bx %"
x$"
bx #"
bx ""
bx !"
bx ~
bx }
bx |
bx {
bx z
bx y
bx x
bx w
bx v
xu
bx t
bx s
bx r
xq
bx p
bx o
bx n
bz m
bx l
bx k
bx j
bx i
bx h
bx g
bx f
bx e
bx d
bx c
bx b
bx a
bx `
bx _
x^
x]
bx \
x[
xZ
xY
xX
bx W
xV
xU
bx T
bx00 S
bx R
bx Q
bx P
b100 O
b10 N
0M
xL
xK
xJ
bx I
bx H
bx G
b10 F
bx E
xD
bx C
xB
bx A
x@
x?
x>
x=
x<
x;
bx00 :
bx 9
b10 8
bx 7
bx 6
bx 5
bx 4
bx 3
bx 2
bx 1
bx 0
bx /
bx .
bx -
bx ,
bx +
bx *
bx )
bx (
bz '
x&
x%
b10000000 $
b0 #
0"
0!
$end
#5000
1D
b0 G
1;
1<
0B
0@
0=
0?
0>
b100 4
b100 n
b100 z
b10 A
b10 \
b0 v
b0 9
b0 E
b0 r
b10 8
b10 F
b10 N
b0 (
b0 y
b0 }
1Y
0U
0V
0Z
1K
0X
0[
0J
0L
b0 7
b0 ("
b0 :
b0 S
b0 &"
0%
b0 a
1&
b100 5
b100 Q
b100 l
b0 '"
b0 W
b0 -
b0 #"
b0 ""
b100101000000000000000000000000000000000000000000000000000000000000000000000000000000000000000000000000000000000000000000000000000000000000000000 +
b100101000000000000000000000000000000000000000000000000000000000000000000000000000000000000000000000000000000000000000000000000000000000000000000 d
b0 .
b0 !"
b0 ~
b0xxxxxxxxxxxxxxxxxxxxxxxxxxxxxxxx1000000000000000000000000000000000000000000000000000000000000000000000 ,
b0xxxxxxxxxxxxxxxxxxxxxxxxxxxxxxxx1000000000000000000000000000000000000000000000000000000000000000000000 b
b0 %"
0u
b0 t
b0 s
0q
b0 p
b0 o
b0 H
b0 I
b0 C
b0 )
b0 j
0^
0]
b0 `
b0 _
b0 x
b0 w
0$"
b0 |
b10000100000000000010000000000010000 *
b10000100000000000010000000000010000 f
b100000000000010000000000010000 6
b100000000000010000000000010000 h
b0 /
b0 P
b0 i
b0 {
b0 1
b0 g
b0 2
b0 e
b0 3
b0 c
b0 0
b0 k
b1 #
1!
#10000
0!
1"
#15000
0<
1B
b110 A
b110 \
b1000 4
b1000 n
b1000 z
0Y
1U
b10000 7
b10000 ("
b10000xxxxxxxxxxxxxxxxxxxxxxxxxxxxxxxx1000000000000000000000000000000000000000000000000000000000000000000000 ,
b10000xxxxxxxxxxxxxxxxxxxxxxxxxxxxxxxx1000000000000000000000000000000000000000000000000000000000000000000000 b
1u
b10 H
b11101000000000000000000000000000001000000000000000000000000000000000000000000000000000000000000000000000000000000000000000000000100000000100000 +
b11101000000000000000000000000000001000000000000000000000000000000000000000000000000000000000000000000000000000000000000000000000100000000100000 d
b10000 '"
b1000 W
b1 ""
b1000 5
b1000 Q
b1000 l
b0xxxxxxxxxxxxxxxxxxxxxxxxxxxxxxxx1000000000000000000000000000000000000000000000000000000000000000000000 3
b0xxxxxxxxxxxxxxxxxxxxxxxxxxxxxxxx1000000000000000000000000000000000000000000000000000000000000000000000 c
b100101000000000000000000000000000000000000000000000000000000000000000000000000000000000000000000000000000000000000000000000000000000000000000000 2
b100101000000000000000000000000000000000000000000000000000000000000000000000000000000000000000000000000000000000000000000000000000000000000000000 e
b10000100000000000010000000000010000 1
b10000100000000000010000000000010000 g
b100000000000000000000000000000000000 *
b100000000000000000000000000000000000 f
b0 6
b0 h
b100 /
b100 P
b100 i
b100 {
b10 #
1!
#20000
0!
#25000
0D
b10000 G
1<
0B
1;
b1100 4
b1100 n
b1100 z
b10 A
b10 \
b10000xxxxxxxxxxxxxxxxxxxxxxxxxxxxxxxx0000000000000000000000000000100000000000000000000000000000000000000001 ,
b10000xxxxxxxxxxxxxxxxxxxxxxxxxxxxxxxx0000000000000000000000000000100000000000000000000000000000000000000001 b
b1 v
b10000 9
b10000 E
b10000 r
1Y
0U
b0 7
b0 ("
b1000000 :
b1000000 S
b1000000 &"
b110000000000000000000000000000000000 *
b110000000000000000000000000000000000 f
b1100 5
b1100 Q
b1100 l
b100101000000000000000000000000000010000000000000000000000000000000000000000000000000000000000000000000000000000000000000000000000000000000000000 +
b100101000000000000000000000000000010000000000000000000000000000000000000000000000000000000000000000000000000000000000000000000000000000000000000 d
b0 '"
b0 W
b0 ""
b10000 %"
0u
b1 s
1q
b10000 p
b110 H
b10000 I
b1000000000000000000000000000000000000000000000000000000000000000000000 )
b1000000000000000000000000000000000000000000000000000000000000000000000 j
b1000 /
b1000 P
b1000 i
b1000 {
b100000000000000000000000000000000000 1
b100000000000000000000000000000000000 g
b11101000000000000000000000000000001000000000000000000000000000000000000000000000000000000000000000000000000000000000000000000000100000000100000 2
b11101000000000000000000000000000001000000000000000000000000000000000000000000000000000000000000000000000000000000000000000000000100000000100000 e
b10000xxxxxxxxxxxxxxxxxxxxxxxxxxxxxxxx1000000000000000000000000000000000000000000000000000000000000000000000 3
b10000xxxxxxxxxxxxxxxxxxxxxxxxxxxxxxxx1000000000000000000000000000000000000000000000000000000000000000000000 c
b11 #
1!
#30000
0!
#35000
1D
b0 G
b10000xxxxxxxxxxxxxxxxxxxxxxxxxxxxxxxx1000000000000000000000000000000000000000000000000000000000000000000000 ,
b10000xxxxxxxxxxxxxxxxxxxxxxxxxxxxxxxx1000000000000000000000000000000000000000000000000000000000000000000000 b
b0 v
b0 9
b0 E
b0 r
b10000 4
b10000 n
b10000 z
b0 :
b0 S
b0 &"
1$"
b1000000000000000000000000000000000000000000000000000000000001000000001 )
b1000000000000000000000000000000000000000000000000000000000001000000001 j
b10000 _
b0 %"
1u
b0 s
0q
b0 p
b10 H
b0 I
b100101000000000000000000000000000011000000000000000000000000000000000000000000000000000000000000000000000000000000000000000000000000000000000000 +
b100101000000000000000000000000000011000000000000000000000000000000000000000000000000000000000000000000000000000000000000000000000000000000000000 d
b10000 5
b10000 Q
b10000 l
b1000000000000000000000000000000000000000000000000000000000000000000000 0
b1000000000000000000000000000000000000000000000000000000000000000000000 k
b10000xxxxxxxxxxxxxxxxxxxxxxxxxxxxxxxx0000000000000000000000000000100000000000000000000000000000000000000001 3
b10000xxxxxxxxxxxxxxxxxxxxxxxxxxxxxxxx0000000000000000000000000000100000000000000000000000000000000000000001 c
b100101000000000000000000000000000010000000000000000000000000000000000000000000000000000000000000000000000000000000000000000000000000000000000000 2
b100101000000000000000000000000000010000000000000000000000000000000000000000000000000000000000000000000000000000000000000000000000000000000000000 e
b110000000000000000000000000000000000 1
b110000000000000000000000000000000000 g
b1000000100000001000100000000000000100 *
b1000000100000001000100000000000000100 f
b100000001000100000000000000100 6
b100000001000100000000000000100 h
b1100 /
b1100 P
b1100 i
b1100 {
b100 #
1!
#40000
0!
#45000
0<
1B
b10100 4
b10100 n
b10100 z
b110 A
b110 \
b10000 (
b10000 y
b10000 }
0Y
1U
b100 7
b100 ("
b10100 5
b10100 Q
b10100 l
b11101000000000000000000000000000100000000000000000000000000000000000000000000000000000000000000000000000000000000000000000000000001000001000000 +
b11101000000000000000000000000000100000000000000000000000000000000000000000000000000000000000000000000000000000000000000000000000001000001000000 d
b100 '"
b1000 W
b10 ""
b1 ~
b1000000000000000000000000000000000000000000000000000000000000000000000 )
b1000000000000000000000000000000000000000000000000000000000000000000000 j
b0 _
b10000 x
b1 |
b1010000100000000000110000000000001000 *
b1010000100000000000110000000000001000 f
b100000000000110000000000001000 6
b100000000000110000000000001000 h
b10000 /
b10000 P
b10000 i
b10000 {
b1000000100000001000100000000000000100 1
b1000000100000001000100000000000000100 g
b100101000000000000000000000000000011000000000000000000000000000000000000000000000000000000000000000000000000000000000000000000000000000000000000 2
b100101000000000000000000000000000011000000000000000000000000000000000000000000000000000000000000000000000000000000000000000000000000000000000000 e
b10000xxxxxxxxxxxxxxxxxxxxxxxxxxxxxxxx1000000000000000000000000000000000000000000000000000000000000000000000 3
b10000xxxxxxxxxxxxxxxxxxxxxxxxxxxxxxxx1000000000000000000000000000000000000000000000000000000000000000000000 c
b1000000000000000000000000000000000000000000000000000000000001000000001 0
b1000000000000000000000000000000000000000000000000000000000001000000001 k
b101 #
1!
#50000
b11101000000000000000000000000000100000000000000000000000000000001000000000000000000000000000000000000000000000000000000000000000001000001000000 +
b11101000000000000000000000000000100000000000000000000000000000001000000000000000000000000000000000000000000000000000000000000000001000001000000 d
b10000 .
b10000 !"
0!
#55000
b0 (
b0 y
b0 }
b10 v
b100 9
b100 E
b100 r
0D
b10000xxxxxxxxxxxxxxxxxxxxxxxxxxxxxxxx0000000000000000000000000000101000000000000000000000000000000000000010 ,
b10000xxxxxxxxxxxxxxxxxxxxxxxxxxxxxxxx0000000000000000000000000000101000000000000000000000000000000000000010 b
b10100 G
b11000 4
b11000 n
b11000 z
0K
b10000 :
b10000 S
b10000 &"
b1000 7
b1000 ("
b0 x
b0 |
b100 %"
0u
b10 s
1q
b100 p
b110 H
b100 I
b10000 C
b1000 '"
b11 ""
b11101000000000000000000000000000101000000000000000000000000000000000000000000000000000000000000000000000000000000000000000000000010000001100000 +
b11101000000000000000000000000000101000000000000000000000000000000000000000000000000000000000000000000000000000000000000000000000010000001100000 d
b0 .
b0 !"
b0 ~
b11000 5
b11000 Q
b11000 l
b1000000000000000000000000000000000000000000000000000000000000000000000 0
b1000000000000000000000000000000000000000000000000000000000000000000000 k
b11101000000000000000000000000000100000000000000000000000000000001000000000000000000000000000000000000000000000000000000000000000001000001000000 2
b11101000000000000000000000000000100000000000000000000000000000001000000000000000000000000000000000000000000000000000000000000000001000001000000 e
b1010000100000000000110000000000001000 1
b1010000100000000000110000000000001000 g
b1100010101100000000010000000000000100 *
b1100010101100000000010000000000000100 f
b10101100000000010000000000000100 6
b10101100000000010000000000000100 h
b10100 /
b10100 P
b10100 i
b10100 {
b110 #
1!
#60000
0!
#65000
1=
1B
0;
b11100 4
b11100 n
b11100 z
b0 A
b0 \
b11 v
b1000 9
b1000 E
b1000 r
b10000xxxxxxxxxxxxxxxxxxxxxxxxxxxxxxxx0000000000000000000000000000010000000000000000000000000000000000000011 ,
b10000xxxxxxxxxxxxxxxxxxxxxxxxxxxxxxxx0000000000000000000000000000010000000000000000000000000000000000000011 b
b1000 G
1[
0U
1J
1K
b100 7
b100 ("
b100000 :
b100000 S
b100000 &"
b11100 5
b11100 Q
b11100 l
b100 '"
b101011 W
b1000010000000000000000000000000000000110000000000000000000000000000000000000000000000000000000000000010000000000000000000000000000000001000000100000 +
b1000010000000000000000000000000000000110000000000000000000000000000000000000000000000000000000000000010000000000000000000000000000000001000000100000 d
b10000 -
b10000 #"
b1 ""
b1000 %"
b11 s
b1000 p
b1000 I
b0 C
b1000000000000000000000000000000000000000000000000000000000001010000010 )
b1000000000000000000000000000000000000000000000000000000000001010000010 j
b10100 _
b1110010001100000001000000000000000100 *
b1110010001100000001000000000000000100 f
b10001100000001000000000000000100 6
b10001100000001000000000000000100 h
b11000 /
b11000 P
b11000 i
b11000 {
b1100010101100000000010000000000000100 1
b1100010101100000000010000000000000100 g
b11101000000000000000000000000000101000000000000000000000000000000000000000000000000000000000000000000000000000000000000000000000010000001100000 2
b11101000000000000000000000000000101000000000000000000000000000000000000000000000000000000000000000000000000000000000000000000000010000001100000 e
b10000xxxxxxxxxxxxxxxxxxxxxxxxxxxxxxxx0000000000000000000000000000101000000000000000000000000000000000000010 3
b10000xxxxxxxxxxxxxxxxxxxxxxxxxxxxxxxx0000000000000000000000000000101000000000000000000000000000000000000010 c
b111 #
1!
#70000
0!
#75000
b100 G
1?
1>
1;
0=
1B
b10100 (
b10100 y
b10100 }
b1 v
b100 9
b100 E
b100 r
b10 8
b10 F
b10 N
b100000 4
b100000 n
b100000 z
1X
0[
0J
b10000 :
b10000 S
b10000 &"
b10100 x
b10 |
b1000000000000000000000000000000000000000000000000000000000000100000011 )
b1000000000000000000000000000000000000000000000000000000000000100000011 j
b1000 _
b10xxxxxxxxxxxxxxxxxxxxxxxxxxxxxxxx0000000000000000000000000000001000000000000000000000000000001000000001 ,
b10xxxxxxxxxxxxxxxxxxxxxxxxxxxxxxxx0000000000000000000000000000001000000000000000000000000000001000000001 b
b100 %"
b1 s
b100 p
b10000 o
b0 H
b100 I
b100011 W
b110010001000000000000000000000000000111000000000000000000000000000000000000000000000000000000000000000000000000000000000000000000000001000010000000 +
b110010001000000000000000000000000000111000000000000000000000000000000000000000000000000000000000000000000000000000000000000000000000001000010000000 d
b0 -
b0 #"
b100 ""
b100000 5
b100000 Q
b100000 l
b1000000000000000000000000000000000000000000000000000000000001010000010 0
b1000000000000000000000000000000000000000000000000000000000001010000010 k
b10000xxxxxxxxxxxxxxxxxxxxxxxxxxxxxxxx0000000000000000000000000000010000000000000000000000000000000000000011 3
b10000xxxxxxxxxxxxxxxxxxxxxxxxxxxxxxxx0000000000000000000000000000010000000000000000000000000000000000000011 c
b1000010000000000000000000000000000000110000000000000000000000000000000000000000000000000000000000000010000000000000000000000000000000001000000100000 2
b1000010000000000000000000000000000000110000000000000000000000000000000000000000000000000000000000000010000000000000000000000000000000001000000100000 e
b1110010001100000001000000000000000100 1
b1110010001100000001000000000000000100 g
b10000000000000000000000000000000000000 *
b10000000000000000000000000000000000000 f
b0 6
b0 h
b11100 /
b11100 P
b11100 i
b11100 {
b1000 #
1!
#80000
0!
#85000
1<
0?
0>
0B
1;
b100100 4
b100100 n
b100100 z
b10 A
b10 \
b100 v
b1000 (
b1000 y
b1000 }
1Y
0X
b0 7
b0 ("
b10010000000000000000000000000000000000 *
b10010000000000000000000000000000000000 f
b100100 5
b100100 Q
b100100 l
b100101000000000000000000000000001000000000000000000000000000000000000000000000000000000000000000000000000000000000000000000000000000000000000000 +
b100101000000000000000000000000001000000000000000000000000000000000000000000000000000000000000000000000000000000000000000000000000000000000000000 d
b0 '"
b0 W
b0 ""
b11100xxxxxxxxxxxxxxxxxxxxxxxxxxxxxxxx0000000000000000000000000000001000000000000000000000000000000000000100 ,
b11100xxxxxxxxxxxxxxxxxxxxxxxxxxxxxxxx0000000000000000000000000000001000000000000000000000000000000000000100 b
b100 s
b0 o
b10000001 )
b10000001 j
1^
b10000 `
b100 _
b1000 x
b11 |
b100000 /
b100000 P
b100000 i
b100000 {
b10000000000000000000000000000000000000 1
b10000000000000000000000000000000000000 g
b110010001000000000000000000000000000111000000000000000000000000000000000000000000000000000000000000000000000000000000000000000000000001000010000000 2
b110010001000000000000000000000000000111000000000000000000000000000000000000000000000000000000000000000000000000000000000000000000000001000010000000 e
b10xxxxxxxxxxxxxxxxxxxxxxxxxxxxxxxx0000000000000000000000000000001000000000000000000000000000001000000001 3
b10xxxxxxxxxxxxxxxxxxxxxxxxxxxxxxxx0000000000000000000000000000001000000000000000000000000000001000000001 c
b1000000000000000000000000000000000000000000000000000000000000100000011 0
b1000000000000000000000000000000000000000000000000000000000000100000011 k
b1001 #
1!
#90000
0!
#95000
1D
b0 G
b100 (
b100 y
b100 }
b0 v
b0 9
b0 E
b0 r
b101000 4
b101000 n
b101000 z
b10000 a
b0 :
b0 S
b0 &"
b100 x
0$"
b1 |
b11000000000000000000000000000100000000000000000000000000000000010000100 )
b11000000000000000000000000000100000000000000000000000000000000010000100 j
0^
1]
b0 `
b10000xxxxxxxxxxxxxxxxxxxxxxxxxxxxxxxx1000000000000000000000000000000000000000000000000000000000000000000000 ,
b10000xxxxxxxxxxxxxxxxxxxxxxxxxxxxxxxx1000000000000000000000000000000000000000000000000000000000000000000000 b
b0 %"
1u
b0 s
0q
b0 p
b10 H
b0 I
b100101000000000000000000000000001001000000000000000000000000000000000000000000000000000000000000000000000000000000000000000000000000000000000000 +
b100101000000000000000000000000001001000000000000000000000000000000000000000000000000000000000000000000000000000000000000000000000000000000000000 d
b101000 5
b101000 Q
b101000 l
b10000001 0
b10000001 k
b11100xxxxxxxxxxxxxxxxxxxxxxxxxxxxxxxx0000000000000000000000000000001000000000000000000000000000000000000100 3
b11100xxxxxxxxxxxxxxxxxxxxxxxxxxxxxxxx0000000000000000000000000000001000000000000000000000000000000000000100 c
b100101000000000000000000000000001000000000000000000000000000000000000000000000000000000000000000000000000000000000000000000000000000000000000000 2
b100101000000000000000000000000001000000000000000000000000000000000000000000000000000000000000000000000000000000000000000000000000000000000000000 e
b10010000000000000000000000000000000000 1
b10010000000000000000000000000000000000 g
b10100000000000100000110010100000100010 *
b10100000000000100000110010100000100010 f
b100000110010100000100010 6
b100000110010100000100010 h
b100100 /
b100100 P
b100100 i
b100100 {
b1010 #
1!
#100000
0!
#105000
b101100 4
b101100 n
b101100 z
b10000 (
b10000 y
b10000 }
b10100000100010 7
b10100000100010 ("
b0 a
0&
b101100 5
b101100 Q
b101100 l
b10100000100010 '"
b100101000000000000000000000000001010000000000000000000000000000000000000000000000000000000000000001000000000000000000000101000001000100001100101 +
b100101000000000000000000000000001010000000000000000000000000000000000000000000000000000000000000001000000000000000000000101000001000100001100101 d
b1000 -
b1000 #"
b11 ""
b100 ~
b1000000000000000000000000000000000000000000000000000000000000000000000 )
b1000000000000000000000000000000000000000000000000000000000000000000000 j
0]
b0 _
b10000 w
1$"
b100 |
b10110000000000011000010011000000100000 *
b10110000000000011000010011000000100000 f
b11000010011000000100000 6
b11000010011000000100000 h
b101000 /
b101000 P
b101000 i
b101000 {
b10100000000000100000110010100000100010 1
b10100000000000100000110010100000100010 g
b100101000000000000000000000000001001000000000000000000000000000000000000000000000000000000000000000000000000000000000000000000000000000000000000 2
b100101000000000000000000000000001001000000000000000000000000000000000000000000000000000000000000000000000000000000000000000000000000000000000000 e
b10000xxxxxxxxxxxxxxxxxxxxxxxxxxxxxxxx1000000000000000000000000000000000000000000000000000000000000000000000 3
b10000xxxxxxxxxxxxxxxxxxxxxxxxxxxxxxxx1000000000000000000000000000000000000000000000000000000000000000000000 c
b11000000000000000000000000000100000000000000000000000000000000010000100 0
b11000000000000000000000000000100000000000000000000000000000000010000100 k
b1011 #
1!
#110000
b100101000000000000000000000000001010000000000000000000000000000001000000000000000000000000000000001000000000000000000000101000001000100001100101 +
b100101000000000000000000000000001010000000000000000000000000000001000000000000000000000000000000001000000000000000000000101000001000100001100101 d
b10000 .
b10000 !"
0!
#115000
b110 8
b110 F
b110 N
b0 (
b0 y
b0 }
b101 v
b1000 9
b1000 E
b1000 r
0D
b1000 G
b110000 4
b110000 n
b110000 z
1L
1&
b1010000010001000 :
b1010000010001000 S
b1010000010001000 &"
b11000000100000 7
b11000000100000 ("
b0 x
b0 w
b0 |
b10000xxxxxxxxxxxxxxxxxxxxxxxxxxxxxxxx0000000000000000000000000000010000000000000000000000000000000100000101 ,
b10000xxxxxxxxxxxxxxxxxxxxxxxxxxxxxxxx0000000000000000000000000000010000000000000000000000000000000100000101 b
b10100000100010 %"
b101 t
b11 s
b10100000100010 p
b1000 o
b100010 I
b10000 C
b11000000100000 '"
b10000 -
b10000 #"
b1 ""
b100101000000000000000000000000001011000000000000000000000000000000100000000000000000000000000000010000000000000000000000110000001000000000100110 +
b100101000000000000000000000000001011000000000000000000000000000000100000000000000000000000000000010000000000000000000000110000001000000000100110 d
b1000 .
b1000 !"
b11 ~
b110000 5
b110000 Q
b110000 l
b1000000000000000000000000000000000000000000000000000000000000000000000 0
b1000000000000000000000000000000000000000000000000000000000000000000000 k
b100101000000000000000000000000001010000000000000000000000000000001000000000000000000000000000000001000000000000000000000101000001000100001100101 2
b100101000000000000000000000000001010000000000000000000000000000001000000000000000000000000000000001000000000000000000000101000001000100001100101 e
b10110000000000011000010011000000100000 1
b10110000000000011000010011000000100000 g
b11000000100000001001110000000000001010 *
b11000000100000001001110000000000001010 f
b100000001001110000000000001010 6
b100000001001110000000000001010 h
b101100 /
b101100 P
b101100 i
b101100 {
b1100 #
1!
#120000
0!
#125000
0<
1B
b10 8
b10 F
b10 N
b110100 4
b110100 n
b110100 z
b110 A
b110 \
b110 v
b10000 9
b10000 E
b10000 r
0D
b11000 G
0Y
1U
0L
b1010 7
b1010 ("
b1100000010000000 :
b1100000010000000 S
b1100000010000000 &"
b110100 5
b110100 Q
b110100 l
b1010 '"
b1000 W
b0 -
b0 #"
b111 ""
b11101000000000000000000000000001100000000000000000000000000000001000000000000000000000000000000000000000000000000000000000000000010100011100000 +
b11101000000000000000000000000001100000000000000000000000000000001000000000000000000000000000000000000000000000000000000000000000010100011100000 d
b10000 .
b10000 !"
b1 ~
b10000xxxxxxxxxxxxxxxxxxxxxxxxxxxxxxxx0000000000000000000000000000110000000000000000000000000000001000000110 ,
b10000xxxxxxxxxxxxxxxxxxxxxxxxxxxxxxxx0000000000000000000000000000110000000000000000000000000000001000000110 b
b11000000100000 %"
b110 t
b1 s
b11000000100000 p
b10000 o
b100000 I
b1000 C
b1000000000000000000000000000000000000000000000000000000000000100000101 )
b1000000000000000000000000000000000000000000000000000000000000100000101 j
b1000 `
b1000 _
b11010000000000000000000000000000000000 *
b11010000000000000000000000000000000000 f
b0 6
b0 h
b110000 /
b110000 P
b110000 i
b110000 {
b11000000100000001001110000000000001010 1
b11000000100000001001110000000000001010 g
b100101000000000000000000000000001011000000000000000000000000000000100000000000000000000000000000010000000000000000000000110000001000000000100110 2
b100101000000000000000000000000001011000000000000000000000000000000100000000000000000000000000000010000000000000000000000110000001000000000100110 e
b10000xxxxxxxxxxxxxxxxxxxxxxxxxxxxxxxx0000000000000000000000000000010000000000000000000000000000000100000101 3
b10000xxxxxxxxxxxxxxxxxxxxxxxxxxxxxxxx0000000000000000000000000000010000000000000000000000000000000100000101 c
b1101 #
1!
#130000
0!
#135000
1<
0B
1;
b1000 (
b1000 y
b1000 }
b111 v
b1010 9
b1010 E
b1010 r
b11010 G
b10 A
b10 \
b111000 4
b111000 n
b111000 z
1Y
0U
1J
1L
b101000 :
b101000 S
b101000 &"
b0 7
b0 ("
b1000 x
b101 |
b1000000000000000000000000000000000000000000000000000000000001100000110 )
b1000000000000000000000000000000000000000000000000000000000001100000110 j
b10000 `
b11000 _
b10000xxxxxxxxxxxxxxxxxxxxxxxxxxxxxxxx0000000000000000000000000000110100000000000000000000000000000000000111 ,
b10000xxxxxxxxxxxxxxxxxxxxxxxxxxxxxxxx0000000000000000000000000000110100000000000000000000000000000000000111 b
b1010 %"
0u
b0 t
b111 s
1q
b1010 p
b0 o
b110 H
b1010 I
b10000 C
b0 '"
b0 W
b0 ""
b100101000000000000000000000000001101000000000000000000000000000000000000000000000000000000000000000000000000000000000000000000000000000000000000 +
b100101000000000000000000000000001101000000000000000000000000000000000000000000000000000000000000000000000000000000000000000000000000000000000000 d
b0 .
b0 !"
b0 ~
b11100000000000000000000000000000000000 *
b11100000000000000000000000000000000000 f
b111000 5
b111000 Q
b111000 l
b1000000000000000000000000000000000000000000000000000000000000100000101 0
b1000000000000000000000000000000000000000000000000000000000000100000101 k
b10000xxxxxxxxxxxxxxxxxxxxxxxxxxxxxxxx0000000000000000000000000000110000000000000000000000000000001000000110 3
b10000xxxxxxxxxxxxxxxxxxxxxxxxxxxxxxxx0000000000000000000000000000110000000000000000000000000000001000000110 c
b11101000000000000000000000000001100000000000000000000000000000001000000000000000000000000000000000000000000000000000000000000000010100011100000 2
b11101000000000000000000000000001100000000000000000000000000000001000000000000000000000000000000000000000000000000000000000000000010100011100000 e
b11010000000000000000000000000000000000 1
b11010000000000000000000000000000000000 g
b110100 /
b110100 P
b110100 i
b110100 {
b1110 #
1!
#140000
0!
