Lab4-Pipelined CPU/gtkWave.vcd
$date
	Mon May 31 22:05:54 2021
$end
$version
	Icarus Verilog
$end
$timescale
	1ps
$end
$scope module TestBench $end
$var reg 1 ! CLK $end
$var reg 1 " RST $end
$var integer 32 # count [31:0] $end
$var integer 32 $ i [31:0] $end
$scope module cpu $end
$var wire 1 % PCSrc $end
$var wire 1 ! clk_i $end
$var wire 1 & invMemToReg $end
$var wire 1 " rst_i $end
$var wire 32 ' wrt_dat [31:0] $end
$var wire 71 ( toMEMWB [70:0] $end
$var wire 64 ) toIFID [63:0] $end
$var wire 148 * toIDEX [147:0] $end
$var wire 107 + toEXMEM [106:0] $end
$var wire 32 , rd2 [31:0] $end
$var wire 32 - rd1 [31:0] $end
$var wire 32 . pc [31:0] $end
$var wire 71 / otMEMWB [70:0] $end
$var wire 64 0 otIFID [63:0] $end
$var wire 148 1 otIDEX [147:0] $end
$var wire 107 2 otEXMEM [106:0] $end
$var wire 32 3 nxt_pcf [31:0] $end
$var wire 32 4 nxt_pc1 [31:0] $end
$var wire 32 5 nxt_pc0 [31:0] $end
$var wire 32 6 ins [31:0] $end
$var wire 32 7 ase [31:0] $end
$var wire 4 8 alu_ctr [3:0] $end
$var wire 32 9 al2 [31:0] $end
$var wire 32 : afs [31:0] $end
$var wire 1 ; ID_RegWrite $end
$var wire 1 < ID_RegDst $end
$var wire 1 = ID_MemWrite $end
$var wire 1 > ID_MemToReg $end
$var wire 1 ? ID_MemRead $end
$var wire 1 @ ID_Branch $end
$var wire 3 A ID_ALU_op [2:0] $end
$var wire 1 B ID_ALUSrc $end
$scope module ALU $end
$var wire 32 C src1_i [31:0] $end
$var wire 1 D zero_o $end
$var wire 32 E src2_i [31:0] $end
$var wire 4 F ctrl_i [3:0] $end
$var reg 32 G result_o [31:0] $end
$upscope $end
$scope module ALU_Control $end
$var wire 3 H ALUOp_i [2:0] $end
$var wire 6 I funct_i [5:0] $end
$var wire 1 J op0 $end
$var wire 1 K op1 $end
$var wire 1 L op2 $end
$var wire 1 M op3 $end
$var reg 4 N ALUCtrl_o [3:0] $end
$upscope $end
$scope module Add_pc $end
$var wire 32 O src1_i [31:0] $end
$var wire 32 P src2_i [31:0] $end
$var reg 32 Q sum_o [31:0] $end
$upscope $end
$scope module Add_pc_branch $end
$var wire 32 R src2_i [31:0] $end
$var wire 32 S src1_i [31:0] $end
$var reg 32 T sum_o [31:0] $end
$upscope $end
$scope module Control $end
$var wire 1 U addi $end
$var wire 1 V bieq $end
$var wire 6 W instr_op_i [5:0] $end
$var wire 1 X lowd $end
$var wire 1 Y rfmt $end
$var wire 1 Z slti $end
$var wire 1 [ stwd $end
$var reg 1 B ALUSrc_o $end
$var reg 3 \ ALU_op_o [2:0] $end
$var reg 1 @ Branch_o $end
$var reg 1 ? MemRead_o $end
$var reg 1 > MemToReg_o $end
$var reg 1 = MemWrite_o $end
$var reg 1 < RegDst_o $end
$var reg 1 ; RegWrite_o $end
$upscope $end
$scope module DM $end
$var wire 1 ] MemRead_i $end
$var wire 1 ^ MemWrite_i $end
$var wire 32 _ addr_i [31:0] $end
$var wire 1 ! clk_i $end
$var wire 32 ` data_i [31:0] $end
$var reg 32 a data_o [31:0] $end
$upscope $end
$scope module EX_MEM $end
$var wire 1 ! clk_i $end
$var wire 107 b data_i [106:0] $end
$var wire 1 " rst_i $end
$var reg 107 c data_o [106:0] $end
$upscope $end
$scope module ID_EX $end
$var wire 1 ! clk_i $end
$var wire 148 d data_i [147:0] $end
$var wire 1 " rst_i $end
$var reg 148 e data_o [147:0] $end
$upscope $end
$scope module IF_ID $end
$var wire 1 ! clk_i $end
$var wire 64 f data_i [63:0] $end
$var wire 1 " rst_i $end
$var reg 64 g data_o [63:0] $end
$upscope $end
$scope module IM $end
$var wire 32 h instr_o [31:0] $end
$var wire 32 i addr_i [31:0] $end
$upscope $end
$scope module MEM_WB $end
$var wire 1 ! clk_i $end
$var wire 71 j data_i [70:0] $end
$var wire 1 " rst_i $end
$var reg 71 k data_o [70:0] $end
$upscope $end
$scope module Mux0 $end
$var wire 32 l data0_i [31:0] $end
$var wire 32 m data1_i [31:0] $end
$var wire 1 % select_i $end
$var reg 32 n data_o [31:0] $end
$upscope $end
$scope module Mux1 $end
$var wire 32 o data0_i [31:0] $end
$var wire 32 p data1_i [31:0] $end
$var wire 1 q select_i $end
$var reg 32 r data_o [31:0] $end
$upscope $end
$scope module Mux2 $end
$var wire 5 s data0_i [4:0] $end
$var wire 5 t data1_i [4:0] $end
$var wire 1 u select_i $end
$var reg 5 v data_o [4:0] $end
$upscope $end
$scope module Mux3 $end
$var wire 32 w data0_i [31:0] $end
$var wire 32 x data1_i [31:0] $end
$var wire 1 & select_i $end
$var reg 32 y data_o [31:0] $end
$upscope $end
$scope module PC $end
$var wire 1 ! clk_i $end
$var wire 32 z pc_in_i [31:0] $end
$var wire 1 " rst_i $end
$var reg 32 { pc_out_o [31:0] $end
$upscope $end
$scope module RF $end
$var wire 5 | RDaddr_i [4:0] $end
$var wire 32 } RDdata_i [31:0] $end
$var wire 5 ~ RSaddr_i [4:0] $end
$var wire 32 !" RSdata_o [31:0] $end
$var wire 5 "" RTaddr_i [4:0] $end
$var wire 32 #" RTdata_o [31:0] $end
$var wire 1 $" RegWrite_i $end
$var wire 1 ! clk_i $end
$var wire 1 " rst_i $end
$upscope $end
$scope module Shifter $end
$var wire 32 %" data_i [31:0] $end
$var wire 32 &" data_o [31:0] $end
$upscope $end
$scope module Sign_Extend $end
$var wire 16 '" data_i [15:0] $end
$var reg 32 (" data_o [31:0] $end
$upscope $end
$upscope $end
$upscope $end
$enddefinitions $end
#0
$dumpvars
bx ("
bx '"
bx00 &"
bx %"
x$"
bx #"
bx ""
bx !"
bx ~
bx }
bx |
bx {
bx z
bx y
bx x
bx w
bx v
xu
bx t
bx s
bx r
xq
bx p
bx o
bx n
bx m
bx l
bx k
bx j
bx i
bx h
bx g
bx f
bx e
bx d
bx c
bx b
bx a
bx `
bx _
x^
x]
bx \
x[
xZ
xY
xX
bx W
xV
xU
bx T
bx00 S
bx R
bx Q
bx P
b100 O
b10 N
0M
xL
xK
xJ
bx I
bx H
bx G
b10 F
bx E
xD
bx C
xB
bx A
x@
x?
x>
x=
x<
x;
bx00 :
bx 9
b10 8
bx 7
bx 6
bx 5
bx 4
bx 3
bx 2
bx 1
bx 0
bx /
bx .
bx -
bx ,
bx +
bx *
bx )
bx (
bx '
x&
x%
b10000000 $
b0 #
0"
0!
$end
#5000
1D
b0 G
1;
1<
0B
0@
0=
0?
0>
b10 A
b10 \
b0 v
b0 9
b0 E
b0 r
b10 8
b10 F
b10 N
b100 3
b100 n
b100 z
b0 '
b0 y
b0 }
1Y
0U
0V
0Z
1K
0X
0[
0J
0L
b0 7
b0 ("
b0 :
b0 S
b0 &"
0%
b0 a
1&
b10000100000000000010000000000000011 )
b10000100000000000010000000000000011 f
b100 5
b100 Q
b100 l
b0 '"
b0 W
b0 ,
b0 #"
b0 ""
b100101000000000000000000000000000000000000000000000000000000000000000000000000000000000000000000000000000000000000000000000000000000000000000000 *
b100101000000000000000000000000000000000000000000000000000000000000000000000000000000000000000000000000000000000000000000000000000000000000000000 d
b0 -
b0 !"
b0 ~
b0xxxxxxxxxxxxxxxxxxxxxxxxxxxxxxxx1000000000000000000000000000000000000000000000000000000000000000000000 +
b0xxxxxxxxxxxxxxxxxxxxxxxxxxxxxxxx1000000000000000000000000000000000000000000000000000000000000000000000 b
b0 %"
0u
b0 t
b0 s
0q
b0 p
b0 o
b0 H
b0 I
b0 C
b0 (
b0 j
0^
0]
b0 `
b0 _
b0 4
b0 m
b0 x
b0 w
0$"
b0 |
b100000000000010000000000000011 6
b100000000000010000000000000011 h
b0 .
b0 P
b0 i
b0 {
b0 0
b0 g
b0 1
b0 e
b0 2
b0 c
b0 /
b0 k
b1 #
1!
#10000
0!
1"
#15000
0<
1B
b110 A
b110 \
b1000 3
b1000 n
b1000 z
0Y
1U
b10000xxxxxxxxxxxxxxxxxxxxxxxxxxxxxxxx1000000000000000000000000000000000000000000000000000000000000000000000 +
b10000xxxxxxxxxxxxxxxxxxxxxxxxxxxxxxxx1000000000000000000000000000000000000000000000000000000000000000000000 b
b11 7
b11 ("
bx 4
bx m
1u
b10 H
b11101000000000000000000000000000001000000000000000000000000000000000000000000000000000000000000000000000000000000000000000000000000110000100000 *
b11101000000000000000000000000000001000000000000000000000000000000000000000000000000000000000000000000000000000000000000000000000000110000100000 d
b11 '"
b1000 W
b1 ""
b100000100000000000100000000000000100 )
b100000100000000000100000000000000100 f
b1000 5
b1000 Q
b1000 l
b0xxxxxxxxxxxxxxxxxxxxxxxxxxxxxxxx1000000000000000000000000000000000000000000000000000000000000000000000 2
b0xxxxxxxxxxxxxxxxxxxxxxxxxxxxxxxx1000000000000000000000000000000000000000000000000000000000000000000000 c
b100101000000000000000000000000000000000000000000000000000000000000000000000000000000000000000000000000000000000000000000000000000000000000000000 1
b100101000000000000000000000000000000000000000000000000000000000000000000000000000000000000000000000000000000000000000000000000000000000000000000 e
b10000100000000000010000000000000011 0
b10000100000000000010000000000000011 g
b100000000000100000000000000100 6
b100000000000100000000000000100 h
b100 .
b100 P
b100 i
b100 {
b10 #
1!
#20000
0!
#25000
0D
b11 G
b1100 3
b1100 n
b1100 z
b10000xxxxxxxxxxxxxxxxxxxxxxxxxxxxxxxx0000000000000000000000000000000110000000000000000000000000000000000001 +
b10000xxxxxxxxxxxxxxxxxxxxxxxxxxxxxxxx0000000000000000000000000000000110000000000000000000000000000000000001 b
b1 v
b11 9
b11 E
b11 r
1J
1L
b100 7
b100 ("
b1100 :
b1100 S
b1100 &"
b110000100000000000110000000000000001 )
b110000100000000000110000000000000001 f
b1100 5
b1100 Q
b1100 l
b11101000000000000000000000000000010000000000000000000000000000000000000000000000000000000000000000000000000000000000000000000000001000001000000 *
b11101000000000000000000000000000010000000000000000000000000000000000000000000000000000000000000000000000000000000000000000000000001000001000000 d
b100 '"
b10 ""
b11 %"
0u
b1 s
1q
b11 p
b110 H
b11 I
b1000000000000000000000000000000000000000000000000000000000000000000000 (
b1000000000000000000000000000000000000000000000000000000000000000000000 j
b100000000000110000000000000001 6
b100000000000110000000000000001 h
b1000 .
b1000 P
b1000 i
b1000 {
b100000100000000000100000000000000100 0
b100000100000000000100000000000000100 g
b11101000000000000000000000000000001000000000000000000000000000000000000000000000000000000000000000000000000000000000000000000000000110000100000 1
b11101000000000000000000000000000001000000000000000000000000000000000000000000000000000000000000000000000000000000000000000000000000110000100000 e
b10000xxxxxxxxxxxxxxxxxxxxxxxxxxxxxxxx1000000000000000000000000000000000000000000000000000000000000000000000 2
b10000xxxxxxxxxxxxxxxxxxxxxxxxxxxxxxxx1000000000000000000000000000000000000000000000000000000000000000000000 c
b11 #
1!
#30000
0!
#35000
b100 G
b10000xxxxxxxxxxxxxxxxxxxxxxxxxxxxxxxx0000000000000000000000000000001000000000000000000000000000000000000010 +
b10000xxxxxxxxxxxxxxxxxxxxxxxxxxxxxxxx0000000000000000000000000000001000000000000000000000000000000000000010 b
b10 v
b100 9
b100 E
b100 r
b10000 3
b10000 n
b10000 z
0J
0K
0L
b10000 :
b10000 S
b10000 &"
b1 7
b1 ("
1$"
b1000000000000000000000000000000000000000000000000000000000000001100001 (
b1000000000000000000000000000000000000000000000000000000000000001100001 j
b11 _
b100 %"
b10 s
b100 p
b100 I
b11101000000000000000000000000000011000000000000000000000000000000000000000000000000000000000000000000000000000000000000000000000000010001100000 *
b11101000000000000000000000000000011000000000000000000000000000000000000000000000000000000000000000000000000000000000000000000000000010001100000 d
b1 '"
b11 ""
b1000010101100000000010000000000000100 )
b1000010101100000000010000000000000100 f
b10000 5
b10000 Q
b10000 l
b1000000000000000000000000000000000000000000000000000000000000000000000 /
b1000000000000000000000000000000000000000000000000000000000000000000000 k
b10000xxxxxxxxxxxxxxxxxxxxxxxxxxxxxxxx0000000000000000000000000000000110000000000000000000000000000000000001 2
b10000xxxxxxxxxxxxxxxxxxxxxxxxxxxxxxxx0000000000000000000000000000000110000000000000000000000000000000000001 c
b11101000000000000000000000000000010000000000000000000000000000000000000000000000000000000000000000000000000000000000000000000000001000001000000 1
b11101000000000000000000000000000010000000000000000000000000000000000000000000000000000000000000000000000000000000000000000000000001000001000000 e
b110000100000000000110000000000000001 0
b110000100000000000110000000000000001 g
b10101100000000010000000000000100 6
b10101100000000010000000000000100 h
b1100 .
b1100 P
b1100 i
b1100 {
b100 #
1!
#40000
0!
#45000
b1 G
1=
1B
0;
b10100 3
b10100 n
b10100 z
b0 A
b0 \
b10000xxxxxxxxxxxxxxxxxxxxxxxxxxxxxxxx0000000000000000000000000000000010000000000000000000000000000000000011 +
b10000xxxxxxxxxxxxxxxxxxxxxxxxxxxxxxxx0000000000000000000000000000000010000000000000000000000000000000000011 b
b11 v
b1 9
b1 E
b1 r
b11 '
b11 y
b11 }
1[
0U
1J
1K
b100 7
b100 ("
b100 :
b100 S
b100 &"
b1010000000000001000010010000000100000 )
b1010000000000001000010010000000100000 f
b10100 5
b10100 Q
b10100 l
b1000010000000000000000000000000000000100000000000000000000000000000000000000000000000000000000000000000000000000000000000000000000000001000000100000 *
b1000010000000000000000000000000000000100000000000000000000000000000000000000000000000000000000000000000000000000000000000000000000000001000000100000 d
b100 '"
b101011 W
b1 ""
b1 %"
b11 s
b1 p
b1 I
b1000000000000000000000000000000000000000000000000000000000000010000010 (
b1000000000000000000000000000000000000000000000000000000000000010000010 j
b100 _
b11 x
b1 |
b1000010010000000100000 6
b1000010010000000100000 h
b10000 .
b10000 P
b10000 i
b10000 {
b1000010101100000000010000000000000100 0
b1000010101100000000010000000000000100 g
b11101000000000000000000000000000011000000000000000000000000000000000000000000000000000000000000000000000000000000000000000000000000010001100000 1
b11101000000000000000000000000000011000000000000000000000000000000000000000000000000000000000000000000000000000000000000000000000000010001100000 e
b10000xxxxxxxxxxxxxxxxxxxxxxxxxxxxxxxx0000000000000000000000000000001000000000000000000000000000000000000010 2
b10000xxxxxxxxxxxxxxxxxxxxxxxxxxxxxxxx0000000000000000000000000000001000000000000000000000000000000000000010 c
b1000000000000000000000000000000000000000000000000000000000000001100001 /
b1000000000000000000000000000000000000000000000000000000000000001100001 k
b101 #
1!
#50000
b1000010000000000000000000000000000000100000000000000000000000000000000000000000000000000000000000000000011000000000000000000000000000001000000100000 *
b1000010000000000000000000000000000000100000000000000000000000000000000000000000000000000000000000000000011000000000000000000000000000001000000100000 d
b11 ,
b11 #"
0!
#55000
b100 G
1;
1<
0=
0B
b100 '
b100 y
b100 }
b1 v
b100 9
b100 E
b100 r
b10 8
b10 F
b10 N
b10 A
b10 \
b11000 3
b11000 n
b11000 z
1Y
0J
0[
b10000 :
b10000 S
b10000 &"
b10000000100000 7
b10000000100000 ("
b100 x
b10 |
b1000000000000000000000000000000000000000000000000000000000000000100011 (
b1000000000000000000000000000000000000000000000000000000000000000100011 j
b1 _
b10xxxxxxxxxxxxxxxxxxxxxxxxxxxxxxxx0000000000000000000000000000001000000000000000000000000000000001100001 +
b10xxxxxxxxxxxxxxxxxxxxxxxxxxxxxxxx0000000000000000000000000000001000000000000000000000000000000001100001 b
b100 %"
b1 s
b100 p
b11 o
b0 H
b100 I
b10000000100000 '"
b0 W
b100101000000000000000000000000000101000000000000000000000000000000001100000000000000000000000000000011000000000000000000100000001000000000100100 *
b100101000000000000000000000000000101000000000000000000000000000000001100000000000000000000000000000011000000000000000000100000001000000000100100 d
b11 -
b11 !"
b1 ~
b1100000000000001000100011000000100101 )
b1100000000000001000100011000000100101 f
b11000 5
b11000 Q
b11000 l
b1000000000000000000000000000000000000000000000000000000000000010000010 /
b1000000000000000000000000000000000000000000000000000000000000010000010 k
b10000xxxxxxxxxxxxxxxxxxxxxxxxxxxxxxxx0000000000000000000000000000000010000000000000000000000000000000000011 2
b10000xxxxxxxxxxxxxxxxxxxxxxxxxxxxxxxx0000000000000000000000000000000010000000000000000000000000000000000011 c
b1000010000000000000000000000000000000100000000000000000000000000000000000000000000000000000000000000000011000000000000000000000000000001000000100000 1
b1000010000000000000000000000000000000100000000000000000000000000000000000000000000000000000000000000000011000000000000000000000000000001000000100000 e
b1010000000000001000010010000000100000 0
b1010000000000001000010010000000100000 g
b1000100011000000100101 6
b1000100011000000100101 h
b10100 .
b10100 P
b10100 i
b10100 {
b110 #
1!
#60000
0!
#65000
b11100 3
b11100 n
b11100 z
b100 v
b11 9
b11 E
b11 r
b110 G
b1 '
b1 y
b1 }
b11000000100101 7
b11000000100101 ("
b10000xxxxxxxxxxxxxxxxxxxxxxxxxxxxxxxx0000000000000000000000000000001100000000000000000000000000000001100100 +
b10000xxxxxxxxxxxxxxxxxxxxxxxxxxxxxxxx0000000000000000000000000000001100000000000000000000000000000001100100 b
b1000000010000000 :
b1000000010000000 S
b1000000010000000 &"
b1110000000000001000110011100000100100 )
b1110000000000001000110011100000100100 f
b11100 5
b11100 Q
b11100 l
b11000000100101 '"
b100101000000000000000000000000000110000000000000000000000000000000001100000000000000000000000000000100000000000000000000110000001001010001000110 *
b100101000000000000000000000000000110000000000000000000000000000000001100000000000000000000000000000100000000000000000000110000001001010001000110 d
b100 ,
b100 #"
b10 ""
b10000000100000 %"
1u
b100 t
0q
b10000000100000 p
b10 H
b100000 I
b11 C
b10000001 (
b10000001 j
1^
b11 `
b100 _
b1 x
b11 |
b1000110011100000100100 6
b1000110011100000100100 h
b11000 .
b11000 P
b11000 i
b11000 {
b1100000000000001000100011000000100101 0
b1100000000000001000100011000000100101 g
b100101000000000000000000000000000101000000000000000000000000000000001100000000000000000000000000000011000000000000000000100000001000000000100100 1
b100101000000000000000000000000000101000000000000000000000000000000001100000000000000000000000000000011000000000000000000100000001000000000100100 e
b10xxxxxxxxxxxxxxxxxxxxxxxxxxxxxxxx0000000000000000000000000000001000000000000000000000000000000001100001 2
b10xxxxxxxxxxxxxxxxxxxxxxxxxxxxxxxx0000000000000000000000000000001000000000000000000000000000000001100001 c
b1000000000000000000000000000000000000000000000000000000000000000100011 /
b1000000000000000000000000000000000000000000000000000000000000000100011 k
b111 #
1!
#70000
0!
#75000
b111 G
b1 8
b1 F
b1 N
b100 '
b100 y
b100 }
b110 v
b100 9
b100 E
b100 r
b100000 3
b100000 n
b100000 z
1J
0K
b1100000010010100 :
b1100000010010100 S
b1100000010010100 &"
b11100000100100 7
b11100000100100 ("
b100 x
0$"
b1 |
b1000000000000000000000000000000000000000000000000000000000000011000100 (
b1000000000000000000000000000000000000000000000000000000000000011000100 j
0^
b110 _
b10000xxxxxxxxxxxxxxxxxxxxxxxxxxxxxxxx0000000000000000000000000000001110000000000000000000000000000010000110 +
b10000xxxxxxxxxxxxxxxxxxxxxxxxxxxxxxxx0000000000000000000000000000001110000000000000000000000000000010000110 b
b11000000100101 %"
b110 t
b10 s
b11000000100101 p
b100 o
b100101 I
b11100000100100 '"
b100101000000000000000000000000000111000000000000000000000000000000001100000000000000000000000000000001000000000000000000111000001001000001100111 *
b100101000000000000000000000000000111000000000000000000000000000000001100000000000000000000000000000001000000000000000000111000001001000001100111 d
b1 ,
b1 #"
b11 ""
b10000000000000100000100010100000100010 )
b10000000000000100000100010100000100010 f
b100000 5
b100000 Q
b100000 l
b10000001 /
b10000001 k
b10000xxxxxxxxxxxxxxxxxxxxxxxxxxxxxxxx0000000000000000000000000000001100000000000000000000000000000001100100 2
b10000xxxxxxxxxxxxxxxxxxxxxxxxxxxxxxxx0000000000000000000000000000001100000000000000000000000000000001100100 c
b100101000000000000000000000000000110000000000000000000000000000000001100000000000000000000000000000100000000000000000000110000001001010001000110 1
b100101000000000000000000000000000110000000000000000000000000000000001100000000000000000000000000000100000000000000000000110000001001010001000110 e
b1110000000000001000110011100000100100 0
b1110000000000001000110011100000100100 g
b100000100010100000100010 6
b100000100010100000100010 h
b11100 .
b11100 P
b11100 i
b11100 {
b1000 #
1!
#80000
0!
#85000
b1 G
b0 8
b0 F
b0 N
b100100 3
b100100 n
b100100 z
b111 v
b1 9
b1 E
b1 r
b110 '
b110 y
b110 }
0J
b10100000100010 7
b10100000100010 ("
b1110000010010000 :
b1110000010010000 S
b1110000010010000 &"
b10010000000000001000100100000000101010 )
b10010000000000001000100100000000101010 f
b100100 5
b100100 Q
b100100 l
b10100000100010 '"
b100 ,
b100 #"
b10 ""
b100101000000000000000000000000001000000000000000000000000000000000000000000000000000000000000000000100000000000000000000101000001000100001000101 *
b100101000000000000000000000000001000000000000000000000000000000000000000000000000000000000000000000100000000000000000000101000001000100001000101 d
b0 -
b0 !"
b100 ~
b10000xxxxxxxxxxxxxxxxxxxxxxxxxxxxxxxx0000000000000000000000000000000010000000000000000000000000000000100111 +
b10000xxxxxxxxxxxxxxxxxxxxxxxxxxxxxxxx0000000000000000000000000000000010000000000000000000000000000000100111 b
b11100000100100 %"
b111 t
b11 s
b11100000100100 p
b1 o
b100100 I
b1000000000000000000000000000000000000000000000000000000000000011100110 (
b1000000000000000000000000000000000000000000000000000000000000011100110 j
b100 `
b111 _
b110 x
1$"
b100 |
b1000100100000000101010 6
b1000100100000000101010 h
b100000 .
b100000 P
b100000 i
b100000 {
b10000000000000100000100010100000100010 0
b10000000000000100000100010100000100010 g
b100101000000000000000000000000000111000000000000000000000000000000001100000000000000000000000000000001000000000000000000111000001001000001100111 1
b100101000000000000000000000000000111000000000000000000000000000000001100000000000000000000000000000001000000000000000000111000001001000001100111 e
b10000xxxxxxxxxxxxxxxxxxxxxxxxxxxxxxxx0000000000000000000000000000001110000000000000000000000000000010000110 2
b10000xxxxxxxxxxxxxxxxxxxxxxxxxxxxxxxx0000000000000000000000000000001110000000000000000000000000000010000110 c
b1000000000000000000000000000000000000000000000000000000000000011000100 /
b1000000000000000000000000000000000000000000000000000000000000011000100 k
b1001 #
1!
#90000
b100101000000000000000000000000001000000000000000000000000000000000011000000000000000000000000000000100000000000000000000101000001000100001000101 *
b100101000000000000000000000000001000000000000000000000000000000000011000000000000000000000000000000100000000000000000000101000001000100001000101 d
b110 -
b110 !"
0!
#95000
b110 8
b110 F
b110 N
b111 '
b111 y
b111 }
b101 v
b100 9
b100 E
b100 r
0D
b10 G
b101000 3
b101000 n
b101000 z
1K
1L
b1010000010001000 :
b1010000010001000 S
b1010000010001000 &"
b100000000101010 7
b100000000101010 ("
b111 x
b110 |
b1000000000000000000000000000000000000000000000000000000000000000100111 (
b1000000000000000000000000000000000000000000000000000000000000000100111 j
b1 `
b1 _
b10000xxxxxxxxxxxxxxxxxxxxxxxxxxxxxxxx0000000000000000000000000000000100000000000000000000000000000010000101 +
b10000xxxxxxxxxxxxxxxxxxxxxxxxxxxxxxxx0000000000000000000000000000000100000000000000000000000000000010000101 b
b10100000100010 %"
b101 t
b10 s
b10100000100010 p
b100 o
b100010 I
b110 C
b100000000101010 '"
b100101000000000000000000000000001001000000000000000000000000000000001100000000000000000000000000000100000000000000000001000000001010100001001000 *
b100101000000000000000000000000001001000000000000000000000000000000001100000000000000000000000000000100000000000000000001000000001010100001001000 d
b11 -
b11 !"
b1 ~
b10100000010000001000101111111111110110 )
b10100000010000001000101111111111110110 f
b101000 5
b101000 Q
b101000 l
b1000000000000000000000000000000000000000000000000000000000000011100110 /
b1000000000000000000000000000000000000000000000000000000000000011100110 k
b10000xxxxxxxxxxxxxxxxxxxxxxxxxxxxxxxx0000000000000000000000000000000010000000000000000000000000000000100111 2
b10000xxxxxxxxxxxxxxxxxxxxxxxxxxxxxxxx0000000000000000000000000000000010000000000000000000000000000000100111 c
b100101000000000000000000000000001000000000000000000000000000000000011000000000000000000000000000000100000000000000000000101000001000100001000101 1
b100101000000000000000000000000001000000000000000000000000000000000011000000000000000000000000000000100000000000000000000101000001000100001000101 e
b10010000000000001000100100000000101010 0
b10010000000000001000100100000000101010 g
b10000001000101111111111110110 6
b10000001000101111111111110110 h
b100100 .
b100100 P
b100100 i
b100100 {
b1010 #
1!
#100000
0!
#105000
0;
0<
1@
b111 8
b111 F
b111 N
b101100 3
b101100 n
b101100 z
b1 A
b1 \
b1000 v
b10000xxxxxxxxxxxxxxxxxxxxxxxxxxxxxxxx0000000000000000000000000000000010000000000000000000000000000010001000 +
b10000xxxxxxxxxxxxxxxxxxxxxxxxxxxxxxxx0000000000000000000000000000000010000000000000000000000000000010001000 b
b1 G
b1 '
b1 y
b1 }
0Y
1V
1J
b11111111111111111111111111110110 7
b11111111111111111111111111110110 ("
b10000000010101000 :
b10000000010101000 S
b10000000010101000 &"
b10110010001100000010100000000000000100 )
b10110010001100000010100000000000000100 f
b101100 5
b101100 Q
b101100 l
b1000010000000000000000000000000001010000000000000000000000000000000001100000000000000000000000000000100111111111111111111111111111101100001011111 *
b1000010000000000000000000000000001010000000000000000000000000000000001100000000000000000000000000000100111111111111111111111111111101100001011111 d
b1111111111110110 '"
b100 W
b100000000101010 %"
b1000 t
b100000000101010 p
b101010 I
b11 C
b1000000000000000000000000000000000000000000000000000000000000001000101 (
b1000000000000000000000000000000000000000000000000000000000000001000101 j
b100 `
b10 _
b1 x
b111 |
b10001100000010100000000000000100 6
b10001100000010100000000000000100 h
b101000 .
b101000 P
b101000 i
b101000 {
b10100000010000001000101111111111110110 0
b10100000010000001000101111111111110110 g
b100101000000000000000000000000001001000000000000000000000000000000001100000000000000000000000000000100000000000000000001000000001010100001001000 1
b100101000000000000000000000000001001000000000000000000000000000000001100000000000000000000000000000100000000000000000001000000001010100001001000 e
b10000xxxxxxxxxxxxxxxxxxxxxxxxxxxxxxxx0000000000000000000000000000000100000000000000000000000000000010000101 2
b10000xxxxxxxxxxxxxxxxxxxxxxxxxxxxxxxx0000000000000000000000000000000100000000000000000000000000000010000101 c
b1000000000000000000000000000000000000000000000000000000000000000100111 /
b1000000000000000000000000000000000000000000000000000000000000000100111 k
b1011 #
1!
#110000
0!
#115000
b11111111111111111111111111111111 G
1?
1>
1B
1;
0@
b110 8
b110 F
b110 N
b10 '
b10 y
b10 }
b10 v
b0 A
b0 \
b110000 3
b110000 n
b110000 z
1X
0V
0J
b1xxxxxxxxxxxxxxxxxxxxxxxxxxxxxxxx0111111111111111111111111111111110000000000000000000000000000010000010 +
b1xxxxxxxxxxxxxxxxxxxxxxxxxxxxxxxx0111111111111111111111111111111110000000000000000000000000000010000010 b
b11111111111111111111111111011000 :
b11111111111111111111111111011000 S
b11111111111111111111111111011000 &"
b100 7
b100 ("
b10 x
b101 |
b1000000000000000000000000000000000000000000000000000000000000000101000 (
b1000000000000000000000000000000000000000000000000000000000000000101000 j
b1 _
b11111111111111111111111111110110 %"
0u
b11111 t
b11111111111111111111111111110110 p
b1 H
b110110 I
b100 '"
b100011 W
b0 ,
b0 #"
b1010 ""
b110010001000000000000000000000000001011000000000000000000000000000000000000000000000000000000000000000000000000000000000000000000000001000101000000 *
b110010001000000000000000000000000001011000000000000000000000000000000000000000000000000000000000000000000000000000000000000000000000001000101000000 d
b0 -
b0 !"
b0 ~
b11000000000000000000000000000000000000 )
b11000000000000000000000000000000000000 f
b110000 5
b110000 Q
b110000 l
b1000000000000000000000000000000000000000000000000000000000000001000101 /
b1000000000000000000000000000000000000000000000000000000000000001000101 k
b10000xxxxxxxxxxxxxxxxxxxxxxxxxxxxxxxx0000000000000000000000000000000010000000000000000000000000000010001000 2
b10000xxxxxxxxxxxxxxxxxxxxxxxxxxxxxxxx0000000000000000000000000000000010000000000000000000000000000010001000 c
b1000010000000000000000000000000001010000000000000000000000000000000001100000000000000000000000000000100111111111111111111111111111101100001011111 1
b1000010000000000000000000000000001010000000000000000000000000000000001100000000000000000000000000000100111111111111111111111111111101100001011111 e
b10110010001100000010100000000000000100 0
b10110010001100000010100000000000000100 g
b0 6
b0 h
b101100 .
b101100 P
b101100 i
b101100 {
b1100 #
1!
#120000
0!
#125000
1<
0?
0>
0B
1;
b10 8
b10 F
b10 N
b110100 3
b110100 n
b110100 z
b10 A
b10 \
b1010 v
b100 G
b1 '
b1 y
b1 }
1Y
0X
0L
b0 7
b0 ("
b10000 :
b10000 S
b10000 &"
b11010000000000000000000000000000000000 )
b11010000000000000000000000000000000000 f
b110100 5
b110100 Q
b110100 l
b100101000000000000000000000000001100000000000000000000000000000000000000000000000000000000000000000000000000000000000000000000000000000000000000 *
b100101000000000000000000000000001100000000000000000000000000000000000000000000000000000000000000000000000000000000000000000000000000000000000000 d
b0 '"
b0 W
b0 ""
b11100xxxxxxxxxxxxxxxxxxxxxxxxxxxxxxxx0000000000000000000000000000001000000000000000000000000000000000001010 +
b11100xxxxxxxxxxxxxxxxxxxxxxxxxxxxxxxx0000000000000000000000000000001000000000000000000000000000000000001010 b
b100 %"
b0 t
b1010 s
1q
b100 p
b0 o
b0 H
b100 I
b0 C
b1111111111111111111111111111111100010 (
b1111111111111111111111111111111100010 j
b11111111111111111111111111111111 _
b1 x
b1000 |
b110000 .
b110000 P
b110000 i
b110000 {
b11000000000000000000000000000000000000 0
b11000000000000000000000000000000000000 g
b110010001000000000000000000000000001011000000000000000000000000000000000000000000000000000000000000000000000000000000000000000000000001000101000000 1
b110010001000000000000000000000000001011000000000000000000000000000000000000000000000000000000000000000000000000000000000000000000000001000101000000 e
b1xxxxxxxxxxxxxxxxxxxxxxxxxxxxxxxx0111111111111111111111111111111110000000000000000000000000000010000010 2
b1xxxxxxxxxxxxxxxxxxxxxxxxxxxxxxxx0111111111111111111111111111111110000000000000000000000000000010000010 c
b1000000000000000000000000000000000000000000000000000000000000000101000 /
b1000000000000000000000000000000000000000000000000000000000000000101000 k
b1101 #
1!
#130000
0!
