Lab5-Advanced Pipe CPU/gtkWave.vcd
$date
	Sat Jun 19 23:01:24 2021
$end
$version
	Icarus Verilog
$end
$timescale
	1ps
$end
$scope module TestBench $end
$var reg 1 ! CLK $end
$var reg 1 " RST $end
$var integer 32 # count [31:0] $end
$var integer 32 $ i [31:0] $end
$scope module cpu $end
$var wire 1 % IDEX_DataWrt $end
$var wire 1 & IFID_DataWrt $end
$var wire 1 ' PCSrc $end
$var wire 1 ! clk_i $end
$var wire 1 ( invMemToReg $end
$var wire 1 " rst_i $end
$var wire 32 ) wrt_dat [31:0] $end
$var wire 71 * toMEMWB [70:0] $end
$var wire 64 + toIFID [63:0] $end
$var wire 153 , toIDEX [152:0] $end
$var wire 107 - toEXMEM [106:0] $end
$var wire 32 . rd2 [31:0] $end
$var wire 32 / rd1 [31:0] $end
$var wire 32 0 pre_al2 [31:0] $end
$var wire 32 1 pc [31:0] $end
$var wire 71 2 otMEMWB [70:0] $end
$var wire 64 3 otIFID [63:0] $end
$var wire 153 4 otIDEX [152:0] $end
$var wire 107 5 otEXMEM [106:0] $end
$var wire 32 6 nxt_pcf [31:0] $end
$var wire 32 7 nxt_pc1 [31:0] $end
$var wire 32 8 nxt_pc0 [31:0] $end
$var wire 32 9 ins [31:0] $end
$var wire 32 : ase [31:0] $end
$var wire 4 ; alu_ctr [3:0] $end
$var wire 32 < al2 [31:0] $end
$var wire 32 = al1 [31:0] $end
$var wire 32 > afs [31:0] $end
$var wire 1 ? PCWrite $end
$var wire 2 @ Mux_Src2 [1:0] $end
$var wire 2 A Mux_Src1 [1:0] $end
$var wire 1 B IFIDWrite $end
$var wire 1 C ID_RegWrite $end
$var wire 1 D ID_RegDst $end
$var wire 1 E ID_MemWrite $end
$var wire 1 F ID_MemToReg $end
$var wire 1 G ID_MemRead $end
$var wire 1 H ID_Branch $end
$var wire 3 I ID_ALU_op [2:0] $end
$var wire 1 J ID_ALUSrc $end
$var wire 1 K IDEX_Flush $end
$scope module ALU $end
$var wire 1 L zero_o $end
$var wire 32 M src2_i [31:0] $end
$var wire 32 N src1_i [31:0] $end
$var wire 4 O ctrl_i [3:0] $end
$var reg 32 P result_o [31:0] $end
$upscope $end
$scope module ALU_Control $end
$var wire 3 Q ALUOp_i [2:0] $end
$var wire 6 R funct_i [5:0] $end
$var wire 1 S op0 $end
$var wire 1 T op1 $end
$var wire 1 U op2 $end
$var wire 1 V op3 $end
$var reg 4 W ALUCtrl_o [3:0] $end
$upscope $end
$scope module Add_pc $end
$var wire 32 X src1_i [31:0] $end
$var wire 32 Y src2_i [31:0] $end
$var reg 32 Z sum_o [31:0] $end
$upscope $end
$scope module Add_pc_branch $end
$var wire 32 [ src2_i [31:0] $end
$var wire 32 \ src1_i [31:0] $end
$var reg 32 ] sum_o [31:0] $end
$upscope $end
$scope module Control $end
$var wire 1 ^ addi $end
$var wire 1 _ bgte $end
$var wire 1 ` bgtr $end
$var wire 1 a bieq $end
$var wire 1 b bneq $end
$var wire 6 c instr_op_i [5:0] $end
$var wire 1 d lowd $end
$var wire 1 e rfmt $end
$var wire 1 f slti $end
$var wire 1 g stwd $end
$var reg 1 J ALUSrc_o $end
$var reg 3 h ALU_op_o [2:0] $end
$var reg 1 H Branch_o $end
$var reg 1 G MemRead_o $end
$var reg 1 F MemToReg_o $end
$var reg 1 E MemWrite_o $end
$var reg 1 D RegDst_o $end
$var reg 1 C RegWrite_o $end
$upscope $end
$scope module DM $end
$var wire 1 i MemRead_i $end
$var wire 1 j MemWrite_i $end
$var wire 32 k addr_i [31:0] $end
$var wire 1 ! clk_i $end
$var wire 32 l data_i [31:0] $end
$var reg 32 m data_o [31:0] $end
$upscope $end
$scope module EX_MEM $end
$var wire 1 ! clk_i $end
$var wire 1 n dataWrite_i $end
$var wire 107 o data_i [106:0] $end
$var wire 1 " rst_i $end
$var reg 107 p data_o [106:0] $end
$upscope $end
$scope module FU $end
$var wire 5 q EXMEM_RegDes_i [4:0] $end
$var wire 1 r EXMEM_WriteBack_i $end
$var wire 5 s MEMWB_RegDes_i [4:0] $end
$var wire 1 t MEMWB_WriteBack_i $end
$var wire 5 u RegRs_i [4:0] $end
$var wire 5 v RegRt_i [4:0] $end
$var reg 2 w Mux_Src1_o [1:0] $end
$var reg 2 x Mux_Src2_o [1:0] $end
$upscope $end
$scope module HDU $end
$var wire 1 y IDEX_MemRead_i $end
$var wire 5 z IDEX_RegRt_i [4:0] $end
$var wire 5 { IFID_RegRs_i [4:0] $end
$var wire 5 | IFID_RegRt_i [4:0] $end
$var wire 1 ' PCSrc_i $end
$var reg 1 K IDEX_Flush_o $end
$var reg 1 B IFIDWrite_o $end
$var reg 1 ? PCWrite_o $end
$upscope $end
$scope module ID_EX $end
$var wire 1 ! clk_i $end
$var wire 1 % dataWrite_i $end
$var wire 153 } data_i [152:0] $end
$var wire 1 " rst_i $end
$var reg 153 ~ data_o [152:0] $end
$upscope $end
$scope module IF_ID $end
$var wire 1 ! clk_i $end
$var wire 1 & dataWrite_i $end
$var wire 64 !" data_i [63:0] $end
$var wire 1 " rst_i $end
$var reg 64 "" data_o [63:0] $end
$upscope $end
$scope module IM $end
$var wire 32 #" instr_o [31:0] $end
$var wire 32 $" addr_i [31:0] $end
$upscope $end
$scope module MEM_WB $end
$var wire 1 ! clk_i $end
$var wire 1 %" dataWrite_i $end
$var wire 71 &" data_i [70:0] $end
$var wire 1 " rst_i $end
$var reg 71 '" data_o [70:0] $end
$upscope $end
$scope module Mux0 $end
$var wire 32 (" data0_i [31:0] $end
$var wire 32 )" data1_i [31:0] $end
$var wire 1 ' select_i $end
$var reg 32 *" data_o [31:0] $end
$upscope $end
$scope module Mux1 $end
$var wire 32 +" data0_i [31:0] $end
$var wire 32 ," data1_i [31:0] $end
$var wire 1 -" select_i $end
$var reg 32 ." data_o [31:0] $end
$upscope $end
$scope module Mux2 $end
$var wire 5 /" data0_i [4:0] $end
$var wire 5 0" data1_i [4:0] $end
$var wire 1 1" select_i $end
$var reg 5 2" data_o [4:0] $end
$upscope $end
$scope module Mux3 $end
$var wire 32 3" data0_i [31:0] $end
$var wire 32 4" data1_i [31:0] $end
$var wire 1 ( select_i $end
$var reg 32 5" data_o [31:0] $end
$upscope $end
$scope module Mux4 $end
$var wire 32 6" data0_i [31:0] $end
$var wire 32 7" data1_i [31:0] $end
$var wire 32 8" data2_i [31:0] $end
$var wire 32 9" data3_i [31:0] $end
$var wire 2 :" select_i [1:0] $end
$var reg 32 ;" data_o [31:0] $end
$upscope $end
$scope module Mux5 $end
$var wire 32 <" data0_i [31:0] $end
$var wire 32 =" data1_i [31:0] $end
$var wire 32 >" data2_i [31:0] $end
$var wire 32 ?" data3_i [31:0] $end
$var wire 2 @" select_i [1:0] $end
$var reg 32 A" data_o [31:0] $end
$upscope $end
$scope module PC $end
$var wire 1 ? PCWrite_i $end
$var wire 1 ! clk_i $end
$var wire 32 B" pc_in_i [31:0] $end
$var wire 1 " rst_i $end
$var reg 32 C" pc_out_o [31:0] $end
$upscope $end
$scope module RF $end
$var wire 5 D" RDaddr_i [4:0] $end
$var wire 32 E" RDdata_i [31:0] $end
$var wire 5 F" RSaddr_i [4:0] $end
$var wire 32 G" RSdata_o [31:0] $end
$var wire 5 H" RTaddr_i [4:0] $end
$var wire 32 I" RTdata_o [31:0] $end
$var wire 1 J" RegWrite_i $end
$var wire 1 ! clk_i $end
$var wire 1 " rst_i $end
$upscope $end
$scope module Shifter $end
$var wire 32 K" data_i [31:0] $end
$var wire 32 L" data_o [31:0] $end
$upscope $end
$scope module Sign_Extend $end
$var wire 16 M" data_i [15:0] $end
$var reg 32 N" data_o [31:0] $end
$upscope $end
$upscope $end
$upscope $end
$enddefinitions $end
#0
$dumpvars
bx N"
bx M"
bx00 L"
bx K"
xJ"
bx I"
bx H"
bx G"
bx F"
bx E"
bx D"
bx C"
bx B"
bx A"
bx @"
b0 ?"
bx >"
bx ="
bx <"
bx ;"
bx :"
b0 9"
bx 8"
bx 7"
bx 6"
bx 5"
bx 4"
bx 3"
bx 2"
x1"
bx 0"
bx /"
bx ."
x-"
bx ,"
bx +"
bx *"
bx )"
bx ("
bx '"
bx &"
1%"
bx $"
bx #"
bx ""
bx !"
bx ~
bx }
bx |
bx {
bx z
xy
bx x
bx w
bx v
bx u
xt
bx s
xr
bx q
bx p
bx o
xn
bx m
bx l
bx k
xj
xi
bx h
xg
xf
xe
xd
bx c
xb
xa
x`
x_
x^
bx ]
bx00 \
bx [
bx Z
bx Y
b100 X
b10 W
0V
xU
xT
xS
bx R
bx Q
bx P
b10 O
bx N
bx M
xL
xK
xJ
bx I
xH
xG
xF
xE
xD
xC
xB
bx A
bx @
x?
bx00 >
bx =
bx <
b10 ;
bx :
bx 9
bx 8
bx 7
bx 6
bx 5
bx 4
bx 3
bx 2
bx 1
bx 0
bx /
bx .
bx -
bx ,
bx +
bx *
bx )
x(
x'
x&
x%
b10000000 $
b0 #
0"
0!
$end
#5000
1L
b0 P
b0 <
b0 M
b0 A"
b0 =
b0 N
b0 ;"
1&
1C
1D
0J
0H
0E
0G
0F
b10 I
b10 h
b0 2"
b0 0
b0 ."
b0 <"
b10 ;
b10 O
b10 W
1K
1B
1?
b100 6
b100 *"
b100 B"
b0 )
b0 5"
b0 7"
b0 ="
b0 E"
b0 @
b0 x
b0 @"
b0 A
b0 w
b0 :"
1e
1n
1%
0'
0^
0a
0f
1T
0b
0_
0`
0d
0g
0S
0U
b0 :
b0 N"
b0 >
b0 \
b0 L"
b0 m
1(
b100 8
b100 Z
b100 ("
b0 M"
b0 c
b0 .
b0 I"
b0 H"
b100101000000000000000000000000000000000000000000000000000000000000000000000000000000000000000000000000000000000000000000000000000000000000000000 ,
b100101000000000000000000000000000000000000000000000000000000000000000000000000000000000000000000000000000000000000000000000000000000000000000000 }
b0 /
b0 G"
b0 F"
b0 |
b0 {
b0xxxxxxxxxxxxxxxxxxxxxxxxxxxxxxxx1000000000000000000000000000000000000000000000000000000000000000000000 -
b0xxxxxxxxxxxxxxxxxxxxxxxxxxxxxxxx1000000000000000000000000000000000000000000000000000000000000000000000 o
b0 v
b0 u
b0 K"
01"
b0 0"
b0 /"
0-"
b0 ,"
b0 +"
b0 6"
b0 Q
b0 R
b0 z
0y
b0 *
b0 &"
0j
0i
b0 l
b0 k
0r
b0 q
b0 >"
b0 8"
b0 7
b0 )"
b0 4"
b0 3"
0t
b0 s
0J"
b0 D"
b10000100000000000010000000000000011 +
b10000100000000000010000000000000011 !"
b100000000000010000000000000011 9
b100000000000010000000000000011 #"
b0 1
b0 Y
b0 $"
b0 C"
b0 3
b0 ""
b0 4
b0 ~
b0 5
b0 p
b0 2
b0 '"
b1 #
1!
#10000
0!
1"
#15000
0D
1J
b110 I
b110 h
b1000 6
b1000 *"
b1000 B"
0e
1^
b11 :
b11 N"
bx 7
bx )"
b10000xxxxxxxxxxxxxxxxxxxxxxxxxxxxxxxx1000000000000000000000000000000000000000000000000000000000000000000000 -
b10000xxxxxxxxxxxxxxxxxxxxxxxxxxxxxxxx1000000000000000000000000000000000000000000000000000000000000000000000 o
11"
b10 Q
b11101000000000000000000000000000001000000000000000000000000000000000000000000000000000000000000000000000000000000000000000000000000110000100000 ,
b11101000000000000000000000000000001000000000000000000000000000000000000000000000000000000000000000000000000000000000000000000000000110000100000 }
b11 M"
b1000 c
b1 H"
b1 |
b1000 8
b1000 Z
b1000 ("
b0xxxxxxxxxxxxxxxxxxxxxxxxxxxxxxxx1000000000000000000000000000000000000000000000000000000000000000000000 5
b0xxxxxxxxxxxxxxxxxxxxxxxxxxxxxxxx1000000000000000000000000000000000000000000000000000000000000000000000 p
b100101000000000000000000000000000000000000000000000000000000000000000000000000000000000000000000000000000000000000000000000000000000000000000000 4
b100101000000000000000000000000000000000000000000000000000000000000000000000000000000000000000000000000000000000000000000000000000000000000000000 ~
b10000100000000000010000000000000011 3
b10000100000000000010000000000000011 ""
b100000100000000000100000000000000100 +
b100000100000000000100000000000000100 !"
b100000000000100000000000000100 9
b100000000000100000000000000100 #"
b100 1
b100 Y
b100 $"
b100 C"
b10 #
1!
#20000
0!
#25000
0L
b11 P
b11 <
b11 M
b11 A"
b1100 6
b1100 *"
b1100 B"
b10000xxxxxxxxxxxxxxxxxxxxxxxxxxxxxxxx0000000000000000000000000000000110000000000000000000000000000000000001 -
b10000xxxxxxxxxxxxxxxxxxxxxxxxxxxxxxxx0000000000000000000000000000000110000000000000000000000000000000000001 o
b1 2"
b11 0
b11 ."
b11 <"
1S
1U
b100 :
b100 N"
b1100 >
b1100 \
b1100 L"
b1100 8
b1100 Z
b1100 ("
b11101000000000000000000000000000010000000000000000000000000000000000000000000000000000000000000000000000000000000000000000000000001000001000000 ,
b11101000000000000000000000000000010000000000000000000000000000000000000000000000000000000000000000000000000000000000000000000000001000001000000 }
b100 M"
b10 H"
b10 |
b1 v
b11 K"
01"
b1 /"
1-"
b11 ,"
b110 Q
b11 R
b1 z
b1000000000000000000000000000000000000000000000000000000000000000000000 *
b1000000000000000000000000000000000000000000000000000000000000000000000 &"
1r
b110000100000000000110000000000000001 +
b110000100000000000110000000000000001 !"
b100000000000110000000000000001 9
b100000000000110000000000000001 #"
b1000 1
b1000 Y
b1000 $"
b1000 C"
b100000100000000000100000000000000100 3
b100000100000000000100000000000000100 ""
b11101000000000000000000000000000001000000000000000000000000000000000000000000000000000000000000000000000000000000000000000000000000110000100000 4
b11101000000000000000000000000000001000000000000000000000000000000000000000000000000000000000000000000000000000000000000000000000000110000100000 ~
b10000xxxxxxxxxxxxxxxxxxxxxxxxxxxxxxxx1000000000000000000000000000000000000000000000000000000000000000000000 5
b10000xxxxxxxxxxxxxxxxxxxxxxxxxxxxxxxx1000000000000000000000000000000000000000000000000000000000000000000000 p
b11 #
1!
#30000
0!
#35000
b100 P
b100 <
b100 M
b100 A"
b10000xxxxxxxxxxxxxxxxxxxxxxxxxxxxxxxx0000000000000000000000000000001000000000000000000000000000000000000010 -
b10000xxxxxxxxxxxxxxxxxxxxxxxxxxxxxxxx0000000000000000000000000000001000000000000000000000000000000000000010 o
b10 2"
b100 0
b100 ."
b100 <"
b10000 6
b10000 *"
b10000 B"
0S
0T
0U
b10000 >
b10000 \
b10000 L"
b1 :
b1 N"
1t
1J"
b1000000000000000000000000000000000000000000000000000000000000001100001 *
b1000000000000000000000000000000000000000000000000000000000000001100001 &"
b11 k
b1 q
b11 >"
b11 8"
b10 v
b100 K"
b10 /"
b100 ,"
b100 R
b10 z
b11101000000000000000000000000000011000000000000000000000000000000000000000000000000000000000000000000000000000000000000000000000000010001100000 ,
b11101000000000000000000000000000011000000000000000000000000000000000000000000000000000000000000000000000000000000000000000000000000010001100000 }
b1 M"
b11 H"
b11 |
b10000 8
b10000 Z
b10000 ("
b1000000000000000000000000000000000000000000000000000000000000000000000 2
b1000000000000000000000000000000000000000000000000000000000000000000000 '"
b10000xxxxxxxxxxxxxxxxxxxxxxxxxxxxxxxx0000000000000000000000000000000110000000000000000000000000000000000001 5
b10000xxxxxxxxxxxxxxxxxxxxxxxxxxxxxxxx0000000000000000000000000000000110000000000000000000000000000000000001 p
b11101000000000000000000000000000010000000000000000000000000000000000000000000000000000000000000000000000000000000000000000000000001000001000000 4
b11101000000000000000000000000000010000000000000000000000000000000000000000000000000000000000000000000000000000000000000000000000001000001000000 ~
b110000100000000000110000000000000001 3
b110000100000000000110000000000000001 ""
b1000010101100000000010000000000000100 +
b1000010101100000000010000000000000100 !"
b10101100000000010000000000000100 9
b10101100000000010000000000000100 #"
b1100 1
b1100 Y
b1100 $"
b1100 C"
b100 #
1!
#40000
0!
#45000
b1 P
b1 <
b1 M
b1 A"
1E
1J
0C
b10100 6
b10100 *"
b10100 B"
b0 I
b0 h
b10000xxxxxxxxxxxxxxxxxxxxxxxxxxxxxxxx0000000000000000000000000000000010000000000000000000000000000000000011 -
b10000xxxxxxxxxxxxxxxxxxxxxxxxxxxxxxxx0000000000000000000000000000000010000000000000000000000000000000000011 o
b11 2"
b1 0
b1 ."
b1 <"
b11 )
b11 5"
b11 7"
b11 ="
b11 E"
1g
0^
1S
1T
b100 :
b100 N"
b100 >
b100 \
b100 L"
b10100 8
b10100 Z
b10100 ("
b1000010000000000000000000000000000000100000000000000000000000000000000000000000000000000000000000000000000000000000000000000000000000001000000100000 ,
b1000010000000000000000000000000000000100000000000000000000000000000000000000000000000000000000000000000000000000000000000000000000000001000000100000 }
b100 M"
b101011 c
b1 H"
b1 |
b11 v
b1 K"
b11 /"
b1 ,"
b1 R
b11 z
b1000000000000000000000000000000000000000000000000000000000000010000010 *
b1000000000000000000000000000000000000000000000000000000000000010000010 &"
b100 k
b10 q
b100 >"
b100 8"
b11 4"
b1 s
b1 D"
b1010000000000001000010010000000100000 +
b1010000000000001000010010000000100000 !"
b1000010010000000100000 9
b1000010010000000100000 #"
b10000 1
b10000 Y
b10000 $"
b10000 C"
b1000010101100000000010000000000000100 3
b1000010101100000000010000000000000100 ""
b11101000000000000000000000000000011000000000000000000000000000000000000000000000000000000000000000000000000000000000000000000000000010001100000 4
b11101000000000000000000000000000011000000000000000000000000000000000000000000000000000000000000000000000000000000000000000000000000010001100000 ~
b10000xxxxxxxxxxxxxxxxxxxxxxxxxxxxxxxx0000000000000000000000000000001000000000000000000000000000000000000010 5
b10000xxxxxxxxxxxxxxxxxxxxxxxxxxxxxxxx0000000000000000000000000000001000000000000000000000000000000000000010 p
b1000000000000000000000000000000000000000000000000000000000000001100001 2
b1000000000000000000000000000000000000000000000000000000000000001100001 '"
b101 #
1!
#50000
b1000010000000000000000000000000000000100000000000000000000000000000000000000000000000000000000000000000011000000000000000000000000000001000000100000 ,
b1000010000000000000000000000000000000100000000000000000000000000000000000000000000000000000000000000000011000000000000000000000000000001000000100000 }
b11 .
b11 I"
0!
#55000
b100 P
b100 <
b100 M
b100 A"
1C
1D
0E
0J
b100 )
b100 5"
b100 7"
b100 ="
b100 E"
b1 2"
b100 0
b100 ."
b100 <"
b10 ;
b10 O
b10 W
b10 I
b10 h
b11000 6
b11000 *"
b11000 B"
1e
0S
0g
b10000 >
b10000 \
b10000 L"
b10000000100000 :
b10000000100000 N"
b100 4"
b10 s
b10 D"
b1000000000000000000000000000000000000000000000000000000000000000100011 *
b1000000000000000000000000000000000000000000000000000000000000000100011 &"
b1 k
b11 q
b1 >"
b1 8"
b10xxxxxxxxxxxxxxxxxxxxxxxxxxxxxxxx0000000000000000000000000000001000000000000000000000000000000001100001 -
b10xxxxxxxxxxxxxxxxxxxxxxxxxxxxxxxx0000000000000000000000000000001000000000000000000000000000000001100001 o
b1 v
b100 K"
b1 /"
b100 ,"
b11 +"
b0 Q
b100 R
b1 z
b10000000100000 M"
b0 c
b10000100101000000000000000000000000000101000000000000000000000000000000001100000000000000000000000000000011000000000000000000100000001000000000100100 ,
b10000100101000000000000000000000000000101000000000000000000000000000000001100000000000000000000000000000011000000000000000000100000001000000000100100 }
b11 /
b11 G"
b1 F"
b1 {
b11000 8
b11000 Z
b11000 ("
b1000000000000000000000000000000000000000000000000000000000000010000010 2
b1000000000000000000000000000000000000000000000000000000000000010000010 '"
b10000xxxxxxxxxxxxxxxxxxxxxxxxxxxxxxxx0000000000000000000000000000000010000000000000000000000000000000000011 5
b10000xxxxxxxxxxxxxxxxxxxxxxxxxxxxxxxx0000000000000000000000000000000010000000000000000000000000000000000011 p
b1000010000000000000000000000000000000100000000000000000000000000000000000000000000000000000000000000000011000000000000000000000000000001000000100000 4
b1000010000000000000000000000000000000100000000000000000000000000000000000000000000000000000000000000000011000000000000000000000000000001000000100000 ~
b1010000000000001000010010000000100000 3
b1010000000000001000010010000000100000 ""
b1100000000000001000100011000000100101 +
b1100000000000001000100011000000100101 !"
b1000100011000000100101 9
b1000100011000000100101 #"
b10100 1
b10100 Y
b10100 $"
b10100 C"
b110 #
1!
#60000
0!
#65000
b110 P
b11 <
b11 M
b11 A"
b11100 6
b11100 *"
b11100 B"
b100 2"
b11 0
b11 ."
b11 <"
b11 =
b11 N
b11 ;"
b1 )
b1 5"
b1 7"
b1 ="
b1 E"
b11000000100101 :
b11000000100101 N"
b1000000010000000 >
b1000000010000000 \
b1000000010000000 L"
b11100 8
b11100 Z
b11100 ("
b11000000100101 M"
b10000100101000000000000000000000000000110000000000000000000000000000000001100000000000000000000000000000100000000000000000000110000001001010001000110 ,
b10000100101000000000000000000000000000110000000000000000000000000000000001100000000000000000000000000000100000000000000000000110000001001010001000110 }
b100 .
b100 I"
b10 H"
b10 |
b10000xxxxxxxxxxxxxxxxxxxxxxxxxxxxxxxx0000000000000000000000000000001100000000000000000000000000000001100100 -
b10000xxxxxxxxxxxxxxxxxxxxxxxxxxxxxxxx0000000000000000000000000000001100000000000000000000000000000001100100 o
b1 u
b10000000100000 K"
11"
b100 0"
0-"
b10000000100000 ,"
b11 6"
b10 Q
b100000 R
b10000001 *
b10000001 &"
1j
b11 l
b100 k
0r
b1 q
b100 >"
b100 8"
b1 4"
b11 s
b11 D"
b1110000000000001000110011100000100100 +
b1110000000000001000110011100000100100 !"
b1000110011100000100100 9
b1000110011100000100100 #"
b11000 1
b11000 Y
b11000 $"
b11000 C"
b1100000000000001000100011000000100101 3
b1100000000000001000100011000000100101 ""
b10000100101000000000000000000000000000101000000000000000000000000000000001100000000000000000000000000000011000000000000000000100000001000000000100100 4
b10000100101000000000000000000000000000101000000000000000000000000000000001100000000000000000000000000000011000000000000000000100000001000000000100100 ~
b10xxxxxxxxxxxxxxxxxxxxxxxxxxxxxxxx0000000000000000000000000000001000000000000000000000000000000001100001 5
b10xxxxxxxxxxxxxxxxxxxxxxxxxxxxxxxx0000000000000000000000000000001000000000000000000000000000000001100001 p
b1000000000000000000000000000000000000000000000000000000000000000100011 2
b1000000000000000000000000000000000000000000000000000000000000000100011 '"
b111 #
1!
#70000
0!
#75000
b111 P
b100 <
b100 M
b100 A"
b1 ;
b1 O
b1 W
b100 )
b100 5"
b100 7"
b100 ="
b100 E"
b110 2"
b100 0
b100 ."
b100 <"
b100000 6
b100000 *"
b100000 B"
1S
0T
b1100000010010100 >
b1100000010010100 \
b1100000010010100 L"
b11100000100100 :
b11100000100100 N"
b100 4"
0t
b1 s
0J"
b1 D"
b1000000000000000000000000000000000000000000000000000000000000011000100 *
b1000000000000000000000000000000000000000000000000000000000000011000100 &"
0j
b110 k
1r
b100 q
b110 >"
b110 8"
b10000xxxxxxxxxxxxxxxxxxxxxxxxxxxxxxxx0000000000000000000000000000001110000000000000000000000000000010000110 -
b10000xxxxxxxxxxxxxxxxxxxxxxxxxxxxxxxx0000000000000000000000000000001110000000000000000000000000000010000110 o
b10 v
b11000000100101 K"
b110 0"
b10 /"
b11000000100101 ,"
b100 +"
b100101 R
b10 z
b11100000100100 M"
b10000100101000000000000000000000000000111000000000000000000000000000000001100000000000000000000000000000001000000000000000000111000001001000001100111 ,
b10000100101000000000000000000000000000111000000000000000000000000000000001100000000000000000000000000000001000000000000000000111000001001000001100111 }
b1 .
b1 I"
b11 H"
b11 |
b100000 8
b100000 Z
b100000 ("
b10000001 2
b10000001 '"
b10000xxxxxxxxxxxxxxxxxxxxxxxxxxxxxxxx0000000000000000000000000000001100000000000000000000000000000001100100 5
b10000xxxxxxxxxxxxxxxxxxxxxxxxxxxxxxxx0000000000000000000000000000001100000000000000000000000000000001100100 p
b10000100101000000000000000000000000000110000000000000000000000000000000001100000000000000000000000000000100000000000000000000110000001001010001000110 4
b10000100101000000000000000000000000000110000000000000000000000000000000001100000000000000000000000000000100000000000000000000110000001001010001000110 ~
b1110000000000001000110011100000100100 3
b1110000000000001000110011100000100100 ""
b10000000000000100000100010100000100010 +
b10000000000000100000100010100000100010 !"
b100000100010100000100010 9
b100000100010100000100010 #"
b11100 1
b11100 Y
b11100 $"
b11100 C"
b1000 #
1!
#80000
0!
#85000
0L
b1 P
b1 <
b1 M
b1 A"
b0 ;
b0 O
b0 W
b100100 6
b100100 *"
b100100 B"
b111 2"
b1 0
b1 ."
b1 <"
b110 )
b110 5"
b110 7"
b110 ="
b110 E"
0S
b10100000100010 :
b10100000100010 N"
b1110000010010000 >
b1110000010010000 \
b1110000010010000 L"
b100100 8
b100100 Z
b100100 ("
b10100000100010 M"
b100 .
b100 I"
b10 H"
b1000000100101000000000000000000000000001000000000000000000000000000000000000000000000000000000000000000000100000000000000000000101000001000100001000101 ,
b1000000100101000000000000000000000000001000000000000000000000000000000000000000000000000000000000000000000100000000000000000000101000001000100001000101 }
b0 /
b0 G"
b100 F"
b10 |
b100 {
b10000xxxxxxxxxxxxxxxxxxxxxxxxxxxxxxxx0000000000000000000000000000000010000000000000000000000000000000100111 -
b10000xxxxxxxxxxxxxxxxxxxxxxxxxxxxxxxx0000000000000000000000000000000010000000000000000000000000000000100111 o
b11 v
b11100000100100 K"
b111 0"
b11 /"
b11100000100100 ,"
b1 +"
b100100 R
b11 z
b1000000000000000000000000000000000000000000000000000000000000011100110 *
b1000000000000000000000000000000000000000000000000000000000000011100110 &"
b100 l
b111 k
b110 q
b111 >"
b111 8"
b110 4"
1t
b100 s
1J"
b100 D"
b10010000000000001000100100000000101010 +
b10010000000000001000100100000000101010 !"
b1000100100000000101010 9
b1000100100000000101010 #"
b100000 1
b100000 Y
b100000 $"
b100000 C"
b10000000000000100000100010100000100010 3
b10000000000000100000100010100000100010 ""
b10000100101000000000000000000000000000111000000000000000000000000000000001100000000000000000000000000000001000000000000000000111000001001000001100111 4
b10000100101000000000000000000000000000111000000000000000000000000000000001100000000000000000000000000000001000000000000000000111000001001000001100111 ~
b10000xxxxxxxxxxxxxxxxxxxxxxxxxxxxxxxx0000000000000000000000000000001110000000000000000000000000000010000110 5
b10000xxxxxxxxxxxxxxxxxxxxxxxxxxxxxxxx0000000000000000000000000000001110000000000000000000000000000010000110 p
b1000000000000000000000000000000000000000000000000000000000000011000100 2
b1000000000000000000000000000000000000000000000000000000000000011000100 '"
b1001 #
1!
#90000
b1000000100101000000000000000000000000001000000000000000000000000000000000011000000000000000000000000000000100000000000000000000101000001000100001000101 ,
b1000000100101000000000000000000000000001000000000000000000000000000000000011000000000000000000000000000000100000000000000000000101000001000100001000101 }
b110 /
b110 G"
0!
#95000
b100 <
b100 M
b100 A"
b10 P
b110 ;
b110 O
b110 W
b111 )
b111 5"
b111 7"
b111 ="
b111 E"
b101 2"
b100 0
b100 ."
b100 <"
b110 =
b110 N
b110 ;"
b101000 6
b101000 *"
b101000 B"
1T
1U
b1010000010001000 >
b1010000010001000 \
b1010000010001000 L"
b100000000101010 :
b100000000101010 N"
b111 4"
b110 s
b110 D"
b1000000000000000000000000000000000000000000000000000000000000000100111 *
b1000000000000000000000000000000000000000000000000000000000000000100111 &"
b1 l
b1 k
b111 q
b1 >"
b1 8"
b10000xxxxxxxxxxxxxxxxxxxxxxxxxxxxxxxx0000000000000000000000000000000100000000000000000000000000000010000101 -
b10000xxxxxxxxxxxxxxxxxxxxxxxxxxxxxxxx0000000000000000000000000000000100000000000000000000000000000010000101 o
b10 v
b100 u
b10100000100010 K"
b101 0"
b10 /"
b10100000100010 ,"
b100 +"
b110 6"
b100010 R
b10 z
b100000000101010 M"
b10000100101000000000000000000000000001001000000000000000000000000000000001100000000000000000000000000000100000000000000000001000000001010100001001000 ,
b10000100101000000000000000000000000001001000000000000000000000000000000001100000000000000000000000000000100000000000000000001000000001010100001001000 }
b11 /
b11 G"
b1 F"
b1 {
b101000 8
b101000 Z
b101000 ("
b1000000000000000000000000000000000000000000000000000000000000011100110 2
b1000000000000000000000000000000000000000000000000000000000000011100110 '"
b10000xxxxxxxxxxxxxxxxxxxxxxxxxxxxxxxx0000000000000000000000000000000010000000000000000000000000000000100111 5
b10000xxxxxxxxxxxxxxxxxxxxxxxxxxxxxxxx0000000000000000000000000000000010000000000000000000000000000000100111 p
b1000000100101000000000000000000000000001000000000000000000000000000000000011000000000000000000000000000000100000000000000000000101000001000100001000101 4
b1000000100101000000000000000000000000001000000000000000000000000000000000011000000000000000000000000000000100000000000000000000101000001000100001000101 ~
b10010000000000001000100100000000101010 3
b10010000000000001000100100000000101010 ""
b10100000010000001000101111111111110110 +
b10100000010000001000101111111111110110 !"
b10000001000101111111111110110 9
b10000001000101111111111110110 #"
b100100 1
b100100 Y
b100100 $"
b100100 C"
b1010 #
1!
#100000
0!
