Lab5-Advanced Pipe CPU/gtkWave.vcd
$date
	Tue Jun 22 17:53:30 2021
$end
$version
	Icarus Verilog
$end
$timescale
	1ps
$end
$scope module TestBench $end
$var reg 1 ! CLK $end
$var reg 1 " RST $end
$var integer 32 # count [31:0] $end
$var integer 32 $ i [31:0] $end
$scope module cpu $end
$var wire 1 % IDEX_DataWrt $end
$var wire 1 & IFID_DataWrt $end
$var wire 1 ' PCSrc $end
$var wire 1 ! clk_i $end
$var wire 1 ( invMemToReg $end
$var wire 1 " rst_i $end
$var wire 32 ) wrt_dat [31:0] $end
$var wire 71 * toMEMWB [70:0] $end
$var wire 64 + toIFID [63:0] $end
$var wire 153 , toIDEX [152:0] $end
$var wire 107 - toEXMEM [106:0] $end
$var wire 32 . rd2 [31:0] $end
$var wire 32 / rd1 [31:0] $end
$var wire 32 0 pre_al2 [31:0] $end
$var wire 32 1 pc [31:0] $end
$var wire 71 2 otMEMWB [70:0] $end
$var wire 64 3 otIFID [63:0] $end
$var wire 153 4 otIDEX [152:0] $end
$var wire 107 5 otEXMEM [106:0] $end
$var wire 32 6 nxt_pcf [31:0] $end
$var wire 32 7 nxt_pc1 [31:0] $end
$var wire 32 8 nxt_pc0 [31:0] $end
$var wire 32 9 ins [31:0] $end
$var wire 32 : ase [31:0] $end
$var wire 4 ; alu_ctr [3:0] $end
$var wire 32 < al2 [31:0] $end
$var wire 32 = al1 [31:0] $end
$var wire 32 > afs [31:0] $end
$var wire 1 ? PCWrite $end
$var wire 2 @ Mux_Src2 [1:0] $end
$var wire 2 A Mux_Src1 [1:0] $end
$var wire 1 B IFIDWrite $end
$var wire 1 C ID_RegWrite $end
$var wire 1 D ID_RegDst $end
$var wire 1 E ID_MemWrite $end
$var wire 1 F ID_MemToReg $end
$var wire 1 G ID_MemRead $end
$var wire 1 H ID_Branch $end
$var wire 3 I ID_ALU_op [2:0] $end
$var wire 1 J ID_ALUSrc $end
$var wire 1 K IDEX_Flush $end
$scope module ALU $end
$var wire 1 L zero_o $end
$var wire 32 M src2_i [31:0] $end
$var wire 32 N src1_i [31:0] $end
$var wire 4 O ctrl_i [3:0] $end
$var reg 32 P result_o [31:0] $end
$upscope $end
$scope module ALU_Control $end
$var wire 3 Q ALUOp_i [2:0] $end
$var wire 6 R funct_i [5:0] $end
$var wire 1 S op0 $end
$var wire 1 T op1 $end
$var wire 1 U op2 $end
$var wire 1 V op3 $end
$var reg 4 W ALUCtrl_o [3:0] $end
$upscope $end
$scope module Add_pc $end
$var wire 32 X src1_i [31:0] $end
$var wire 32 Y src2_i [31:0] $end
$var reg 32 Z sum_o [31:0] $end
$upscope $end
$scope module Add_pc_branch $end
$var wire 32 [ src2_i [31:0] $end
$var wire 32 \ src1_i [31:0] $end
$var reg 32 ] sum_o [31:0] $end
$upscope $end
$scope module Control $end
$var wire 1 ^ addi $end
$var wire 1 _ bgte $end
$var wire 1 ` bgtr $end
$var wire 1 a bieq $end
$var wire 1 b bneq $end
$var wire 6 c instr_op_i [5:0] $end
$var wire 1 d lowd $end
$var wire 1 e rfmt $end
$var wire 1 f slti $end
$var wire 1 g stwd $end
$var reg 1 J ALUSrc_o $end
$var reg 3 h ALU_op_o [2:0] $end
$var reg 1 H Branch_o $end
$var reg 1 G MemRead_o $end
$var reg 1 F MemToReg_o $end
$var reg 1 E MemWrite_o $end
$var reg 1 D RegDst_o $end
$var reg 1 C RegWrite_o $end
$upscope $end
$scope module DM $end
$var wire 1 i MemRead_i $end
$var wire 1 j MemWrite_i $end
$var wire 32 k addr_i [31:0] $end
$var wire 1 ! clk_i $end
$var wire 32 l data_i [31:0] $end
$var reg 32 m data_o [31:0] $end
$upscope $end
$scope module EX_MEM $end
$var wire 1 ! clk_i $end
$var wire 1 n dataWrite_i $end
$var wire 107 o data_i [106:0] $end
$var wire 1 " rst_i $end
$var reg 107 p data_o [106:0] $end
$upscope $end
$scope module FU $end
$var wire 5 q EXMEM_RegDes_i [4:0] $end
$var wire 1 r EXMEM_WriteBack_i $end
$var wire 5 s MEMWB_RegDes_i [4:0] $end
$var wire 1 t MEMWB_WriteBack_i $end
$var wire 5 u RegRs_i [4:0] $end
$var wire 5 v RegRt_i [4:0] $end
$var reg 2 w Mux_Src1_o [1:0] $end
$var reg 2 x Mux_Src2_o [1:0] $end
$upscope $end
$scope module HDU $end
$var wire 1 y IDEX_MemRead_i $end
$var wire 5 z IDEX_RegRt_i [4:0] $end
$var wire 5 { IFID_RegRs_i [4:0] $end
$var wire 5 | IFID_RegRt_i [4:0] $end
$var wire 1 ' PCSrc_i $end
$var reg 1 K IDEX_Flush_o $end
$var reg 1 B IFIDWrite_o $end
$var reg 1 ? PCWrite_o $end
$upscope $end
$scope module ID_EX $end
$var wire 1 ! clk_i $end
$var wire 1 % dataWrite_i $end
$var wire 153 } data_i [152:0] $end
$var wire 1 " rst_i $end
$var reg 153 ~ data_o [152:0] $end
$upscope $end
$scope module IF_ID $end
$var wire 1 ! clk_i $end
$var wire 1 & dataWrite_i $end
$var wire 64 !" data_i [63:0] $end
$var wire 1 " rst_i $end
$var reg 64 "" data_o [63:0] $end
$upscope $end
$scope module IM $end
$var wire 32 #" instr_o [31:0] $end
$var wire 32 $" addr_i [31:0] $end
$upscope $end
$scope module MEM_WB $end
$var wire 1 ! clk_i $end
$var wire 1 %" dataWrite_i $end
$var wire 71 &" data_i [70:0] $end
$var wire 1 " rst_i $end
$var reg 71 '" data_o [70:0] $end
$upscope $end
$scope module Mux0 $end
$var wire 32 (" data0_i [31:0] $end
$var wire 32 )" data1_i [31:0] $end
$var wire 1 ' select_i $end
$var reg 32 *" data_o [31:0] $end
$upscope $end
$scope module Mux1 $end
$var wire 32 +" data0_i [31:0] $end
$var wire 32 ," data1_i [31:0] $end
$var wire 1 -" select_i $end
$var reg 32 ." data_o [31:0] $end
$upscope $end
$scope module Mux2 $end
$var wire 5 /" data0_i [4:0] $end
$var wire 5 0" data1_i [4:0] $end
$var wire 1 1" select_i $end
$var reg 5 2" data_o [4:0] $end
$upscope $end
$scope module Mux3 $end
$var wire 32 3" data0_i [31:0] $end
$var wire 32 4" data1_i [31:0] $end
$var wire 1 ( select_i $end
$var reg 32 5" data_o [31:0] $end
$upscope $end
$scope module Mux4 $end
$var wire 32 6" data0_i [31:0] $end
$var wire 32 7" data1_i [31:0] $end
$var wire 32 8" data2_i [31:0] $end
$var wire 32 9" data3_i [31:0] $end
$var wire 2 :" select_i [1:0] $end
$var reg 32 ;" data_o [31:0] $end
$upscope $end
$scope module Mux5 $end
$var wire 32 <" data0_i [31:0] $end
$var wire 32 =" data1_i [31:0] $end
$var wire 32 >" data2_i [31:0] $end
$var wire 32 ?" data3_i [31:0] $end
$var wire 2 @" select_i [1:0] $end
$var reg 32 A" data_o [31:0] $end
$upscope $end
$scope module PC $end
$var wire 1 ? PCWrite_i $end
$var wire 1 ! clk_i $end
$var wire 32 B" pc_in_i [31:0] $end
$var wire 1 " rst_i $end
$var reg 32 C" pc_out_o [31:0] $end
$upscope $end
$scope module RF $end
$var wire 5 D" RDaddr_i [4:0] $end
$var wire 32 E" RDdata_i [31:0] $end
$var wire 5 F" RSaddr_i [4:0] $end
$var wire 32 G" RSdata_o [31:0] $end
$var wire 5 H" RTaddr_i [4:0] $end
$var wire 32 I" RTdata_o [31:0] $end
$var wire 1 J" RegWrite_i $end
$var wire 1 ! clk_i $end
$var wire 1 " rst_i $end
$upscope $end
$scope module Shifter $end
$var wire 32 K" data_i [31:0] $end
$var wire 32 L" data_o [31:0] $end
$upscope $end
$scope module Sign_Extend $end
$var wire 16 M" data_i [15:0] $end
$var reg 32 N" data_o [31:0] $end
$upscope $end
$upscope $end
$upscope $end
$enddefinitions $end
#0
$dumpvars
bx N"
bx M"
bx00 L"
bx K"
xJ"
bx I"
bx H"
bx G"
bx F"
bx E"
bx D"
bx C"
bx B"
bx A"
bx @"
b0 ?"
bx >"
bx ="
bx <"
bx ;"
bx :"
b0 9"
bx 8"
bx 7"
bx 6"
bx 5"
bx 4"
bx 3"
bx 2"
x1"
bx 0"
bx /"
bx ."
x-"
bx ,"
bx +"
bx *"
bx )"
bx ("
bx '"
bx &"
1%"
bx $"
bx #"
bx ""
bx !"
bx ~
bx }
bx |
bx {
bx z
xy
bx x
bx w
bx v
bx u
xt
bx s
xr
bx q
bx p
bx o
xn
bx m
bx l
bx k
xj
xi
bx h
xg
xf
xe
xd
bx c
xb
xa
x`
x_
x^
bx ]
bx00 \
bx [
bx Z
bx Y
b100 X
b10 W
0V
xU
xT
xS
bx R
bx Q
bx P
b10 O
bx N
bx M
xL
xK
xJ
bx I
xH
xG
xF
xE
xD
xC
xB
bx A
bx @
x?
bx00 >
bx =
bx <
b10 ;
bx :
bx 9
bx 8
bx 7
bx 6
bx 5
bx 4
bx 3
bx 2
bx 1
bx 0
bx /
bx .
bx -
bx ,
bx +
bx *
bx )
x(
x'
x&
x%
b10000000 $
b0 #
0"
0!
$end
#5000
1L
b0 P
b0 <
b0 M
b0 A"
b0 =
b0 N
b0 ;"
1C
1D
0J
0H
0E
0G
0F
b10 I
b10 h
b0 2"
b0 0
b0 ."
b0 <"
b10 ;
b10 O
b10 W
1K
1&
1B
1?
b100 6
b100 *"
b100 B"
b0 )
b0 5"
b0 7"
b0 ="
b0 E"
b0 @
b0 x
b0 @"
b0 A
b0 w
b0 :"
1e
1n
1%
0'
0^
0a
0f
1T
0b
0_
0`
0d
0g
0S
0U
b0 :
b0 N"
b0 >
b0 \
b0 L"
b0 m
1(
b10000100000000000010000000000010000 +
b10000100000000000010000000000010000 !"
b100 8
b100 Z
b100 ("
b0 M"
b0 c
b0 .
b0 I"
b0 H"
b100101000000000000000000000000000000000000000000000000000000000000000000000000000000000000000000000000000000000000000000000000000000000000000000 ,
b100101000000000000000000000000000000000000000000000000000000000000000000000000000000000000000000000000000000000000000000000000000000000000000000 }
b0 /
b0 G"
b0 F"
b0 |
b0 {
b0xxxxxxxxxxxxxxxxxxxxxxxxxxxxxxxx1000000000000000000000000000000000000000000000000000000000000000000000 -
b0xxxxxxxxxxxxxxxxxxxxxxxxxxxxxxxx1000000000000000000000000000000000000000000000000000000000000000000000 o
b0 v
b0 u
b0 K"
01"
b0 0"
b0 /"
0-"
b0 ,"
b0 +"
b0 6"
b0 Q
b0 R
b0 z
0y
b0 *
b0 &"
0j
0i
b0 l
b0 k
0r
b0 q
b0 >"
b0 8"
b0 7
b0 )"
b0 4"
b0 3"
0t
b0 s
0J"
b0 D"
b100000000000010000000000010000 9
b100000000000010000000000010000 #"
b0 1
b0 Y
b0 $"
b0 C"
b0 3
b0 ""
b0 4
b0 ~
b0 5
b0 p
b0 2
b0 '"
b1 #
1!
#10000
0!
1"
#15000
0D
1J
b110 I
b110 h
b1000 6
b1000 *"
b1000 B"
0e
1^
b10000 :
b10000 N"
bx 7
bx )"
b10000xxxxxxxxxxxxxxxxxxxxxxxxxxxxxxxx1000000000000000000000000000000000000000000000000000000000000000000000 -
b10000xxxxxxxxxxxxxxxxxxxxxxxxxxxxxxxx1000000000000000000000000000000000000000000000000000000000000000000000 o
11"
b10 Q
b11101000000000000000000000000000001000000000000000000000000000000000000000000000000000000000000000000000000000000000000000000000100000000100000 ,
b11101000000000000000000000000000001000000000000000000000000000000000000000000000000000000000000000000000000000000000000000000000100000000100000 }
b10000 M"
b1000 c
b1 H"
b1 |
b100000000000001000010001000000011000 +
b100000000000001000010001000000011000 !"
b1000 8
b1000 Z
b1000 ("
b0xxxxxxxxxxxxxxxxxxxxxxxxxxxxxxxx1000000000000000000000000000000000000000000000000000000000000000000000 5
b0xxxxxxxxxxxxxxxxxxxxxxxxxxxxxxxx1000000000000000000000000000000000000000000000000000000000000000000000 p
b100101000000000000000000000000000000000000000000000000000000000000000000000000000000000000000000000000000000000000000000000000000000000000000000 4
b100101000000000000000000000000000000000000000000000000000000000000000000000000000000000000000000000000000000000000000000000000000000000000000000 ~
b10000100000000000010000000000010000 3
b10000100000000000010000000000010000 ""
b1000010001000000011000 9
b1000010001000000011000 #"
b100 1
b100 Y
b100 $"
b100 C"
b10 #
1!
#20000
0!
#25000
0L
b10000 P
b10000 <
b10000 M
b10000 A"
1D
0J
1C
b1100 6
b1100 *"
b1100 B"
b10 I
b10 h
b10000xxxxxxxxxxxxxxxxxxxxxxxxxxxxxxxx0000000000000000000000000000100000000000000000000000000000000000000001 -
b10000xxxxxxxxxxxxxxxxxxxxxxxxxxxxxxxx0000000000000000000000000000100000000000000000000000000000000000000001 o
b1 2"
b10000 0
b10000 ."
b10000 <"
1e
0^
b1000000011000 :
b1000000011000 N"
b1000000 >
b1000000 \
b1000000 L"
b110000100000000000110000000000001000 +
b110000100000000000110000000000001000 !"
b1100 8
b1100 Z
b1100 ("
b10000100101000000000000000000000000000010000000000000000000000000000000000000000000000000000000000000000000000000000000000000010000000110000000100010 ,
b10000100101000000000000000000000000000010000000000000000000000000000000000000000000000000000000000000000000000000000000000000010000000110000000100010 }
b1000000011000 M"
b0 c
b1 F"
b1 {
b1 v
b10000 K"
01"
b1 /"
1-"
b10000 ,"
b110 Q
b10000 R
b1 z
b1000000000000000000000000000000000000000000000000000000000000000000000 *
b1000000000000000000000000000000000000000000000000000000000000000000000 &"
1r
b100000000000110000000000001000 9
b100000000000110000000000001000 #"
b1000 1
b1000 Y
b1000 $"
b1000 C"
b100000000000001000010001000000011000 3
b100000000000001000010001000000011000 ""
b11101000000000000000000000000000001000000000000000000000000000000000000000000000000000000000000000000000000000000000000000000000100000000100000 4
b11101000000000000000000000000000001000000000000000000000000000000000000000000000000000000000000000000000000000000000000000000000100000000100000 ~
b10000xxxxxxxxxxxxxxxxxxxxxxxxxxxxxxxx1000000000000000000000000000000000000000000000000000000000000000000000 5
b10000xxxxxxxxxxxxxxxxxxxxxxxxxxxxxxxx1000000000000000000000000000000000000000000000000000000000000000000000 p
b11 #
1!
#30000
0!
#35000
b10000 =
b10000 N
b10000 ;"
0L
b100000000 P
0D
1J
b10 @
b10 x
b10 @"
b10 A
b10 w
b10 :"
b10000xxxxxxxxxxxxxxxxxxxxxxxxxxxxxxxx0000000000000000000000001000000000000000000000000000000000000000000010 -
b10000xxxxxxxxxxxxxxxxxxxxxxxxxxxxxxxx0000000000000000000000001000000000000000000000000000000000000000000010 o
b10 2"
b0 0
b0 ."
b0 <"
b11 ;
b11 O
b11 W
b110 I
b110 h
b10000 6
b10000 *"
b10000 B"
0e
1^
1S
b100000001100000 >
b100000001100000 \
b100000001100000 L"
b1000 :
b1000 N"
1t
1J"
b1000000000000000000000000000000000000000000000000000000000001000000001 *
b1000000000000000000000000000000000000000000000000000000000001000000001 &"
b10000 k
b1 q
b10000 >"
b10000 8"
b1 u
b1000000011000 K"
11"
b10 0"
0-"
b1000000011000 ,"
b10 Q
b11000 R
b11101000000000000000000000000000011000000000000000000000000000000000000000000000000000000000000000000000000000000000000000000000010000001100000 ,
b11101000000000000000000000000000011000000000000000000000000000000000000000000000000000000000000000000000000000000000000000000000010000001100000 }
b1000 M"
b1000 c
b11 H"
b0 F"
b11 |
b0 {
b1000010101100000000010000000000000100 +
b1000010101100000000010000000000000100 !"
b10000 8
b10000 Z
b10000 ("
b1000000000000000000000000000000000000000000000000000000000000000000000 2
b1000000000000000000000000000000000000000000000000000000000000000000000 '"
b10000xxxxxxxxxxxxxxxxxxxxxxxxxxxxxxxx0000000000000000000000000000100000000000000000000000000000000000000001 5
b10000xxxxxxxxxxxxxxxxxxxxxxxxxxxxxxxx0000000000000000000000000000100000000000000000000000000000000000000001 p
b10000100101000000000000000000000000000010000000000000000000000000000000000000000000000000000000000000000000000000000000000000010000000110000000100010 4
b10000100101000000000000000000000000000010000000000000000000000000000000000000000000000000000000000000000000000000000000000000010000000110000000100010 ~
b110000100000000000110000000000001000 3
b110000100000000000110000000000001000 ""
b10101100000000010000000000000100 9
b10101100000000010000000000000100 #"
b1100 1
b1100 Y
b1100 $"
b1100 C"
b100 #
1!
#40000
0!
#45000
b1000 P
1E
1J
0C
b10100 6
b10100 *"
b10100 B"
b0 I
b0 h
b10000xxxxxxxxxxxxxxxxxxxxxxxxxxxxxxxx0000000000000000000000000000010000000000000000000000000000000000000011 -
b10000xxxxxxxxxxxxxxxxxxxxxxxxxxxxxxxx0000000000000000000000000000010000000000000000000000000000000000000011 o
b11 2"
b1000 0
b1000 ."
b1000 <"
b10 ;
b10 O
b10 W
b1000 <
b1000 M
b1000 A"
b0 =
b0 N
b0 ;"
b10000 )
b10000 5"
b10000 7"
b10000 ="
b10000 E"
b0 @
b0 x
b0 @"
b0 A
b0 w
b0 :"
1g
0^
b100 :
b100 N"
b100000 >
b100000 \
b100000 L"
b1010010001100000001000000000000000100 +
b1010010001100000001000000000000000100 !"
b10100 8
b10100 Z
b10100 ("
b1000010000000000000000000000000000000100000000000000000000000000000000000000000000000000000000000000000000000000000000000000000000000001000000100000 ,
b1000010000000000000000000000000000000100000000000000000000000000000000000000000000000000000000000000000000000000000000000000000000000001000000100000 }
b100 M"
b101011 c
b1 H"
b1 |
b11 v
b0 u
b1000 K"
01"
b0 0"
b11 /"
1-"
b1000 ,"
b110 Q
b1000 R
b11 z
b1000000000000000000000000000000000000000000000000000000010000000000010 *
b1000000000000000000000000000000000000000000000000000000010000000000010 &"
b100000000 k
b10 q
b100000000 >"
b100000000 8"
b10000 4"
b1 s
b1 D"
b10001100000001000000000000000100 9
b10001100000001000000000000000100 #"
b10000 1
b10000 Y
b10000 $"
b10000 C"
b1000010101100000000010000000000000100 3
b1000010101100000000010000000000000100 ""
b11101000000000000000000000000000011000000000000000000000000000000000000000000000000000000000000000000000000000000000000000000000010000001100000 4
b11101000000000000000000000000000011000000000000000000000000000000000000000000000000000000000000000000000000000000000000000000000010000001100000 ~
b10000xxxxxxxxxxxxxxxxxxxxxxxxxxxxxxxx0000000000000000000000001000000000000000000000000000000000000000000010 5
b10000xxxxxxxxxxxxxxxxxxxxxxxxxxxxxxxx0000000000000000000000001000000000000000000000000000000000000000000010 p
b1000000000000000000000000000000000000000000000000000000000001000000001 2
b1000000000000000000000000000000000000000000000000000000000001000000001 '"
b101 #
1!
#50000
b1000010000000000000000000000000000000100000000000000000000000000000000000000000000000000000000000000010000000000000000000000000000000001000000100000 ,
b1000010000000000000000000000000000000100000000000000000000000000000000000000000000000000000000000000010000000000000000000000000000000001000000100000 }
b10000 .
b10000 I"
0!
#55000
b100 P
b100 <
b100 M
b100 A"
1G
1F
1C
0E
1J
b100000000 )
b100000000 5"
b100000000 7"
b100000000 ="
b100000000 E"
b1 2"
b100 0
b100 ."
b100 <"
b10 ;
b10 O
b10 W
b11000 6
b11000 *"
b11000 B"
1d
0g
0S
b10000 >
b10000 \
b10000 L"
b100000000 4"
b10 s
b10 D"
b1000000000000000000000000000000000000000000000000000000000000100000011 *
b1000000000000000000000000000000000000000000000000000000000000100000011 &"
b1000 k
b11 q
b1000 >"
b1000 8"
b10xxxxxxxxxxxxxxxxxxxxxxxxxxxxxxxx0000000000000000000000000000001000000000000000000000000000001000000001 -
b10xxxxxxxxxxxxxxxxxxxxxxxxxxxxxxxx0000000000000000000000000000001000000000000000000000000000001000000001 o
b1 v
b100 K"
b1 /"
b100 ,"
b10000 +"
b0 Q
b100 R
b1 z
b100011 c
b110010001000000000000000000000000000101000000000000000000000000000000000000000000000000000000000000000000000000000000000000000000000001000010000000 ,
b110010001000000000000000000000000000101000000000000000000000000000000000000000000000000000000000000000000000000000000000000000000000001000010000000 }
b0 .
b0 I"
b100 H"
b100 |
b1100000000000100000110010100000100010 +
b1100000000000100000110010100000100010 !"
b11000 8
b11000 Z
b11000 ("
b1000000000000000000000000000000000000000000000000000000010000000000010 2
b1000000000000000000000000000000000000000000000000000000010000000000010 '"
b10000xxxxxxxxxxxxxxxxxxxxxxxxxxxxxxxx0000000000000000000000000000010000000000000000000000000000000000000011 5
b10000xxxxxxxxxxxxxxxxxxxxxxxxxxxxxxxx0000000000000000000000000000010000000000000000000000000000000000000011 p
b1000010000000000000000000000000000000100000000000000000000000000000000000000000000000000000000000000010000000000000000000000000000000001000000100000 4
b1000010000000000000000000000000000000100000000000000000000000000000000000000000000000000000000000000010000000000000000000000000000000001000000100000 ~
b1010010001100000001000000000000000100 3
b1010010001100000001000000000000000100 ""
b100000110010100000100010 9
b100000110010100000100010 #"
b10100 1
b10100 Y
b10100 $"
b10100 C"
b110 #
1!
#60000
0!
#65000
1D
0G
0F
0J
1C
b11100 6
b11100 *"
b11100 B"
b10 I
b10 h
b100 2"
0K
0&
0B
0?
b1000 )
b1000 5"
b1000 7"
b1000 ="
b1000 E"
1e
0d
b10100000100010 :
b10100000100010 N"
b1110000000000011000010011000000100000 +
b1110000000000011000010011000000100000 !"
b11100 8
b11100 Z
b11100 ("
b1000000100100000000000000000000000000000110000000000000000000000000000000000000000000000000000000000000000000000000000000000000101000001000100001100101 ,
b1000000100100000000000000000000000000000110000000000000000000000000000000000000000000000000000000000000000000000000000000000000101000001000100001100101 }
b10100000100010 M"
b0 c
b11 H"
b100 F"
b11 |
b100 {
b11100xxxxxxxxxxxxxxxxxxxxxxxxxxxxxxxx0000000000000000000000000000001000000000000000000000000000000000000100 -
b11100xxxxxxxxxxxxxxxxxxxxxxxxxxxxxxxx0000000000000000000000000000001000000000000000000000000000000000000100 o
b100 v
b100 /"
b0 +"
b100 z
1y
b10000001 *
b10000001 &"
1j
b10000 l
b100 k
0r
b1 q
b100 >"
b100 8"
b1000 4"
b11 s
b11 D"
b11000010011000000100000 9
b11000010011000000100000 #"
b11000 1
b11000 Y
b11000 $"
b11000 C"
b1100000000000100000110010100000100010 3
b1100000000000100000110010100000100010 ""
b110010001000000000000000000000000000101000000000000000000000000000000000000000000000000000000000000000000000000000000000000000000000001000010000000 4
b110010001000000000000000000000000000101000000000000000000000000000000000000000000000000000000000000000000000000000000000000000000000001000010000000 ~
b10xxxxxxxxxxxxxxxxxxxxxxxxxxxxxxxx0000000000000000000000000000001000000000000000000000000000001000000001 5
b10xxxxxxxxxxxxxxxxxxxxxxxxxxxxxxxx0000000000000000000000000000001000000000000000000000000000001000000001 p
b1000000000000000000000000000000000000000000000000000000000000100000011 2
b1000000000000000000000000000000000000000000000000000000000000100000011 '"
b111 #
1!
#70000
b1000000100100000000000000000000000000000110000000000000000000000000000000000000000000000000000000000000001000000000000000000000101000001000100001100101 ,
b1000000100100000000000000000000000000000110000000000000000000000000000000000000000000000000000000000000001000000000000000000000101000001000100001100101 }
b1000 .
b1000 I"
0!
#75000
b11111111111111111111111111111100 P
b100 =
b100 N
b100 ;"
b1000 <
b1000 M
b1000 A"
b1000000100101000000000000000000000000000110000000000000000000000000000000000000000000000000000000000000001000000000000000000000101000001000100001100101 ,
b1000000100101000000000000000000000000000110000000000000000000000000000000000000000000000000000000000000001000000000000000000000101000001000100001100101 }
b110 ;
b110 O
b110 W
b100 )
b100 5"
b100 7"
b100 ="
b100 E"
b10 A
b10 w
b10 :"
b101 2"
b1000 0
b1000 ."
b1000 <"
1K
1&
1B
1?
1U
b10000 m
b1010000010001000 >
b1010000010001000 \
b1010000010001000 L"
b100 4"
0t
b1 s
0J"
b1 D"
b11000000000000000000000000000100000000000000000000000000000000010000100 *
b11000000000000000000000000000100000000000000000000000000000000010000100 &"
0j
1i
b0 l
1r
b100 q
b0xxxxxxxxxxxxxxxxxxxxxxxxxxxxxxxx0111111111111111111111111111111000000000000000000000000000000100000101 -
b0xxxxxxxxxxxxxxxxxxxxxxxxxxxxxxxx0111111111111111111111111111111000000000000000000000000000000100000101 o
b11 v
b100 u
b10100000100010 K"
11"
b101 0"
b11 /"
0-"
b10100000100010 ,"
b1000 +"
b10 Q
b100010 R
b11 z
0y
b10000001 2
b10000001 '"
b11100xxxxxxxxxxxxxxxxxxxxxxxxxxxxxxxx0000000000000000000000000000001000000000000000000000000000000000000100 5
b11100xxxxxxxxxxxxxxxxxxxxxxxxxxxxxxxx0000000000000000000000000000001000000000000000000000000000000000000100 p
b1000000100100000000000000000000000000000110000000000000000000000000000000000000000000000000000000000000001000000000000000000000101000001000100001100101 4
b1000000100100000000000000000000000000000110000000000000000000000000000000000000000000000000000000000000001000000000000000000000101000001000100001100101 ~
b1000 #
1!
#80000
0!
#85000
b1000 P
b100000 6
b100000 *"
b100000 B"
b10000 =
b10000 N
b10000 ;"
b10000 )
b10000 5"
b10000 7"
b10000 ="
b10000 E"
b1 A
b1 w
b1 :"
b11000000100000 :
b11000000100000 N"
b0 m
0(
b10000000100000001001110000000000001010 +
b10000000100000001001110000000000001010 !"
b100000 8
b100000 Z
b100000 ("
b11000000100000 M"
b10000 .
b10000 I"
b1 H"
b110000100101000000000000000000000000000111000000000000000000000000000000100000000000000000000000000000010000000000000000000000110000001000000000100110 ,
b110000100101000000000000000000000000000111000000000000000000000000000000100000000000000000000000000000010000000000000000000000110000001000000000100110 }
b1000 /
b1000 G"
b11 F"
b1 |
b11 {
b10000xxxxxxxxxxxxxxxxxxxxxxxxxxxxxxxx0000000000000000000000000000010000000000000000000000000000000100000101 -
b10000xxxxxxxxxxxxxxxxxxxxxxxxxxxxxxxx0000000000000000000000000000010000000000000000000000000000000100000101 o
b1111111111111111111111111111110000101 *
b1111111111111111111111111111110000101 &"
0i
b1000 l
b11111111111111111111111111111100 k
0r
b101 q
b11111111111111111111111111111100 >"
b11111111111111111111111111111100 8"
b10000 3"
1t
b100 s
1J"
b100 D"
b100000001001110000000000001010 9
b100000001001110000000000001010 #"
b11100 1
b11100 Y
b11100 $"
b11100 C"
b1110000000000011000010011000000100000 3
b1110000000000011000010011000000100000 ""
b1000000100101000000000000000000000000000110000000000000000000000000000000000000000000000000000000000000001000000000000000000000101000001000100001100101 4
b1000000100101000000000000000000000000000110000000000000000000000000000000000000000000000000000000000000001000000000000000000000101000001000100001100101 ~
b0xxxxxxxxxxxxxxxxxxxxxxxxxxxxxxxx0111111111111111111111111111111000000000000000000000000000000100000101 5
b0xxxxxxxxxxxxxxxxxxxxxxxxxxxxxxxx0111111111111111111111111111111000000000000000000000000000000100000101 p
b11000000000000000000000000000100000000000000000000000000000000010000100 2
b11000000000000000000000000000100000000000000000000000000000000010000100 '"
b1001 #
1!
#90000
0!
#95000
b11000 P
b1000 =
b1000 N
b1000 ;"
b10000 <
b10000 M
b10000 A"
0D
1J
b10 ;
b10 O
b10 W
b11111111111111111111111111111100 )
b11111111111111111111111111111100 5"
b11111111111111111111111111111100 7"
b11111111111111111111111111111100 ="
b11111111111111111111111111111100 E"
b0 A
b0 w
b0 :"
b110 2"
b10000 0
b10000 ."
b10000 <"
b110 I
b110 h
b100100 6
b100100 *"
b100100 B"
0e
1^
0U
1(
b1100000010000000 >
b1100000010000000 \
b1100000010000000 L"
b1010 :
b1010 N"
b11111111111111111111111111111100 4"
b0 3"
0t
b101 s
0J"
b101 D"
b1000000000000000000000000000000000000000000000000000000000000100000101 *
b1000000000000000000000000000000000000000000000000000000000000100000101 &"
b1000 k
1r
b1000 >"
b1000 8"
b10000xxxxxxxxxxxxxxxxxxxxxxxxxxxxxxxx0000000000000000000000000000110000000000000000000000000000001000000110 -
b10000xxxxxxxxxxxxxxxxxxxxxxxxxxxxxxxx0000000000000000000000000000110000000000000000000000000000001000000110 o
b1 v
b11 u
b11000000100000 K"
b110 0"
b1 /"
b11000000100000 ,"
b10000 +"
b1000 6"
b100000 R
b1 z
b1010 M"
b1000 c
b0 .
b0 I"
b111 H"
b10000011101000000000000000000000000001000000000000000000000000000000001000000000000000000000000000000000000000000000000000000000000000010100011100000 ,
b10000011101000000000000000000000000001000000000000000000000000000000001000000000000000000000000000000000000000000000000000000000000000010100011100000 }
b10000 /
b10000 G"
b1 F"
b111 |
b1 {
b10010000000000111000110100000000100100 +
b10010000000000111000110100000000100100 !"
b100100 8
b100100 Z
b100100 ("
b1111111111111111111111111111110000101 2
b1111111111111111111111111111110000101 '"
b10000xxxxxxxxxxxxxxxxxxxxxxxxxxxxxxxx0000000000000000000000000000010000000000000000000000000000000100000101 5
b10000xxxxxxxxxxxxxxxxxxxxxxxxxxxxxxxx0000000000000000000000000000010000000000000000000000000000000100000101 p
b110000100101000000000000000000000000000111000000000000000000000000000000100000000000000000000000000000010000000000000000000000110000001000000000100110 4
b110000100101000000000000000000000000000111000000000000000000000000000000100000000000000000000000000000010000000000000000000000110000001000000000100110 ~
b10000000100000001001110000000000001010 3
b10000000100000001001110000000000001010 ""
b111000110100000000100100 9
b111000110100000000100100 #"
b100000 1
b100000 Y
b100000 $"
b100000 C"
b1010 #
1!
#100000
0!
